<?xml version="1.0" encoding="UTF-8"?>
<!DOCTYPE svg PUBLIC "-//W3C//DTD SVG 1.1//EN"
    "http://www.w3.org/Graphics/SVG/1.1/DTD/svg11.dtd" >
<svg contentScriptType="text/ecmascript" width="1400.1653"
     xmlns:xlink="http://www.w3.org/1999/xlink" zoomAndPan="magnify"
     contentStyleType="text/css"
     viewBox="-586.005005 -397.758820 1400.165283 711.932983" height="711.933"
     preserveAspectRatio="xMidYMid meet" xmlns="http://www.w3.org/2000/svg"
     version="1.1">
    <g id="edges">
        <path fill="none" stroke-width="5.0"
              d="M -69.334656,140.343903 L -93.705971,265.847229"
              class="id_chebi:32635 id_chebi:82942" stroke-opacity="1.0"
              stroke="#3fb17d"/>
        <path fill="none" stroke-width="5.0"
              d="M -79.860008,129.906448 L -332.115845,181.090469"
              class="id_chebi:32635 id_chebi:82944" stroke-opacity="1.0"
              stroke="#3fb17d"/>
        <path fill="none" stroke-width="5.0"
              d="M 247.125290,-110.289017 L 551.088196,-297.155792"
              class="id_chebi:46195 id_chebi:133005" stroke-opacity="1.0"
              stroke="#ee7993"/>
        <path fill="none" stroke-width="5.0"
              d="M 202.077316,-105.000343 L -185.240082,-232.269196"
              class="id_chebi:46195 id_chebi:133066" stroke-opacity="1.0"
              stroke="#ee7993"/>
        <path fill="none" stroke-width="5.0"
              d="M 249.418640,-88.920807 L 413.645569,-31.312157"
              class="id_chebi:46195 id_chebi:133435" stroke-opacity="1.0"
              stroke="#ee7993"/>
        <path fill="none" stroke-width="5.0"
              d="M 250.737305,-99.323311 L 504.348114,-120.981239"
              class="id_chebi:46195 id_chebi:139354" stroke-opacity="1.0"
              stroke="#ee7993"/>
        <path fill="none" stroke-width="5.0"
              d="M 221.879166,-72.509933 L 208.470657,11.314255"
              class="id_chebi:46195 id_chebi:139475" stroke-opacity="1.0"
              stroke="#ee7993"/>
        <path fill="none" stroke-width="5.0"
              d="M 242.544693,-78.607086 L 408.923309,106.406097"
              class="id_chebi:46195 id_chebi:139476" stroke-opacity="1.0"
              stroke="#ee7993"/>
        <path fill="none" stroke-width="5.0"
              d="M 205.991364,-81.980682 L -36.376823,103.924767"
              class="id_chebi:46195 id_chebi:32635" stroke-opacity="1.0"
              stroke="#969588"/>
        <path fill="none" stroke-width="5.0"
              d="M 200.885345,-98.888771 L -279.128296,-131.463760"
              class="id_chebi:46195 id_chebi:32636" stroke-opacity="1.0"
              stroke="#ee7993"/>
        <path fill="none" stroke-width="5.0"
              d="M 220.511063,-121.624161 L 170.892761,-349.590759"
              class="id_chebi:46195 id_chebi:32639" stroke-opacity="1.0"
              stroke="#ee7993"/>
        <path fill="none" stroke-width="5.0"
              d="M 249.399673,-105.525253 L 607.855835,-232.187195"
              class="id_chebi:46195 id_chebi:8050" stroke-opacity="1.0"
              stroke="#ee7993"/>
    </g>
    <g id="arrows">
        <polyline fill="#3fb17d" fill-opacity="1.0"
                  class="id_chebi:32635 id_chebi:82942"
                  points="-98.471664,290.388794 -105.976753,263.464386 -81.435188,268.230072"
                  stroke="none"/>
        <polyline fill="#3fb17d" fill-opacity="1.0"
                  class="id_chebi:32635 id_chebi:82944"
                  points="-356.616577,186.061798 -334.601501,168.840103 -329.630188,193.340836"
                  stroke="none"/>
        <polyline fill="#ee7993" fill-opacity="1.0"
                  class="id_chebi:46195 id_chebi:133005"
                  points="572.385498,-310.248718 557.634644,-286.507141 544.541748,-307.804443"
                  stroke="none"/>
        <polyline fill="#ee7993" fill-opacity="1.0"
                  class="id_chebi:46195 id_chebi:133066"
                  points="-208.990738,-240.073441 -181.337967,-244.144531 -189.142197,-220.393860"
                  stroke="none"/>
        <polyline fill="#ee7993" fill-opacity="1.0"
                  class="id_chebi:46195 id_chebi:133435"
                  points="437.236237,-23.036861 409.507935,-19.516823 417.783203,-43.107491"
                  stroke="none"/>
        <polyline fill="#ee7993" fill-opacity="1.0"
                  class="id_chebi:46195 id_chebi:139354"
                  points="529.257446,-123.108452 505.411713,-108.526573 503.284515,-133.435913"
                  stroke="none"/>
        <polyline fill="#ee7993" fill-opacity="1.0"
                  class="id_chebi:46195 id_chebi:139475"
                  points="204.521851,36.000427 196.127579,9.339855 220.813736,13.288654"
                  stroke="none"/>
        <polyline fill="#ee7993" fill-opacity="1.0"
                  class="id_chebi:46195 id_chebi:139476"
                  points="425.640045,124.995110 399.628815,114.764458 418.217804,98.047737"
                  stroke="none"/>
        <polyline fill="#969588" fill-opacity="1.0"
                  class="id_chebi:46195 id_chebi:32635"
                  points="-56.213428,119.140182 -43.984531,94.006462 -28.769114,113.843071"
                  stroke="none"/>
        <polyline fill="#ee7993" fill-opacity="1.0"
                  class="id_chebi:46195 id_chebi:32636"
                  points="-304.070923,-133.156433 -278.281952,-143.935074 -279.974640,-118.992447"
                  stroke="none"/>
        <polyline fill="#ee7993" fill-opacity="1.0"
                  class="id_chebi:46195 id_chebi:32639"
                  points="165.575851,-374.018829 183.106796,-352.249207 158.678726,-346.932312"
                  stroke="none"/>
        <polyline fill="#ee7993" fill-opacity="1.0"
                  class="id_chebi:46195 id_chebi:8050"
                  points="631.427490,-240.516342 612.020386,-220.401337 603.691284,-243.973053"
                  stroke="none"/>
    </g>
    <g id="nodes">
        <circle fill-opacity="1.0" fill="#3fb17d" r="12.266666" cx="-66.79295"
                class="id_chebi:32635" cy="127.25507" stroke="#2c7b57"
                stroke-opacity="1.0" stroke-width="2.1333332"/>
        <circle fill-opacity="1.0" fill="#3fb17d" r="9.2" cx="-100.37794"
                class="id_chebi:82942" cy="300.2054" stroke="#2c7b57"
                stroke-opacity="1.0" stroke-width="1.5999999"/>
        <circle fill-opacity="1.0" fill="#3fb17d" r="9.2" cx="-366.41687"
                class="id_chebi:82944" cy="188.05032" stroke="#2c7b57"
                stroke-opacity="1.0" stroke-width="1.5999999"/>
        <circle fill-opacity="1.0" fill="#ee7993" r="23.0" cx="225.82797"
                class="id_chebi:46195" cy="-97.1961" stroke="#a65466"
                stroke-opacity="1.0" stroke-width="4.0"/>
        <circle fill-opacity="1.0" fill="#ee7993" r="9.2" cx="580.9044"
                class="id_chebi:133005" cy="-315.48587" stroke="#a65466"
                stroke-opacity="1.0" stroke-width="1.5999999"/>
        <circle fill-opacity="1.0" fill="#ee7993" r="9.2" cx="-218.491"
                class="id_chebi:133066" cy="-243.19514" stroke="#a65466"
                stroke-opacity="1.0" stroke-width="1.5999999"/>
        <circle fill-opacity="1.0" fill="#ee7993" r="9.2" cx="446.67252"
                class="id_chebi:133435" cy="-19.726744" stroke="#a65466"
                stroke-opacity="1.0" stroke-width="1.5999999"/>
        <circle fill-opacity="1.0" fill="#ee7993" r="9.2" cx="539.2212"
                class="id_chebi:139354" cy="-123.959335" stroke="#a65466"
                stroke-opacity="1.0" stroke-width="1.5999999"/>
        <circle fill-opacity="1.0" fill="#ee7993" r="9.2" cx="202.94234"
                class="id_chebi:139475" cy="45.874893" stroke="#a65466"
                stroke-opacity="1.0" stroke-width="1.5999999"/>
        <circle fill-opacity="1.0" fill="#ee7993" r="9.2" cx="432.32672"
                class="id_chebi:139476" cy="132.43071" stroke="#a65466"
                stroke-opacity="1.0" stroke-width="1.5999999"/>
        <circle fill-opacity="1.0" fill="#ee7993" r="9.2" cx="-314.04797"
                class="id_chebi:32636" cy="-133.8335" stroke="#a65466"
                stroke-opacity="1.0" stroke-width="1.5999999"/>
        <circle fill-opacity="1.0" fill="#ee7993" r="9.2" cx="163.44908"
                class="id_chebi:32639" cy="-383.79007" stroke="#a65466"
                stroke-opacity="1.0" stroke-width="1.5999999"/>
        <circle fill-opacity="1.0" fill="#ee7993" r="9.2" cx="640.8562"
                class="id_chebi:8050" cy="-243.848" stroke="#a65466"
                stroke-opacity="1.0" stroke-width="1.5999999"/>
    </g>
    <g id="node-labels">
        <text font-size="32" x="-66.79295" y="134.99725" fill="#000000"
              style="text-anchor: middle; dominant-baseline: central;"
              font-family="Dialog" class="id_chebi:32635">
            paracetamol sulfate
        </text>
        <text font-size="24" x="-100.37794" y="306.01205" fill="#000000"
              style="text-anchor: middle; dominant-baseline: central;"
              font-family="Dialog" class="id_chebi:82942">
            4-(acetylamino)-3-hydroxyphenyl hydrogen sulfate
        </text>
        <text font-size="24" x="-366.41687" y="193.85696" fill="#000000"
              style="text-anchor: middle; dominant-baseline: central;"
              font-family="Dialog" class="id_chebi:82944">
            2-methoxyacetaminophen sulfate
        </text>
        <text font-size="60" x="225.82797" y="-82.6795" fill="#000000"
              style="text-anchor: middle; dominant-baseline: central;"
              font-family="Dialog" class="id_chebi:46195">
            paracetamol
        </text>
        <text font-size="24" x="580.9044" y="-309.67923" fill="#000000"
              style="text-anchor: middle; dominant-baseline: central;"
              font-family="Dialog" class="id_chebi:133005">
            2-methoxyacetaminophen glucuronide
        </text>
        <text font-size="24" x="-218.491" y="-237.3885" fill="#000000"
              style="text-anchor: middle; dominant-baseline: central;"
              font-family="Dialog" class="id_chebi:133066">
            S-(5-acetamido-2-hydroxyphenyl)cysteine
        </text>
        <text font-size="24" x="446.67252" y="-13.920103" fill="#000000"
              style="text-anchor: middle; dominant-baseline: central;"
              font-family="Dialog" class="id_chebi:133435">
            S-(5-acetamido-2-hydroxyphenyl)-N-acetyl-L-cysteine
        </text>
        <text font-size="24" x="539.2212" y="-119.314804" fill="#000000"
              style="text-anchor: middle; dominant-baseline: central;"
              font-family="Dialog" class="id_chebi:139354">
            methacetin
        </text>
        <text font-size="24" x="202.94234" y="51.681534" fill="#000000"
              style="text-anchor: middle; dominant-baseline: central;"
              font-family="Dialog" class="id_chebi:139475">
            3-nitroacetaminophen
        </text>
        <text font-size="24" x="432.32672" y="138.23735" fill="#000000"
              style="text-anchor: middle; dominant-baseline: central;"
              font-family="Dialog" class="id_chebi:139476">
            3-nitroacetaminophen-TMS
        </text>
        <text font-size="24" x="-314.04797" y="-128.02686" fill="#000000"
              style="text-anchor: middle; dominant-baseline: central;"
              font-family="Dialog" class="id_chebi:32636">
            acetaminophen O-beta-D-glucosiduronic acid
        </text>
        <text font-size="24" x="163.44908" y="-377.98343" fill="#000000"
              style="text-anchor: middle; dominant-baseline: central;"
              font-family="Dialog" class="id_chebi:32639">
            acetaminophen glutathione conjugate
        </text>
        <text font-size="24" x="640.8562" y="-238.04137" fill="#000000"
              style="text-anchor: middle; dominant-baseline: central;"
              font-family="Dialog" class="id_chebi:8050">
            phenacetin
        </text>
    </g>
</svg>