<?xml version="1.0" encoding="UTF-8"?><svg xmlns="http://www.w3.org/2000/svg" xmlns:xlink="http://www.w3.org/1999/xlink" fill-opacity="1" color-rendering="auto" color-interpolation="auto" text-rendering="auto" stroke="black" stroke-linecap="square" width="744" stroke-miterlimit="10" shape-rendering="auto" stroke-opacity="1" fill="black" stroke-dasharray="none" font-weight="normal" stroke-width="1" height="530" font-family="'Dialog'" font-style="normal" stroke-linejoin="miter" font-size="12px" stroke-dashoffset="0" image-rendering="auto">
  <!--Generated by ySVG 2.6-->
  <defs id="genericDefs"/>
  <g>
    <defs id="defs1">
      <linearGradient x1="378.5" gradientUnits="userSpaceOnUse" x2="378.5" y1="464" y2="489" id="linearGradient1" spreadMethod="pad">
        <stop stop-opacity="1" stop-color="rgb(242,255,242)" offset="0%"/>
        <stop stop-opacity="1" stop-color="rgb(214,255,214)" offset="100%"/>
      </linearGradient>
      <linearGradient x1="378.5" gradientUnits="userSpaceOnUse" x2="378.5" y1="336" y2="361" id="linearGradient2" spreadMethod="pad">
        <stop stop-opacity="1" stop-color="rgb(242,255,242)" offset="0%"/>
        <stop stop-opacity="1" stop-color="rgb(214,255,214)" offset="100%"/>
      </linearGradient>
      <linearGradient x1="948.5" gradientUnits="userSpaceOnUse" x2="948.5" y1="464" y2="489" id="linearGradient3" spreadMethod="pad">
        <stop stop-opacity="1" stop-color="rgb(242,255,255)" offset="0%"/>
        <stop stop-opacity="1" stop-color="rgb(214,255,255)" offset="100%"/>
      </linearGradient>
      <linearGradient x1="828.5" gradientUnits="userSpaceOnUse" x2="828.5" y1="26" y2="51" id="linearGradient4" spreadMethod="pad">
        <stop stop-opacity="1" stop-color="rgb(242,255,255)" offset="0%"/>
        <stop stop-opacity="1" stop-color="rgb(214,255,255)" offset="100%"/>
      </linearGradient>
      <linearGradient x1="828.5" gradientUnits="userSpaceOnUse" x2="828.5" y1="126" y2="151" id="linearGradient5" spreadMethod="pad">
        <stop stop-opacity="1" stop-color="rgb(242,255,255)" offset="0%"/>
        <stop stop-opacity="1" stop-color="rgb(214,255,255)" offset="100%"/>
      </linearGradient>
      <linearGradient x1="948.5" gradientUnits="userSpaceOnUse" x2="948.5" y1="336" y2="361" id="linearGradient6" spreadMethod="pad">
        <stop stop-opacity="1" stop-color="rgb(242,255,255)" offset="0%"/>
        <stop stop-opacity="1" stop-color="rgb(214,255,255)" offset="100%"/>
      </linearGradient>
      <linearGradient x1="708.5" gradientUnits="userSpaceOnUse" x2="708.5" y1="336" y2="361" id="linearGradient7" spreadMethod="pad">
        <stop stop-opacity="1" stop-color="rgb(242,255,255)" offset="0%"/>
        <stop stop-opacity="1" stop-color="rgb(214,255,255)" offset="100%"/>
      </linearGradient>
      <linearGradient x1="708.5" gradientUnits="userSpaceOnUse" x2="708.5" y1="226" y2="251" id="linearGradient8" spreadMethod="pad">
        <stop stop-opacity="1" stop-color="rgb(242,255,255)" offset="0%"/>
        <stop stop-opacity="1" stop-color="rgb(214,255,255)" offset="100%"/>
      </linearGradient>
      <linearGradient x1="378.5" gradientUnits="userSpaceOnUse" x2="378.5" y1="226" y2="251" id="linearGradient9" spreadMethod="pad">
        <stop stop-opacity="1" stop-color="rgb(242,255,242)" offset="0%"/>
        <stop stop-opacity="1" stop-color="rgb(214,255,214)" offset="100%"/>
      </linearGradient>
      <clipPath clipPathUnits="userSpaceOnUse" id="clipPath1">
        <path d="M0 0 L744 0 L744 530 L0 530 L0 0 Z"/>
      </clipPath>
      <clipPath clipPathUnits="userSpaceOnUse" id="clipPath2">
        <path d="M363 12 L1107 12 L1107 542 L363 542 L363 12 Z"/>
      </clipPath>
      <clipPath clipPathUnits="userSpaceOnUse" id="clipPath3">
        <path d="M-2.5 -440 L741.5 -440 L741.5 90 L-2.5 90 L-2.5 -440 Z"/>
      </clipPath>
      <clipPath clipPathUnits="userSpaceOnUse" id="clipPath4">
        <path d="M-9.9459 -440 L204.5405 -440 L204.5405 90 L-9.9459 90 L-9.9459 -440 Z"/>
      </clipPath>
      <clipPath clipPathUnits="userSpaceOnUse" id="clipPath5">
        <path d="M-145.5 -440 L598.5 -440 L598.5 90 L-145.5 90 L-145.5 -440 Z"/>
      </clipPath>
      <clipPath clipPathUnits="userSpaceOnUse" id="clipPath6">
        <path d="M-2.5 -1078.8572 L741.5 -1078.8572 L741.5 132.5714 L-2.5 132.5714 L-2.5 -1078.8572 Z"/>
      </clipPath>
      <clipPath clipPathUnits="userSpaceOnUse" id="clipPath7">
        <path d="M-145.5 -1078.8572 L598.5 -1078.8572 L598.5 132.5714 L-145.5 132.5714 L-145.5 -1078.8572 Z"/>
      </clipPath>
      <clipPath clipPathUnits="userSpaceOnUse" id="clipPath8">
        <path d="M-2.5 -486 L741.5 -486 L741.5 44 L-2.5 44 L-2.5 -486 Z"/>
      </clipPath>
      <clipPath clipPathUnits="userSpaceOnUse" id="clipPath9">
        <path d="M-9.9459 -486 L204.5405 -486 L204.5405 44 L-9.9459 44 L-9.9459 -486 Z"/>
      </clipPath>
      <clipPath clipPathUnits="userSpaceOnUse" id="clipPath10">
        <path d="M-145.5 -486 L598.5 -486 L598.5 44 L-145.5 44 L-145.5 -486 Z"/>
      </clipPath>
      <clipPath clipPathUnits="userSpaceOnUse" id="clipPath11">
        <path d="M-2.5 -312 L741.5 -312 L741.5 218 L-2.5 218 L-2.5 -312 Z"/>
      </clipPath>
      <clipPath clipPathUnits="userSpaceOnUse" id="clipPath12">
        <path d="M-9.9459 -312 L204.5405 -312 L204.5405 218 L-9.9459 218 L-9.9459 -312 Z"/>
      </clipPath>
      <clipPath clipPathUnits="userSpaceOnUse" id="clipPath13">
        <path d="M-145.5 -312 L598.5 -312 L598.5 218 L-145.5 218 L-145.5 -312 Z"/>
      </clipPath>
      <clipPath clipPathUnits="userSpaceOnUse" id="clipPath14">
        <path d="M-2.5 -786.2857 L741.5 -786.2857 L741.5 425.1429 L-2.5 425.1429 L-2.5 -786.2857 Z"/>
      </clipPath>
      <clipPath clipPathUnits="userSpaceOnUse" id="clipPath15">
        <path d="M-145.5 -786.2857 L598.5 -786.2857 L598.5 425.1429 L-145.5 425.1429 L-145.5 -786.2857 Z"/>
      </clipPath>
      <clipPath clipPathUnits="userSpaceOnUse" id="clipPath16">
        <path d="M-2.5 -358 L741.5 -358 L741.5 172 L-2.5 172 L-2.5 -358 Z"/>
      </clipPath>
      <clipPath clipPathUnits="userSpaceOnUse" id="clipPath17">
        <path d="M-9.9459 -358 L204.5405 -358 L204.5405 172 L-9.9459 172 L-9.9459 -358 Z"/>
      </clipPath>
      <clipPath clipPathUnits="userSpaceOnUse" id="clipPath18">
        <path d="M-145.5 -358 L598.5 -358 L598.5 172 L-145.5 172 L-145.5 -358 Z"/>
      </clipPath>
      <clipPath clipPathUnits="userSpaceOnUse" id="clipPath19">
        <path d="M-572.5 -440 L171.5 -440 L171.5 90 L-572.5 90 L-572.5 -440 Z"/>
      </clipPath>
      <clipPath clipPathUnits="userSpaceOnUse" id="clipPath20">
        <path d="M-174.2703 -440 L40.2162 -440 L40.2162 90 L-174.2703 90 L-174.2703 -440 Z"/>
      </clipPath>
      <clipPath clipPathUnits="userSpaceOnUse" id="clipPath21">
        <path d="M-715.5 -440 L28.5 -440 L28.5 90 L-715.5 90 L-715.5 -440 Z"/>
      </clipPath>
      <clipPath clipPathUnits="userSpaceOnUse" id="clipPath22">
        <path d="M-572.5 -1078.8572 L171.5 -1078.8572 L171.5 132.5714 L-572.5 132.5714 L-572.5 -1078.8572 Z"/>
      </clipPath>
      <clipPath clipPathUnits="userSpaceOnUse" id="clipPath23">
        <path d="M-715.5 -1078.8572 L28.5 -1078.8572 L28.5 132.5714 L-715.5 132.5714 L-715.5 -1078.8572 Z"/>
      </clipPath>
      <clipPath clipPathUnits="userSpaceOnUse" id="clipPath24">
        <path d="M-572.5 -486 L171.5 -486 L171.5 44 L-572.5 44 L-572.5 -486 Z"/>
      </clipPath>
      <clipPath clipPathUnits="userSpaceOnUse" id="clipPath25">
        <path d="M-174.2703 -486 L40.2162 -486 L40.2162 44 L-174.2703 44 L-174.2703 -486 Z"/>
      </clipPath>
      <clipPath clipPathUnits="userSpaceOnUse" id="clipPath26">
        <path d="M-715.5 -486 L28.5 -486 L28.5 44 L-715.5 44 L-715.5 -486 Z"/>
      </clipPath>
      <clipPath clipPathUnits="userSpaceOnUse" id="clipPath27">
        <path d="M-452.5 -2 L291.5 -2 L291.5 528 L-452.5 528 L-452.5 -2 Z"/>
      </clipPath>
      <clipPath clipPathUnits="userSpaceOnUse" id="clipPath28">
        <path d="M-139.6757 -2 L74.8108 -2 L74.8108 528 L-139.6757 528 L-139.6757 -2 Z"/>
      </clipPath>
      <clipPath clipPathUnits="userSpaceOnUse" id="clipPath29">
        <path d="M-595.5 -2 L148.5 -2 L148.5 528 L-595.5 528 L-595.5 -2 Z"/>
      </clipPath>
      <clipPath clipPathUnits="userSpaceOnUse" id="clipPath30">
        <path d="M-452.5 -77.7143 L291.5 -77.7143 L291.5 1133.7142 L-452.5 1133.7142 L-452.5 -77.7143 Z"/>
      </clipPath>
      <clipPath clipPathUnits="userSpaceOnUse" id="clipPath31">
        <path d="M-595.5 -77.7143 L148.5 -77.7143 L148.5 1133.7142 L-595.5 1133.7142 L-595.5 -77.7143 Z"/>
      </clipPath>
      <clipPath clipPathUnits="userSpaceOnUse" id="clipPath32">
        <path d="M-452.5 -48 L291.5 -48 L291.5 482 L-452.5 482 L-452.5 -48 Z"/>
      </clipPath>
      <clipPath clipPathUnits="userSpaceOnUse" id="clipPath33">
        <path d="M-139.6757 -48 L74.8108 -48 L74.8108 482 L-139.6757 482 L-139.6757 -48 Z"/>
      </clipPath>
      <clipPath clipPathUnits="userSpaceOnUse" id="clipPath34">
        <path d="M-595.5 -48 L148.5 -48 L148.5 482 L-595.5 482 L-595.5 -48 Z"/>
      </clipPath>
      <clipPath clipPathUnits="userSpaceOnUse" id="clipPath35">
        <path d="M-452.5 -102 L291.5 -102 L291.5 428 L-452.5 428 L-452.5 -102 Z"/>
      </clipPath>
      <clipPath clipPathUnits="userSpaceOnUse" id="clipPath36">
        <path d="M-139.6757 -102 L74.8108 -102 L74.8108 428 L-139.6757 428 L-139.6757 -102 Z"/>
      </clipPath>
      <clipPath clipPathUnits="userSpaceOnUse" id="clipPath37">
        <path d="M-595.5 -102 L148.5 -102 L148.5 428 L-595.5 428 L-595.5 -102 Z"/>
      </clipPath>
      <clipPath clipPathUnits="userSpaceOnUse" id="clipPath38">
        <path d="M-452.5 -306.2857 L291.5 -306.2857 L291.5 905.1429 L-452.5 905.1429 L-452.5 -306.2857 Z"/>
      </clipPath>
      <clipPath clipPathUnits="userSpaceOnUse" id="clipPath39">
        <path d="M-595.5 -306.2857 L148.5 -306.2857 L148.5 905.1429 L-595.5 905.1429 L-595.5 -306.2857 Z"/>
      </clipPath>
      <clipPath clipPathUnits="userSpaceOnUse" id="clipPath40">
        <path d="M-452.5 -148 L291.5 -148 L291.5 382 L-452.5 382 L-452.5 -148 Z"/>
      </clipPath>
      <clipPath clipPathUnits="userSpaceOnUse" id="clipPath41">
        <path d="M-139.6757 -148 L74.8108 -148 L74.8108 382 L-139.6757 382 L-139.6757 -148 Z"/>
      </clipPath>
      <clipPath clipPathUnits="userSpaceOnUse" id="clipPath42">
        <path d="M-595.5 -148 L148.5 -148 L148.5 382 L-595.5 382 L-595.5 -148 Z"/>
      </clipPath>
      <clipPath clipPathUnits="userSpaceOnUse" id="clipPath43">
        <path d="M-572.5 -312 L171.5 -312 L171.5 218 L-572.5 218 L-572.5 -312 Z"/>
      </clipPath>
      <clipPath clipPathUnits="userSpaceOnUse" id="clipPath44">
        <path d="M-174.2703 -312 L40.2162 -312 L40.2162 218 L-174.2703 218 L-174.2703 -312 Z"/>
      </clipPath>
      <clipPath clipPathUnits="userSpaceOnUse" id="clipPath45">
        <path d="M-715.5 -312 L28.5 -312 L28.5 218 L-715.5 218 L-715.5 -312 Z"/>
      </clipPath>
      <clipPath clipPathUnits="userSpaceOnUse" id="clipPath46">
        <path d="M-572.5 -786.2857 L171.5 -786.2857 L171.5 425.1429 L-572.5 425.1429 L-572.5 -786.2857 Z"/>
      </clipPath>
      <clipPath clipPathUnits="userSpaceOnUse" id="clipPath47">
        <path d="M-715.5 -786.2857 L28.5 -786.2857 L28.5 425.1429 L-715.5 425.1429 L-715.5 -786.2857 Z"/>
      </clipPath>
      <clipPath clipPathUnits="userSpaceOnUse" id="clipPath48">
        <path d="M-572.5 -358 L171.5 -358 L171.5 172 L-572.5 172 L-572.5 -358 Z"/>
      </clipPath>
      <clipPath clipPathUnits="userSpaceOnUse" id="clipPath49">
        <path d="M-174.2703 -358 L40.2162 -358 L40.2162 172 L-174.2703 172 L-174.2703 -358 Z"/>
      </clipPath>
      <clipPath clipPathUnits="userSpaceOnUse" id="clipPath50">
        <path d="M-715.5 -358 L28.5 -358 L28.5 172 L-715.5 172 L-715.5 -358 Z"/>
      </clipPath>
      <clipPath clipPathUnits="userSpaceOnUse" id="clipPath51">
        <path d="M-332.5 -312 L411.5 -312 L411.5 218 L-332.5 218 L-332.5 -312 Z"/>
      </clipPath>
      <clipPath clipPathUnits="userSpaceOnUse" id="clipPath52">
        <path d="M-105.0811 -312 L109.4054 -312 L109.4054 218 L-105.0811 218 L-105.0811 -312 Z"/>
      </clipPath>
      <clipPath clipPathUnits="userSpaceOnUse" id="clipPath53">
        <path d="M-475.5 -312 L268.5 -312 L268.5 218 L-475.5 218 L-475.5 -312 Z"/>
      </clipPath>
      <clipPath clipPathUnits="userSpaceOnUse" id="clipPath54">
        <path d="M-332.5 -786.2857 L411.5 -786.2857 L411.5 425.1429 L-332.5 425.1429 L-332.5 -786.2857 Z"/>
      </clipPath>
      <clipPath clipPathUnits="userSpaceOnUse" id="clipPath55">
        <path d="M-475.5 -786.2857 L268.5 -786.2857 L268.5 425.1429 L-475.5 425.1429 L-475.5 -786.2857 Z"/>
      </clipPath>
      <clipPath clipPathUnits="userSpaceOnUse" id="clipPath56">
        <path d="M-332.5 -358 L411.5 -358 L411.5 172 L-332.5 172 L-332.5 -358 Z"/>
      </clipPath>
      <clipPath clipPathUnits="userSpaceOnUse" id="clipPath57">
        <path d="M-105.0811 -358 L109.4054 -358 L109.4054 172 L-105.0811 172 L-105.0811 -358 Z"/>
      </clipPath>
      <clipPath clipPathUnits="userSpaceOnUse" id="clipPath58">
        <path d="M-475.5 -358 L268.5 -358 L268.5 172 L-475.5 172 L-475.5 -358 Z"/>
      </clipPath>
      <clipPath clipPathUnits="userSpaceOnUse" id="clipPath59">
        <path d="M-332.5 -202 L411.5 -202 L411.5 328 L-332.5 328 L-332.5 -202 Z"/>
      </clipPath>
      <clipPath clipPathUnits="userSpaceOnUse" id="clipPath60">
        <path d="M-105.0811 -202 L109.4054 -202 L109.4054 328 L-105.0811 328 L-105.0811 -202 Z"/>
      </clipPath>
      <clipPath clipPathUnits="userSpaceOnUse" id="clipPath61">
        <path d="M-475.5 -202 L268.5 -202 L268.5 328 L-475.5 328 L-475.5 -202 Z"/>
      </clipPath>
      <clipPath clipPathUnits="userSpaceOnUse" id="clipPath62">
        <path d="M-332.5 -534.8571 L411.5 -534.8571 L411.5 676.5714 L-332.5 676.5714 L-332.5 -534.8571 Z"/>
      </clipPath>
      <clipPath clipPathUnits="userSpaceOnUse" id="clipPath63">
        <path d="M-475.5 -534.8571 L268.5 -534.8571 L268.5 676.5714 L-475.5 676.5714 L-475.5 -534.8571 Z"/>
      </clipPath>
      <clipPath clipPathUnits="userSpaceOnUse" id="clipPath64">
        <path d="M-332.5 -248 L411.5 -248 L411.5 282 L-332.5 282 L-332.5 -248 Z"/>
      </clipPath>
      <clipPath clipPathUnits="userSpaceOnUse" id="clipPath65">
        <path d="M-105.0811 -248 L109.4054 -248 L109.4054 282 L-105.0811 282 L-105.0811 -248 Z"/>
      </clipPath>
      <clipPath clipPathUnits="userSpaceOnUse" id="clipPath66">
        <path d="M-475.5 -248 L268.5 -248 L268.5 282 L-475.5 282 L-475.5 -248 Z"/>
      </clipPath>
      <clipPath clipPathUnits="userSpaceOnUse" id="clipPath67">
        <path d="M-2.5 -202 L741.5 -202 L741.5 328 L-2.5 328 L-2.5 -202 Z"/>
      </clipPath>
      <clipPath clipPathUnits="userSpaceOnUse" id="clipPath68">
        <path d="M-9.9459 -202 L204.5405 -202 L204.5405 328 L-9.9459 328 L-9.9459 -202 Z"/>
      </clipPath>
      <clipPath clipPathUnits="userSpaceOnUse" id="clipPath69">
        <path d="M-145.5 -202 L598.5 -202 L598.5 328 L-145.5 328 L-145.5 -202 Z"/>
      </clipPath>
      <clipPath clipPathUnits="userSpaceOnUse" id="clipPath70">
        <path d="M-2.5 -534.8571 L741.5 -534.8571 L741.5 676.5714 L-2.5 676.5714 L-2.5 -534.8571 Z"/>
      </clipPath>
      <clipPath clipPathUnits="userSpaceOnUse" id="clipPath71">
        <path d="M-145.5 -534.8571 L598.5 -534.8571 L598.5 676.5714 L-145.5 676.5714 L-145.5 -534.8571 Z"/>
      </clipPath>
      <clipPath clipPathUnits="userSpaceOnUse" id="clipPath72">
        <path d="M-2.5 -248 L741.5 -248 L741.5 282 L-2.5 282 L-2.5 -248 Z"/>
      </clipPath>
      <clipPath clipPathUnits="userSpaceOnUse" id="clipPath73">
        <path d="M-9.9459 -248 L204.5405 -248 L204.5405 282 L-9.9459 282 L-9.9459 -248 Z"/>
      </clipPath>
      <clipPath clipPathUnits="userSpaceOnUse" id="clipPath74">
        <path d="M-145.5 -248 L598.5 -248 L598.5 282 L-145.5 282 L-145.5 -248 Z"/>
      </clipPath>
    </defs>
    <g fill="white" text-rendering="geometricPrecision" shape-rendering="geometricPrecision" transform="translate(-363,-12)" stroke="white">
      <rect x="363" width="744" height="530" y="12" clip-path="url(#clipPath2)" stroke="none"/>
    </g>
    <g text-rendering="geometricPrecision" shape-rendering="geometricPrecision" transform="matrix(1,0,0,1,2.5,440)" image-rendering="optimizeQuality">
      <image x="0" y="0" clip-path="url(#clipPath3)" width="32" xlink:href="data:image/png;base64,iVBORw0KGgoAAAANSUhEUgAAACAAAAAgCAYAAABzenr0AAAA70lEQVR4Xu3TOQ9B&#10;QRSG4bGvhSUoUEgsjUaCRESCAuH//x/fm3ETUbhj0J0vedo5yz3XOYvFYrFY/pPM&#10;B34WHstK7iEf6OskhXmsKGWpSFVqAb5KUrzgfNG6NKQtHek+9N6IznNxJmk6/+BQ&#10;RjKWiUxTRCcpzqpbMnC+6FwWspSVrFNEhek5NL43K+/LzPnCG9nJXg4BokIDTM83&#10;Z+1MTvGtHOUkZ7kEiArrLzk/Pd+ctTM5xXn0KrdAUWH9XD3XzsExPWtn8tcCaaJC&#10;Axwfvxrr5+D2zk//WiBNVJIG+Mf5lbhmDsoasAasAWvg4wbuVbZEmoYCe84AAAAA&#10;SUVORK5CYII=" height="32" preserveAspectRatio="none"/>
      <image x="0" y="0" transform="matrix(3.4688,0,0,1,32,0)" clip-path="url(#clipPath4)" width="32" xlink:href="data:image/png;base64,iVBORw0KGgoAAAANSUhEUgAAACAAAAAgCAYAAABzenr0AAAAUklEQVR4Xu3IsQ2A&#10;QBDEQCORUcB3QAnkZEj0388X4Hw3OUuTGKZpmqYJjjLOMq4yVhl3GU8ZbxlfGX+Z&#10;RppGmkaaRppGmkaaRppGmkaaRppG1AbG7ZIBO0NCHAAAAABJRU5ErkJggg==" height="32" preserveAspectRatio="none"/>
      <image x="0" y="0" transform="matrix(1,0,0,1,143,0)" clip-path="url(#clipPath5)" width="32" xlink:href="data:image/png;base64,iVBORw0KGgoAAAANSUhEUgAAACAAAAAgCAYAAABzenr0AAAA60lEQVR4Xu3TyYoC&#10;QRAE0HAZ1wEVN1APOi4HPSiuIIrtwf3//2ciSUHw0tXV4ikT3rmCyCzAxsbGxsYG&#10;SET08UlHkKLk08fCFB0VKE9Z+sErTOxphmg81alKZfqlHDRI7BAjB0MaUI860GAS&#10;RFqJHWLtYEULmtGE+tSmCnQtch/eN3F0ENCB9rSBBpFmWlSC3oV3C1dHFzpBA22h&#10;IaQJuQ85UmnBax4R3KFBJIQ0MYauQlrIwHMN74+EuUGb2NGUutBb8F7D+wNhpIUz&#10;9Cbm9Af9nvItvxZA1hDQEvo9a9DfYAEsgAWwAJED/AOiIEh70IRn2gAAAABJRU5E&#10;rkJggg==" height="32" preserveAspectRatio="none"/>
      <image x="0" y="0" transform="matrix(1,0,0,0.4375,0,32)" clip-path="url(#clipPath6)" width="32" xlink:href="data:image/png;base64,iVBORw0KGgoAAAANSUhEUgAAACAAAAAgCAYAAABzenr0AAAARElEQVR4Xu3OsQkA&#10;IRQFQeGyK8ASLMH8MsH++/G1cB/DWdh8Wqv15Df3PPLMX155/7wUAAAAAAAAAAAA&#10;AAAAAADANcABDP6RgTI0q7QAAAAASUVORK5CYII=" height="32" preserveAspectRatio="none"/>
      <image x="0" y="0" transform="matrix(1,0,0,0.4375,143,32)" clip-path="url(#clipPath7)" width="32" xlink:href="data:image/png;base64,iVBORw0KGgoAAAANSUhEUgAAACAAAAAgCAYAAABzenr0AAAASUlEQVR4Xu3OsQkA&#10;IBQD0WBn7wiO4AB2H3T/fUxtI4rlBa7Ok6R52XDhumuuuuKyS3rYfnAKAAAAAAAA&#10;AAAAAAAAAAAAAPAVsACP6ZmBg2qKHgAAAABJRU5ErkJggg==" height="32" preserveAspectRatio="none"/>
      <image x="0" y="0" transform="matrix(1,0,0,1,0,46)" clip-path="url(#clipPath8)" width="32" xlink:href="data:image/png;base64,iVBORw0KGgoAAAANSUhEUgAAACAAAAAgCAYAAABzenr0AAABAElEQVR4Xu3UyUpD&#10;URCE4YpxiLowimYhLgwOC7NQHEMIDqCJw/u/j/XTBoTgvfEk4MIu+Na36NN9pbI0&#10;bcM6dmq39mSv9vFLRckCWSALZIHvBU7sRn9QYN127diu7MHGmv5AnaJQoGU71rUL&#10;G9qLvWv6I1WKsmRrtmUH1rO+4hmYwpuiyCyK0rAV21TswZFiCgNFiWcbfaFQlaJQ&#10;YPIMbdtXXAMl7hTPca/Yi8caxaHEsuIathUlmMSZndulXc9grrALPAUlmATPwU4c&#10;KspwIeBUfzJ3KMEkWEp2gsXkOjhR7NVYSCY7QZFVxW7wnwDTqbLQUARMBZSqk8lk&#10;Mpl/nk/AT0huSDMO2wAAAABJRU5ErkJggg==" height="32" preserveAspectRatio="none"/>
      <image x="0" y="0" transform="matrix(3.4688,0,0,1,32,46)" clip-path="url(#clipPath9)" width="32" xlink:href="data:image/png;base64,iVBORw0KGgoAAAANSUhEUgAAACAAAAAgCAYAAABzenr0AAAAU0lEQVR4Xu3IoQ2A&#10;UBTF0CY4PCOwAQPgfgL778MA9fcKXpNjCvCWaaRppGmkaaRppGmkaaRppGmkaaRp&#10;pPGUscq4y7jKOMs4ytjL2MqmaZqmn/cB5OOaAcaws0wAAAAASUVORK5CYII=" height="32" preserveAspectRatio="none"/>
      <image x="0" y="0" transform="matrix(1,0,0,1,143,46)" clip-path="url(#clipPath10)" width="32" xlink:href="data:image/png;base64,iVBORw0KGgoAAAANSUhEUgAAACAAAAAgCAYAAABzenr0AAAA+klEQVR4Xu3Ty2oC&#10;QRCF4fKCV4gRdRFcCGoWbhQSEUTQWZjEy/u/j+dnCIQs0m13SDZV8G3nVFXXmJld&#10;73SRDylkLXMZSluqllDfA0K8AW/AG/AGvjbwKjP7hwbeZS8vMpWBtOyPGjjJUXay&#10;lIn0pWmJDTBRjLOV4W9ykI0sZCwP0pCKJRTvGcLKCWZywreysnL9I+lK3RKriEAo&#10;b87amZzwZ3mSnmWsn+JXCuHaOTiCWTuTE/5o5fUzfdL6KSb5Cf85COXgeHPWzuTZ&#10;4RQfC+E/51fj2jk43py1Z4dTnQhMCv51rp1g3jw7nKpFIvAz9FeCvby8vLy8qBur&#10;jUyJY+pe5QAAAABJRU5ErkJggg==" height="32" preserveAspectRatio="none"/>
      <path fill="rgb(204,255,204)" d="M378.5 487 L521.5 487 L521.5 501 Q521.5 511 511.5 511 L388.5 511 Q378.5 511 378.5 501 Z" clip-path="url(#clipPath2)" transform="matrix(1,0,0,1,-365.5,-452)" stroke="none" image-rendering="auto"/>
      <path fill="url(#linearGradient1)" d="M378.5 475 Q378.5 465 388.5 465 L511.5 465 Q521.5 465 521.5 475 L521.5 488 L378.5 488 Z" clip-path="url(#clipPath2)" transform="matrix(1,0,0,1,-365.5,-452)" stroke="none" image-rendering="auto"/>
    </g>
    <g fill="rgb(247,255,247)" text-rendering="geometricPrecision" stroke-width="2" shape-rendering="geometricPrecision" transform="matrix(1,0,0,1,-363,-12)" stroke="rgb(247,255,247)">
      <path fill="none" d="M380.5 475 Q380.5 467 388.5 467 L511.5 467 Q519.5 467 519.5 475 L519.5 501 Q519.5 509 511.5 509 L388.5 509 Q380.5 509 380.5 501 Z" clip-path="url(#clipPath2)"/>
      <path fill="none" d="M380.5 475 Q380.5 467 388.5 467 L511.5 467 Q519.5 467 519.5 475 L519.5 501 Q519.5 509 511.5 509 L388.5 509 Q380.5 509 380.5 501 Z" stroke-width="1" clip-path="url(#clipPath2)" stroke="rgb(204,255,204)"/>
    </g>
    <g text-rendering="geometricPrecision" stroke-miterlimit="1.45" shape-rendering="geometricPrecision" font-family="sans-serif" transform="matrix(1,0,0,1,-363,-12)" stroke-linecap="butt">
      <text x="405.0059" xml:space="preserve" y="485.1699" clip-path="url(#clipPath2)" stroke="none">chebidb:52476</text>
      <text x="396.0088" xml:space="preserve" y="499.1387" clip-path="url(#clipPath2)" stroke="none">sodium phenolate</text>
    </g>
    <g text-rendering="geometricPrecision" shape-rendering="geometricPrecision" transform="matrix(1,0,0,1,2.5,312)" image-rendering="optimizeQuality">
      <image x="0" y="0" clip-path="url(#clipPath11)" width="32" xlink:href="data:image/png;base64,iVBORw0KGgoAAAANSUhEUgAAACAAAAAgCAYAAABzenr0AAAA70lEQVR4Xu3TOQ9B&#10;QRSG4bGvhSUoUEgsjUaCRESCAuH//x/fm3ETUbhj0J0vedo5yz3XOYvFYrFY/pPM&#10;B34WHstK7iEf6OskhXmsKGWpSFVqAb5KUrzgfNG6NKQtHek+9N6IznNxJmk6/+BQ&#10;RjKWiUxTRCcpzqpbMnC+6FwWspSVrFNEhek5NL43K+/LzPnCG9nJXg4BokIDTM83&#10;Z+1MTvGtHOUkZ7kEiArrLzk/Pd+ctTM5xXn0KrdAUWH9XD3XzsExPWtn8tcCaaJC&#10;Axwfvxrr5+D2zk//WiBNVJIG+Mf5lbhmDsoasAasAWvg4wbuVbZEmoYCe84AAAAA&#10;SUVORK5CYII=" height="32" preserveAspectRatio="none"/>
      <image x="0" y="0" transform="matrix(3.4688,0,0,1,32,0)" clip-path="url(#clipPath12)" width="32" xlink:href="data:image/png;base64,iVBORw0KGgoAAAANSUhEUgAAACAAAAAgCAYAAABzenr0AAAAUklEQVR4Xu3IsQ2A&#10;QBDEQCORUcB3QAnkZEj0388X4Hw3OUuTGKZpmqYJjjLOMq4yVhl3GU8ZbxlfGX+Z&#10;RppGmkaaRppGmkaaRppGmkaaRppG1AbG7ZIBO0NCHAAAAABJRU5ErkJggg==" height="32" preserveAspectRatio="none"/>
      <image x="0" y="0" transform="matrix(1,0,0,1,143,0)" clip-path="url(#clipPath13)" width="32" xlink:href="data:image/png;base64,iVBORw0KGgoAAAANSUhEUgAAACAAAAAgCAYAAABzenr0AAAA60lEQVR4Xu3TyYoC&#10;QRAE0HAZ1wEVN1APOi4HPSiuIIrtwf3//2ciSUHw0tXV4ikT3rmCyCzAxsbGxsYG&#10;SET08UlHkKLk08fCFB0VKE9Z+sErTOxphmg81alKZfqlHDRI7BAjB0MaUI860GAS&#10;RFqJHWLtYEULmtGE+tSmCnQtch/eN3F0ENCB9rSBBpFmWlSC3oV3C1dHFzpBA22h&#10;IaQJuQ85UmnBax4R3KFBJIQ0MYauQlrIwHMN74+EuUGb2NGUutBb8F7D+wNhpIUz&#10;9Cbm9Af9nvItvxZA1hDQEvo9a9DfYAEsgAWwAJED/AOiIEh70IRn2gAAAABJRU5E&#10;rkJggg==" height="32" preserveAspectRatio="none"/>
      <image x="0" y="0" transform="matrix(1,0,0,0.4375,0,32)" clip-path="url(#clipPath14)" width="32" xlink:href="data:image/png;base64,iVBORw0KGgoAAAANSUhEUgAAACAAAAAgCAYAAABzenr0AAAARElEQVR4Xu3OsQkA&#10;IRQFQeGyK8ASLMH8MsH++/G1cB/DWdh8Wqv15Df3PPLMX155/7wUAAAAAAAAAAAA&#10;AAAAAADANcABDP6RgTI0q7QAAAAASUVORK5CYII=" height="32" preserveAspectRatio="none"/>
      <image x="0" y="0" transform="matrix(1,0,0,0.4375,143,32)" clip-path="url(#clipPath15)" width="32" xlink:href="data:image/png;base64,iVBORw0KGgoAAAANSUhEUgAAACAAAAAgCAYAAABzenr0AAAASUlEQVR4Xu3OsQkA&#10;IBQD0WBn7wiO4AB2H3T/fUxtI4rlBa7Ok6R52XDhumuuuuKyS3rYfnAKAAAAAAAA&#10;AAAAAAAAAAAAAPAVsACP6ZmBg2qKHgAAAABJRU5ErkJggg==" height="32" preserveAspectRatio="none"/>
      <image x="0" y="0" transform="matrix(1,0,0,1,0,46)" clip-path="url(#clipPath16)" width="32" xlink:href="data:image/png;base64,iVBORw0KGgoAAAANSUhEUgAAACAAAAAgCAYAAABzenr0AAABAElEQVR4Xu3UyUpD&#10;URCE4YpxiLowimYhLgwOC7NQHEMIDqCJw/u/j/XTBoTgvfEk4MIu+Na36NN9pbI0&#10;bcM6dmq39mSv9vFLRckCWSALZIHvBU7sRn9QYN127diu7MHGmv5AnaJQoGU71rUL&#10;G9qLvWv6I1WKsmRrtmUH1rO+4hmYwpuiyCyK0rAV21TswZFiCgNFiWcbfaFQlaJQ&#10;YPIMbdtXXAMl7hTPca/Yi8caxaHEsuIathUlmMSZndulXc9grrALPAUlmATPwU4c&#10;KspwIeBUfzJ3KMEkWEp2gsXkOjhR7NVYSCY7QZFVxW7wnwDTqbLQUARMBZSqk8lk&#10;Mpl/nk/AT0huSDMO2wAAAABJRU5ErkJggg==" height="32" preserveAspectRatio="none"/>
      <image x="0" y="0" transform="matrix(3.4688,0,0,1,32,46)" clip-path="url(#clipPath17)" width="32" xlink:href="data:image/png;base64,iVBORw0KGgoAAAANSUhEUgAAACAAAAAgCAYAAABzenr0AAAAU0lEQVR4Xu3IoQ2A&#10;UBTF0CY4PCOwAQPgfgL778MA9fcKXpNjCvCWaaRppGmkaaRppGmkaaRppGmkaaRp&#10;pPGUscq4y7jKOMs4ytjL2MqmaZqmn/cB5OOaAcaws0wAAAAASUVORK5CYII=" height="32" preserveAspectRatio="none"/>
      <image x="0" y="0" transform="matrix(1,0,0,1,143,46)" clip-path="url(#clipPath18)" width="32" xlink:href="data:image/png;base64,iVBORw0KGgoAAAANSUhEUgAAACAAAAAgCAYAAABzenr0AAAA+klEQVR4Xu3Ty2oC&#10;QRCF4fKCV4gRdRFcCGoWbhQSEUTQWZjEy/u/j+dnCIQs0m13SDZV8G3nVFXXmJld&#10;73SRDylkLXMZSluqllDfA0K8AW/AG/AGvjbwKjP7hwbeZS8vMpWBtOyPGjjJUXay&#10;lIn0pWmJDTBRjLOV4W9ykI0sZCwP0pCKJRTvGcLKCWZywreysnL9I+lK3RKriEAo&#10;b87amZzwZ3mSnmWsn+JXCuHaOTiCWTuTE/5o5fUzfdL6KSb5Cf85COXgeHPWzuTZ&#10;4RQfC+E/51fj2jk43py1Z4dTnQhMCv51rp1g3jw7nKpFIvAz9FeCvby8vLy8qBur&#10;jUyJY+pe5QAAAABJRU5ErkJggg==" height="32" preserveAspectRatio="none"/>
      <path fill="rgb(204,255,204)" d="M378.5 359 L521.5 359 L521.5 373 Q521.5 383 511.5 383 L388.5 383 Q378.5 383 378.5 373 Z" clip-path="url(#clipPath2)" transform="matrix(1,0,0,1,-365.5,-324)" stroke="none" image-rendering="auto"/>
      <path fill="url(#linearGradient2)" d="M378.5 347 Q378.5 337 388.5 337 L511.5 337 Q521.5 337 521.5 347 L521.5 360 L378.5 360 Z" clip-path="url(#clipPath2)" transform="matrix(1,0,0,1,-365.5,-324)" stroke="none" image-rendering="auto"/>
    </g>
    <g fill="rgb(247,255,247)" text-rendering="geometricPrecision" stroke-width="2" shape-rendering="geometricPrecision" transform="matrix(1,0,0,1,-363,-12)" stroke="rgb(247,255,247)">
      <path fill="none" d="M380.5 347 Q380.5 339 388.5 339 L511.5 339 Q519.5 339 519.5 347 L519.5 373 Q519.5 381 511.5 381 L388.5 381 Q380.5 381 380.5 373 Z" clip-path="url(#clipPath2)"/>
      <path fill="none" d="M380.5 347 Q380.5 339 388.5 339 L511.5 339 Q519.5 339 519.5 347 L519.5 373 Q519.5 381 511.5 381 L388.5 381 Q380.5 381 380.5 373 Z" stroke-width="1" clip-path="url(#clipPath2)" stroke="rgb(204,255,204)"/>
    </g>
    <g text-rendering="geometricPrecision" stroke-miterlimit="1.45" shape-rendering="geometricPrecision" font-family="sans-serif" transform="matrix(1,0,0,1,-363,-12)" stroke-linecap="butt">
      <text x="405.0059" xml:space="preserve" y="357.1699" clip-path="url(#clipPath2)" stroke="none">chebidb:50526</text>
      <text x="419.8359" xml:space="preserve" y="371.1387" clip-path="url(#clipPath2)" stroke="none">phenolate</text>
    </g>
    <g text-rendering="geometricPrecision" shape-rendering="geometricPrecision" transform="matrix(1,0,0,1,572.5,440)" image-rendering="optimizeQuality">
      <image x="0" y="0" clip-path="url(#clipPath19)" width="32" xlink:href="data:image/png;base64,iVBORw0KGgoAAAANSUhEUgAAACAAAAAgCAYAAABzenr0AAAA70lEQVR4Xu3TOQ9B&#10;QRSG4bGvhSUoUEgsjUaCRESCAuH//x/fm3ETUbhj0J0vedo5yz3XOYvFYrFY/pPM&#10;B34WHstK7iEf6OskhXmsKGWpSFVqAb5KUrzgfNG6NKQtHek+9N6IznNxJmk6/+BQ&#10;RjKWiUxTRCcpzqpbMnC+6FwWspSVrFNEhek5NL43K+/LzPnCG9nJXg4BokIDTM83&#10;Z+1MTvGtHOUkZ7kEiArrLzk/Pd+ctTM5xXn0KrdAUWH9XD3XzsExPWtn8tcCaaJC&#10;Axwfvxrr5+D2zk//WiBNVJIG+Mf5lbhmDsoasAasAWvg4wbuVbZEmoYCe84AAAAA&#10;SUVORK5CYII=" height="32" preserveAspectRatio="none"/>
      <image x="0" y="0" transform="matrix(3.4688,0,0,1,32,0)" clip-path="url(#clipPath20)" width="32" xlink:href="data:image/png;base64,iVBORw0KGgoAAAANSUhEUgAAACAAAAAgCAYAAABzenr0AAAAUklEQVR4Xu3IsQ2A&#10;QBDEQCORUcB3QAnkZEj0388X4Hw3OUuTGKZpmqYJjjLOMq4yVhl3GU8ZbxlfGX+Z&#10;RppGmkaaRppGmkaaRppGmkaaRppG1AbG7ZIBO0NCHAAAAABJRU5ErkJggg==" height="32" preserveAspectRatio="none"/>
      <image x="0" y="0" transform="matrix(1,0,0,1,143,0)" clip-path="url(#clipPath21)" width="32" xlink:href="data:image/png;base64,iVBORw0KGgoAAAANSUhEUgAAACAAAAAgCAYAAABzenr0AAAA60lEQVR4Xu3TyYoC&#10;QRAE0HAZ1wEVN1APOi4HPSiuIIrtwf3//2ciSUHw0tXV4ikT3rmCyCzAxsbGxsYG&#10;SET08UlHkKLk08fCFB0VKE9Z+sErTOxphmg81alKZfqlHDRI7BAjB0MaUI860GAS&#10;RFqJHWLtYEULmtGE+tSmCnQtch/eN3F0ENCB9rSBBpFmWlSC3oV3C1dHFzpBA22h&#10;IaQJuQ85UmnBax4R3KFBJIQ0MYauQlrIwHMN74+EuUGb2NGUutBb8F7D+wNhpIUz&#10;9Cbm9Af9nvItvxZA1hDQEvo9a9DfYAEsgAWwAJED/AOiIEh70IRn2gAAAABJRU5E&#10;rkJggg==" height="32" preserveAspectRatio="none"/>
      <image x="0" y="0" transform="matrix(1,0,0,0.4375,0,32)" clip-path="url(#clipPath22)" width="32" xlink:href="data:image/png;base64,iVBORw0KGgoAAAANSUhEUgAAACAAAAAgCAYAAABzenr0AAAARElEQVR4Xu3OsQkA&#10;IRQFQeGyK8ASLMH8MsH++/G1cB/DWdh8Wqv15Df3PPLMX155/7wUAAAAAAAAAAAA&#10;AAAAAADANcABDP6RgTI0q7QAAAAASUVORK5CYII=" height="32" preserveAspectRatio="none"/>
      <image x="0" y="0" transform="matrix(1,0,0,0.4375,143,32)" clip-path="url(#clipPath23)" width="32" xlink:href="data:image/png;base64,iVBORw0KGgoAAAANSUhEUgAAACAAAAAgCAYAAABzenr0AAAASUlEQVR4Xu3OsQkA&#10;IBQD0WBn7wiO4AB2H3T/fUxtI4rlBa7Ok6R52XDhumuuuuKyS3rYfnAKAAAAAAAA&#10;AAAAAAAAAAAAAPAVsACP6ZmBg2qKHgAAAABJRU5ErkJggg==" height="32" preserveAspectRatio="none"/>
      <image x="0" y="0" transform="matrix(1,0,0,1,0,46)" clip-path="url(#clipPath24)" width="32" xlink:href="data:image/png;base64,iVBORw0KGgoAAAANSUhEUgAAACAAAAAgCAYAAABzenr0AAABAElEQVR4Xu3UyUpD&#10;URCE4YpxiLowimYhLgwOC7NQHEMIDqCJw/u/j/XTBoTgvfEk4MIu+Na36NN9pbI0&#10;bcM6dmq39mSv9vFLRckCWSALZIHvBU7sRn9QYN127diu7MHGmv5AnaJQoGU71rUL&#10;G9qLvWv6I1WKsmRrtmUH1rO+4hmYwpuiyCyK0rAV21TswZFiCgNFiWcbfaFQlaJQ&#10;YPIMbdtXXAMl7hTPca/Yi8caxaHEsuIathUlmMSZndulXc9grrALPAUlmATPwU4c&#10;KspwIeBUfzJ3KMEkWEp2gsXkOjhR7NVYSCY7QZFVxW7wnwDTqbLQUARMBZSqk8lk&#10;Mpl/nk/AT0huSDMO2wAAAABJRU5ErkJggg==" height="32" preserveAspectRatio="none"/>
      <image x="0" y="0" transform="matrix(3.4688,0,0,1,32,46)" clip-path="url(#clipPath25)" width="32" xlink:href="data:image/png;base64,iVBORw0KGgoAAAANSUhEUgAAACAAAAAgCAYAAABzenr0AAAAU0lEQVR4Xu3IoQ2A&#10;UBTF0CY4PCOwAQPgfgL778MA9fcKXpNjCvCWaaRppGmkaaRppGmkaaRppGmkaaRp&#10;pPGUscq4y7jKOMs4ytjL2MqmaZqmn/cB5OOaAcaws0wAAAAASUVORK5CYII=" height="32" preserveAspectRatio="none"/>
      <image x="0" y="0" transform="matrix(1,0,0,1,143,46)" clip-path="url(#clipPath26)" width="32" xlink:href="data:image/png;base64,iVBORw0KGgoAAAANSUhEUgAAACAAAAAgCAYAAABzenr0AAAA+klEQVR4Xu3Ty2oC&#10;QRCF4fKCV4gRdRFcCGoWbhQSEUTQWZjEy/u/j+dnCIQs0m13SDZV8G3nVFXXmJld&#10;73SRDylkLXMZSluqllDfA0K8AW/AG/AGvjbwKjP7hwbeZS8vMpWBtOyPGjjJUXay&#10;lIn0pWmJDTBRjLOV4W9ykI0sZCwP0pCKJRTvGcLKCWZywreysnL9I+lK3RKriEAo&#10;b87amZzwZ3mSnmWsn+JXCuHaOTiCWTuTE/5o5fUzfdL6KSb5Cf85COXgeHPWzuTZ&#10;4RQfC+E/51fj2jk43py1Z4dTnQhMCv51rp1g3jw7nKpFIvAz9FeCvby8vLy8qBur&#10;jUyJY+pe5QAAAABJRU5ErkJggg==" height="32" preserveAspectRatio="none"/>
      <path fill="rgb(204,255,255)" d="M948.5 487 L1091.5 487 L1091.5 501 Q1091.5 511 1081.5 511 L958.5 511 Q948.5 511 948.5 501 Z" clip-path="url(#clipPath2)" transform="matrix(1,0,0,1,-935.5,-452)" stroke="none" image-rendering="auto"/>
      <path fill="url(#linearGradient3)" d="M948.5 475 Q948.5 465 958.5 465 L1081.5 465 Q1091.5 465 1091.5 475 L1091.5 488 L948.5 488 Z" clip-path="url(#clipPath2)" transform="matrix(1,0,0,1,-935.5,-452)" stroke="none" image-rendering="auto"/>
    </g>
    <g fill="rgb(247,255,255)" text-rendering="geometricPrecision" stroke-width="2" shape-rendering="geometricPrecision" transform="matrix(1,0,0,1,-363,-12)" stroke="rgb(247,255,255)">
      <path fill="none" d="M950.5 475 Q950.5 467 958.5 467 L1081.5 467 Q1089.5 467 1089.5 475 L1089.5 501 Q1089.5 509 1081.5 509 L958.5 509 Q950.5 509 950.5 501 Z" clip-path="url(#clipPath2)"/>
      <path fill="none" d="M950.5 475 Q950.5 467 958.5 467 L1081.5 467 Q1089.5 467 1089.5 475 L1089.5 501 Q1089.5 509 1081.5 509 L958.5 509 Q950.5 509 950.5 501 Z" stroke-width="1" clip-path="url(#clipPath2)" stroke="rgb(204,255,255)"/>
    </g>
    <g text-rendering="geometricPrecision" stroke-miterlimit="1.45" shape-rendering="geometricPrecision" font-family="sans-serif" transform="matrix(1,0,0,1,-363,-12)" stroke-linecap="butt">
      <text x="975.0059" xml:space="preserve" y="485.1699" clip-path="url(#clipPath2)" stroke="none">chebidb:48219</text>
      <text x="984.6416" xml:space="preserve" y="499.1387" clip-path="url(#clipPath2)" stroke="none">disinfectant</text>
    </g>
    <g text-rendering="geometricPrecision" shape-rendering="geometricPrecision" transform="matrix(1,0,0,1,452.5,2)" image-rendering="optimizeQuality">
      <image x="0" y="0" clip-path="url(#clipPath27)" width="32" xlink:href="data:image/png;base64,iVBORw0KGgoAAAANSUhEUgAAACAAAAAgCAYAAABzenr0AAAA70lEQVR4Xu3TOQ9B&#10;QRSG4bGvhSUoUEgsjUaCRESCAuH//x/fm3ETUbhj0J0vedo5yz3XOYvFYrFY/pPM&#10;B34WHstK7iEf6OskhXmsKGWpSFVqAb5KUrzgfNG6NKQtHek+9N6IznNxJmk6/+BQ&#10;RjKWiUxTRCcpzqpbMnC+6FwWspSVrFNEhek5NL43K+/LzPnCG9nJXg4BokIDTM83&#10;Z+1MTvGtHOUkZ7kEiArrLzk/Pd+ctTM5xXn0KrdAUWH9XD3XzsExPWtn8tcCaaJC&#10;Axwfvxrr5+D2zk//WiBNVJIG+Mf5lbhmDsoasAasAWvg4wbuVbZEmoYCe84AAAAA&#10;SUVORK5CYII=" height="32" preserveAspectRatio="none"/>
      <image x="0" y="0" transform="matrix(3.4688,0,0,1,32,0)" clip-path="url(#clipPath28)" width="32" xlink:href="data:image/png;base64,iVBORw0KGgoAAAANSUhEUgAAACAAAAAgCAYAAABzenr0AAAAUklEQVR4Xu3IsQ2A&#10;QBDEQCORUcB3QAnkZEj0388X4Hw3OUuTGKZpmqYJjjLOMq4yVhl3GU8ZbxlfGX+Z&#10;RppGmkaaRppGmkaaRppGmkaaRppG1AbG7ZIBO0NCHAAAAABJRU5ErkJggg==" height="32" preserveAspectRatio="none"/>
      <image x="0" y="0" transform="matrix(1,0,0,1,143,0)" clip-path="url(#clipPath29)" width="32" xlink:href="data:image/png;base64,iVBORw0KGgoAAAANSUhEUgAAACAAAAAgCAYAAABzenr0AAAA60lEQVR4Xu3TyYoC&#10;QRAE0HAZ1wEVN1APOi4HPSiuIIrtwf3//2ciSUHw0tXV4ikT3rmCyCzAxsbGxsYG&#10;SET08UlHkKLk08fCFB0VKE9Z+sErTOxphmg81alKZfqlHDRI7BAjB0MaUI860GAS&#10;RFqJHWLtYEULmtGE+tSmCnQtch/eN3F0ENCB9rSBBpFmWlSC3oV3C1dHFzpBA22h&#10;IaQJuQ85UmnBax4R3KFBJIQ0MYauQlrIwHMN74+EuUGb2NGUutBb8F7D+wNhpIUz&#10;9Cbm9Af9nvItvxZA1hDQEvo9a9DfYAEsgAWwAJED/AOiIEh70IRn2gAAAABJRU5E&#10;rkJggg==" height="32" preserveAspectRatio="none"/>
      <image x="0" y="0" transform="matrix(1,0,0,0.4375,0,32)" clip-path="url(#clipPath30)" width="32" xlink:href="data:image/png;base64,iVBORw0KGgoAAAANSUhEUgAAACAAAAAgCAYAAABzenr0AAAARElEQVR4Xu3OsQkA&#10;IRQFQeGyK8ASLMH8MsH++/G1cB/DWdh8Wqv15Df3PPLMX155/7wUAAAAAAAAAAAA&#10;AAAAAADANcABDP6RgTI0q7QAAAAASUVORK5CYII=" height="32" preserveAspectRatio="none"/>
      <image x="0" y="0" transform="matrix(1,0,0,0.4375,143,32)" clip-path="url(#clipPath31)" width="32" xlink:href="data:image/png;base64,iVBORw0KGgoAAAANSUhEUgAAACAAAAAgCAYAAABzenr0AAAASUlEQVR4Xu3OsQkA&#10;IBQD0WBn7wiO4AB2H3T/fUxtI4rlBa7Ok6R52XDhumuuuuKyS3rYfnAKAAAAAAAA&#10;AAAAAAAAAAAAAPAVsACP6ZmBg2qKHgAAAABJRU5ErkJggg==" height="32" preserveAspectRatio="none"/>
      <image x="0" y="0" transform="matrix(1,0,0,1,0,46)" clip-path="url(#clipPath32)" width="32" xlink:href="data:image/png;base64,iVBORw0KGgoAAAANSUhEUgAAACAAAAAgCAYAAABzenr0AAABAElEQVR4Xu3UyUpD&#10;URCE4YpxiLowimYhLgwOC7NQHEMIDqCJw/u/j/XTBoTgvfEk4MIu+Na36NN9pbI0&#10;bcM6dmq39mSv9vFLRckCWSALZIHvBU7sRn9QYN127diu7MHGmv5AnaJQoGU71rUL&#10;G9qLvWv6I1WKsmRrtmUH1rO+4hmYwpuiyCyK0rAV21TswZFiCgNFiWcbfaFQlaJQ&#10;YPIMbdtXXAMl7hTPca/Yi8caxaHEsuIathUlmMSZndulXc9grrALPAUlmATPwU4c&#10;KspwIeBUfzJ3KMEkWEp2gsXkOjhR7NVYSCY7QZFVxW7wnwDTqbLQUARMBZSqk8lk&#10;Mpl/nk/AT0huSDMO2wAAAABJRU5ErkJggg==" height="32" preserveAspectRatio="none"/>
      <image x="0" y="0" transform="matrix(3.4688,0,0,1,32,46)" clip-path="url(#clipPath33)" width="32" xlink:href="data:image/png;base64,iVBORw0KGgoAAAANSUhEUgAAACAAAAAgCAYAAABzenr0AAAAU0lEQVR4Xu3IoQ2A&#10;UBTF0CY4PCOwAQPgfgL778MA9fcKXpNjCvCWaaRppGmkaaRppGmkaaRppGmkaaRp&#10;pPGUscq4y7jKOMs4ytjL2MqmaZqmn/cB5OOaAcaws0wAAAAASUVORK5CYII=" height="32" preserveAspectRatio="none"/>
      <image x="0" y="0" transform="matrix(1,0,0,1,143,46)" clip-path="url(#clipPath34)" width="32" xlink:href="data:image/png;base64,iVBORw0KGgoAAAANSUhEUgAAACAAAAAgCAYAAABzenr0AAAA+klEQVR4Xu3Ty2oC&#10;QRCF4fKCV4gRdRFcCGoWbhQSEUTQWZjEy/u/j+dnCIQs0m13SDZV8G3nVFXXmJld&#10;73SRDylkLXMZSluqllDfA0K8AW/AG/AGvjbwKjP7hwbeZS8vMpWBtOyPGjjJUXay&#10;lIn0pWmJDTBRjLOV4W9ykI0sZCwP0pCKJRTvGcLKCWZywreysnL9I+lK3RKriEAo&#10;b87amZzwZ3mSnmWsn+JXCuHaOTiCWTuTE/5o5fUzfdL6KSb5Cf85COXgeHPWzuTZ&#10;4RQfC+E/51fj2jk43py1Z4dTnQhMCv51rp1g3jw7nKpFIvAz9FeCvby8vLy8qBur&#10;jUyJY+pe5QAAAABJRU5ErkJggg==" height="32" preserveAspectRatio="none"/>
      <path fill="rgb(204,255,255)" d="M828.5 49 L971.5 49 L971.5 63 Q971.5 73 961.5 73 L838.5 73 Q828.5 73 828.5 63 Z" clip-path="url(#clipPath2)" transform="matrix(1,0,0,1,-815.5,-14)" stroke="none" image-rendering="auto"/>
      <path fill="url(#linearGradient4)" d="M828.5 37 Q828.5 27 838.5 27 L961.5 27 Q971.5 27 971.5 37 L971.5 50 L828.5 50 Z" clip-path="url(#clipPath2)" transform="matrix(1,0,0,1,-815.5,-14)" stroke="none" image-rendering="auto"/>
    </g>
    <g fill="rgb(247,255,255)" text-rendering="geometricPrecision" stroke-width="2" shape-rendering="geometricPrecision" transform="matrix(1,0,0,1,-363,-12)" stroke="rgb(247,255,255)">
      <path fill="none" d="M830.5 37 Q830.5 29 838.5 29 L961.5 29 Q969.5 29 969.5 37 L969.5 63 Q969.5 71 961.5 71 L838.5 71 Q830.5 71 830.5 63 Z" clip-path="url(#clipPath2)"/>
      <path fill="none" d="M830.5 37 Q830.5 29 838.5 29 L961.5 29 Q969.5 29 969.5 37 L969.5 63 Q969.5 71 961.5 71 L838.5 71 Q830.5 71 830.5 63 Z" stroke-width="1" clip-path="url(#clipPath2)" stroke="rgb(204,255,255)"/>
    </g>
    <g text-rendering="geometricPrecision" stroke-miterlimit="1.45" shape-rendering="geometricPrecision" font-family="sans-serif" transform="matrix(1,0,0,1,-363,-12)" stroke-linecap="butt">
      <text x="855.0059" xml:space="preserve" y="47.1699" clip-path="url(#clipPath2)" stroke="none">chebidb:50906</text>
      <text x="888.5039" xml:space="preserve" y="61.1387" clip-path="url(#clipPath2)" stroke="none">role</text>
    </g>
    <g text-rendering="geometricPrecision" shape-rendering="geometricPrecision" transform="matrix(1,0,0,1,452.5,102)" image-rendering="optimizeQuality">
      <image x="0" y="0" clip-path="url(#clipPath35)" width="32" xlink:href="data:image/png;base64,iVBORw0KGgoAAAANSUhEUgAAACAAAAAgCAYAAABzenr0AAAA70lEQVR4Xu3TOQ9B&#10;QRSG4bGvhSUoUEgsjUaCRESCAuH//x/fm3ETUbhj0J0vedo5yz3XOYvFYrFY/pPM&#10;B34WHstK7iEf6OskhXmsKGWpSFVqAb5KUrzgfNG6NKQtHek+9N6IznNxJmk6/+BQ&#10;RjKWiUxTRCcpzqpbMnC+6FwWspSVrFNEhek5NL43K+/LzPnCG9nJXg4BokIDTM83&#10;Z+1MTvGtHOUkZ7kEiArrLzk/Pd+ctTM5xXn0KrdAUWH9XD3XzsExPWtn8tcCaaJC&#10;Axwfvxrr5+D2zk//WiBNVJIG+Mf5lbhmDsoasAasAWvg4wbuVbZEmoYCe84AAAAA&#10;SUVORK5CYII=" height="32" preserveAspectRatio="none"/>
      <image x="0" y="0" transform="matrix(3.4688,0,0,1,32,0)" clip-path="url(#clipPath36)" width="32" xlink:href="data:image/png;base64,iVBORw0KGgoAAAANSUhEUgAAACAAAAAgCAYAAABzenr0AAAAUklEQVR4Xu3IsQ2A&#10;QBDEQCORUcB3QAnkZEj0388X4Hw3OUuTGKZpmqYJjjLOMq4yVhl3GU8ZbxlfGX+Z&#10;RppGmkaaRppGmkaaRppGmkaaRppG1AbG7ZIBO0NCHAAAAABJRU5ErkJggg==" height="32" preserveAspectRatio="none"/>
      <image x="0" y="0" transform="matrix(1,0,0,1,143,0)" clip-path="url(#clipPath37)" width="32" xlink:href="data:image/png;base64,iVBORw0KGgoAAAANSUhEUgAAACAAAAAgCAYAAABzenr0AAAA60lEQVR4Xu3TyYoC&#10;QRAE0HAZ1wEVN1APOi4HPSiuIIrtwf3//2ciSUHw0tXV4ikT3rmCyCzAxsbGxsYG&#10;SET08UlHkKLk08fCFB0VKE9Z+sErTOxphmg81alKZfqlHDRI7BAjB0MaUI860GAS&#10;RFqJHWLtYEULmtGE+tSmCnQtch/eN3F0ENCB9rSBBpFmWlSC3oV3C1dHFzpBA22h&#10;IaQJuQ85UmnBax4R3KFBJIQ0MYauQlrIwHMN74+EuUGb2NGUutBb8F7D+wNhpIUz&#10;9Cbm9Af9nvItvxZA1hDQEvo9a9DfYAEsgAWwAJED/AOiIEh70IRn2gAAAABJRU5E&#10;rkJggg==" height="32" preserveAspectRatio="none"/>
      <image x="0" y="0" transform="matrix(1,0,0,0.4375,0,32)" clip-path="url(#clipPath38)" width="32" xlink:href="data:image/png;base64,iVBORw0KGgoAAAANSUhEUgAAACAAAAAgCAYAAABzenr0AAAARElEQVR4Xu3OsQkA&#10;IRQFQeGyK8ASLMH8MsH++/G1cB/DWdh8Wqv15Df3PPLMX155/7wUAAAAAAAAAAAA&#10;AAAAAADANcABDP6RgTI0q7QAAAAASUVORK5CYII=" height="32" preserveAspectRatio="none"/>
      <image x="0" y="0" transform="matrix(1,0,0,0.4375,143,32)" clip-path="url(#clipPath39)" width="32" xlink:href="data:image/png;base64,iVBORw0KGgoAAAANSUhEUgAAACAAAAAgCAYAAABzenr0AAAASUlEQVR4Xu3OsQkA&#10;IBQD0WBn7wiO4AB2H3T/fUxtI4rlBa7Ok6R52XDhumuuuuKyS3rYfnAKAAAAAAAA&#10;AAAAAAAAAAAAAPAVsACP6ZmBg2qKHgAAAABJRU5ErkJggg==" height="32" preserveAspectRatio="none"/>
      <image x="0" y="0" transform="matrix(1,0,0,1,0,46)" clip-path="url(#clipPath40)" width="32" xlink:href="data:image/png;base64,iVBORw0KGgoAAAANSUhEUgAAACAAAAAgCAYAAABzenr0AAABAElEQVR4Xu3UyUpD&#10;URCE4YpxiLowimYhLgwOC7NQHEMIDqCJw/u/j/XTBoTgvfEk4MIu+Na36NN9pbI0&#10;bcM6dmq39mSv9vFLRckCWSALZIHvBU7sRn9QYN127diu7MHGmv5AnaJQoGU71rUL&#10;G9qLvWv6I1WKsmRrtmUH1rO+4hmYwpuiyCyK0rAV21TswZFiCgNFiWcbfaFQlaJQ&#10;YPIMbdtXXAMl7hTPca/Yi8caxaHEsuIathUlmMSZndulXc9grrALPAUlmATPwU4c&#10;KspwIeBUfzJ3KMEkWEp2gsXkOjhR7NVYSCY7QZFVxW7wnwDTqbLQUARMBZSqk8lk&#10;Mpl/nk/AT0huSDMO2wAAAABJRU5ErkJggg==" height="32" preserveAspectRatio="none"/>
      <image x="0" y="0" transform="matrix(3.4688,0,0,1,32,46)" clip-path="url(#clipPath41)" width="32" xlink:href="data:image/png;base64,iVBORw0KGgoAAAANSUhEUgAAACAAAAAgCAYAAABzenr0AAAAU0lEQVR4Xu3IoQ2A&#10;UBTF0CY4PCOwAQPgfgL778MA9fcKXpNjCvCWaaRppGmkaaRppGmkaaRppGmkaaRp&#10;pPGUscq4y7jKOMs4ytjL2MqmaZqmn/cB5OOaAcaws0wAAAAASUVORK5CYII=" height="32" preserveAspectRatio="none"/>
      <image x="0" y="0" transform="matrix(1,0,0,1,143,46)" clip-path="url(#clipPath42)" width="32" xlink:href="data:image/png;base64,iVBORw0KGgoAAAANSUhEUgAAACAAAAAgCAYAAABzenr0AAAA+klEQVR4Xu3Ty2oC&#10;QRCF4fKCV4gRdRFcCGoWbhQSEUTQWZjEy/u/j+dnCIQs0m13SDZV8G3nVFXXmJld&#10;73SRDylkLXMZSluqllDfA0K8AW/AG/AGvjbwKjP7hwbeZS8vMpWBtOyPGjjJUXay&#10;lIn0pWmJDTBRjLOV4W9ykI0sZCwP0pCKJRTvGcLKCWZywreysnL9I+lK3RKriEAo&#10;b87amZzwZ3mSnmWsn+JXCuHaOTiCWTuTE/5o5fUzfdL6KSb5Cf85COXgeHPWzuTZ&#10;4RQfC+E/51fj2jk43py1Z4dTnQhMCv51rp1g3jw7nKpFIvAz9FeCvby8vLy8qBur&#10;jUyJY+pe5QAAAABJRU5ErkJggg==" height="32" preserveAspectRatio="none"/>
      <path fill="rgb(204,255,255)" d="M828.5 149 L971.5 149 L971.5 163 Q971.5 173 961.5 173 L838.5 173 Q828.5 173 828.5 163 Z" clip-path="url(#clipPath2)" transform="matrix(1,0,0,1,-815.5,-114)" stroke="none" image-rendering="auto"/>
      <path fill="url(#linearGradient5)" d="M828.5 137 Q828.5 127 838.5 127 L961.5 127 Q971.5 127 971.5 137 L971.5 150 L828.5 150 Z" clip-path="url(#clipPath2)" transform="matrix(1,0,0,1,-815.5,-114)" stroke="none" image-rendering="auto"/>
    </g>
    <g fill="rgb(247,255,255)" text-rendering="geometricPrecision" stroke-width="2" shape-rendering="geometricPrecision" transform="matrix(1,0,0,1,-363,-12)" stroke="rgb(247,255,255)">
      <path fill="none" d="M830.5 137 Q830.5 129 838.5 129 L961.5 129 Q969.5 129 969.5 137 L969.5 163 Q969.5 171 961.5 171 L838.5 171 Q830.5 171 830.5 163 Z" clip-path="url(#clipPath2)"/>
      <path fill="none" d="M830.5 137 Q830.5 129 838.5 129 L961.5 129 Q969.5 129 969.5 137 L969.5 163 Q969.5 171 961.5 171 L838.5 171 Q830.5 171 830.5 163 Z" stroke-width="1" clip-path="url(#clipPath2)" stroke="rgb(204,255,255)"/>
    </g>
    <g text-rendering="geometricPrecision" stroke-miterlimit="1.45" shape-rendering="geometricPrecision" font-family="sans-serif" transform="matrix(1,0,0,1,-363,-12)" stroke-linecap="butt">
      <text x="855.0059" xml:space="preserve" y="147.1699" clip-path="url(#clipPath2)" stroke="none">chebidb:24432</text>
      <text x="857.9941" xml:space="preserve" y="161.1387" clip-path="url(#clipPath2)" stroke="none">biological role</text>
    </g>
    <g text-rendering="geometricPrecision" shape-rendering="geometricPrecision" transform="matrix(1,0,0,1,572.5,312)" image-rendering="optimizeQuality">
      <image x="0" y="0" clip-path="url(#clipPath43)" width="32" xlink:href="data:image/png;base64,iVBORw0KGgoAAAANSUhEUgAAACAAAAAgCAYAAABzenr0AAAA70lEQVR4Xu3TOQ9B&#10;QRSG4bGvhSUoUEgsjUaCRESCAuH//x/fm3ETUbhj0J0vedo5yz3XOYvFYrFY/pPM&#10;B34WHstK7iEf6OskhXmsKGWpSFVqAb5KUrzgfNG6NKQtHek+9N6IznNxJmk6/+BQ&#10;RjKWiUxTRCcpzqpbMnC+6FwWspSVrFNEhek5NL43K+/LzPnCG9nJXg4BokIDTM83&#10;Z+1MTvGtHOUkZ7kEiArrLzk/Pd+ctTM5xXn0KrdAUWH9XD3XzsExPWtn8tcCaaJC&#10;Axwfvxrr5+D2zk//WiBNVJIG+Mf5lbhmDsoasAasAWvg4wbuVbZEmoYCe84AAAAA&#10;SUVORK5CYII=" height="32" preserveAspectRatio="none"/>
      <image x="0" y="0" transform="matrix(3.4688,0,0,1,32,0)" clip-path="url(#clipPath44)" width="32" xlink:href="data:image/png;base64,iVBORw0KGgoAAAANSUhEUgAAACAAAAAgCAYAAABzenr0AAAAUklEQVR4Xu3IsQ2A&#10;QBDEQCORUcB3QAnkZEj0388X4Hw3OUuTGKZpmqYJjjLOMq4yVhl3GU8ZbxlfGX+Z&#10;RppGmkaaRppGmkaaRppGmkaaRppG1AbG7ZIBO0NCHAAAAABJRU5ErkJggg==" height="32" preserveAspectRatio="none"/>
      <image x="0" y="0" transform="matrix(1,0,0,1,143,0)" clip-path="url(#clipPath45)" width="32" xlink:href="data:image/png;base64,iVBORw0KGgoAAAANSUhEUgAAACAAAAAgCAYAAABzenr0AAAA60lEQVR4Xu3TyYoC&#10;QRAE0HAZ1wEVN1APOi4HPSiuIIrtwf3//2ciSUHw0tXV4ikT3rmCyCzAxsbGxsYG&#10;SET08UlHkKLk08fCFB0VKE9Z+sErTOxphmg81alKZfqlHDRI7BAjB0MaUI860GAS&#10;RFqJHWLtYEULmtGE+tSmCnQtch/eN3F0ENCB9rSBBpFmWlSC3oV3C1dHFzpBA22h&#10;IaQJuQ85UmnBax4R3KFBJIQ0MYauQlrIwHMN74+EuUGb2NGUutBb8F7D+wNhpIUz&#10;9Cbm9Af9nvItvxZA1hDQEvo9a9DfYAEsgAWwAJED/AOiIEh70IRn2gAAAABJRU5E&#10;rkJggg==" height="32" preserveAspectRatio="none"/>
      <image x="0" y="0" transform="matrix(1,0,0,0.4375,0,32)" clip-path="url(#clipPath46)" width="32" xlink:href="data:image/png;base64,iVBORw0KGgoAAAANSUhEUgAAACAAAAAgCAYAAABzenr0AAAARElEQVR4Xu3OsQkA&#10;IRQFQeGyK8ASLMH8MsH++/G1cB/DWdh8Wqv15Df3PPLMX155/7wUAAAAAAAAAAAA&#10;AAAAAADANcABDP6RgTI0q7QAAAAASUVORK5CYII=" height="32" preserveAspectRatio="none"/>
      <image x="0" y="0" transform="matrix(1,0,0,0.4375,143,32)" clip-path="url(#clipPath47)" width="32" xlink:href="data:image/png;base64,iVBORw0KGgoAAAANSUhEUgAAACAAAAAgCAYAAABzenr0AAAASUlEQVR4Xu3OsQkA&#10;IBQD0WBn7wiO4AB2H3T/fUxtI4rlBa7Ok6R52XDhumuuuuKyS3rYfnAKAAAAAAAA&#10;AAAAAAAAAAAAAPAVsACP6ZmBg2qKHgAAAABJRU5ErkJggg==" height="32" preserveAspectRatio="none"/>
      <image x="0" y="0" transform="matrix(1,0,0,1,0,46)" clip-path="url(#clipPath48)" width="32" xlink:href="data:image/png;base64,iVBORw0KGgoAAAANSUhEUgAAACAAAAAgCAYAAABzenr0AAABAElEQVR4Xu3UyUpD&#10;URCE4YpxiLowimYhLgwOC7NQHEMIDqCJw/u/j/XTBoTgvfEk4MIu+Na36NN9pbI0&#10;bcM6dmq39mSv9vFLRckCWSALZIHvBU7sRn9QYN127diu7MHGmv5AnaJQoGU71rUL&#10;G9qLvWv6I1WKsmRrtmUH1rO+4hmYwpuiyCyK0rAV21TswZFiCgNFiWcbfaFQlaJQ&#10;YPIMbdtXXAMl7hTPca/Yi8caxaHEsuIathUlmMSZndulXc9grrALPAUlmATPwU4c&#10;KspwIeBUfzJ3KMEkWEp2gsXkOjhR7NVYSCY7QZFVxW7wnwDTqbLQUARMBZSqk8lk&#10;Mpl/nk/AT0huSDMO2wAAAABJRU5ErkJggg==" height="32" preserveAspectRatio="none"/>
      <image x="0" y="0" transform="matrix(3.4688,0,0,1,32,46)" clip-path="url(#clipPath49)" width="32" xlink:href="data:image/png;base64,iVBORw0KGgoAAAANSUhEUgAAACAAAAAgCAYAAABzenr0AAAAU0lEQVR4Xu3IoQ2A&#10;UBTF0CY4PCOwAQPgfgL778MA9fcKXpNjCvCWaaRppGmkaaRppGmkaaRppGmkaaRp&#10;pPGUscq4y7jKOMs4ytjL2MqmaZqmn/cB5OOaAcaws0wAAAAASUVORK5CYII=" height="32" preserveAspectRatio="none"/>
      <image x="0" y="0" transform="matrix(1,0,0,1,143,46)" clip-path="url(#clipPath50)" width="32" xlink:href="data:image/png;base64,iVBORw0KGgoAAAANSUhEUgAAACAAAAAgCAYAAABzenr0AAAA+klEQVR4Xu3Ty2oC&#10;QRCF4fKCV4gRdRFcCGoWbhQSEUTQWZjEy/u/j+dnCIQs0m13SDZV8G3nVFXXmJld&#10;73SRDylkLXMZSluqllDfA0K8AW/AG/AGvjbwKjP7hwbeZS8vMpWBtOyPGjjJUXay&#10;lIn0pWmJDTBRjLOV4W9ykI0sZCwP0pCKJRTvGcLKCWZywreysnL9I+lK3RKriEAo&#10;b87amZzwZ3mSnmWsn+JXCuHaOTiCWTuTE/5o5fUzfdL6KSb5Cf85COXgeHPWzuTZ&#10;4RQfC+E/51fj2jk43py1Z4dTnQhMCv51rp1g3jw7nKpFIvAz9FeCvby8vLy8qBur&#10;jUyJY+pe5QAAAABJRU5ErkJggg==" height="32" preserveAspectRatio="none"/>
      <path fill="rgb(204,255,255)" d="M948.5 359 L1091.5 359 L1091.5 373 Q1091.5 383 1081.5 383 L958.5 383 Q948.5 383 948.5 373 Z" clip-path="url(#clipPath2)" transform="matrix(1,0,0,1,-935.5,-324)" stroke="none" image-rendering="auto"/>
      <path fill="url(#linearGradient6)" d="M948.5 347 Q948.5 337 958.5 337 L1081.5 337 Q1091.5 337 1091.5 347 L1091.5 360 L948.5 360 Z" clip-path="url(#clipPath2)" transform="matrix(1,0,0,1,-935.5,-324)" stroke="none" image-rendering="auto"/>
    </g>
    <g fill="rgb(247,255,255)" text-rendering="geometricPrecision" stroke-width="2" shape-rendering="geometricPrecision" transform="matrix(1,0,0,1,-363,-12)" stroke="rgb(247,255,255)">
      <path fill="none" d="M950.5 347 Q950.5 339 958.5 339 L1081.5 339 Q1089.5 339 1089.5 347 L1089.5 373 Q1089.5 381 1081.5 381 L958.5 381 Q950.5 381 950.5 373 Z" clip-path="url(#clipPath2)"/>
      <path fill="none" d="M950.5 347 Q950.5 339 958.5 339 L1081.5 339 Q1089.5 339 1089.5 347 L1089.5 373 Q1089.5 381 1081.5 381 L958.5 381 Q950.5 381 950.5 373 Z" stroke-width="1" clip-path="url(#clipPath2)" stroke="rgb(204,255,255)"/>
    </g>
    <g text-rendering="geometricPrecision" stroke-miterlimit="1.45" shape-rendering="geometricPrecision" font-family="sans-serif" transform="matrix(1,0,0,1,-363,-12)" stroke-linecap="butt">
      <text x="975.0059" xml:space="preserve" y="357.1699" clip-path="url(#clipPath2)" stroke="none">chebidb:33281</text>
      <text x="961.4941" xml:space="preserve" y="371.1387" clip-path="url(#clipPath2)" stroke="none">antimicrobial agent</text>
    </g>
    <g text-rendering="geometricPrecision" shape-rendering="geometricPrecision" transform="matrix(1,0,0,1,332.5,312)" image-rendering="optimizeQuality">
      <image x="0" y="0" clip-path="url(#clipPath51)" width="32" xlink:href="data:image/png;base64,iVBORw0KGgoAAAANSUhEUgAAACAAAAAgCAYAAABzenr0AAAA70lEQVR4Xu3TOQ9B&#10;QRSG4bGvhSUoUEgsjUaCRESCAuH//x/fm3ETUbhj0J0vedo5yz3XOYvFYrFY/pPM&#10;B34WHstK7iEf6OskhXmsKGWpSFVqAb5KUrzgfNG6NKQtHek+9N6IznNxJmk6/+BQ&#10;RjKWiUxTRCcpzqpbMnC+6FwWspSVrFNEhek5NL43K+/LzPnCG9nJXg4BokIDTM83&#10;Z+1MTvGtHOUkZ7kEiArrLzk/Pd+ctTM5xXn0KrdAUWH9XD3XzsExPWtn8tcCaaJC&#10;Axwfvxrr5+D2zk//WiBNVJIG+Mf5lbhmDsoasAasAWvg4wbuVbZEmoYCe84AAAAA&#10;SUVORK5CYII=" height="32" preserveAspectRatio="none"/>
      <image x="0" y="0" transform="matrix(3.4688,0,0,1,32,0)" clip-path="url(#clipPath52)" width="32" xlink:href="data:image/png;base64,iVBORw0KGgoAAAANSUhEUgAAACAAAAAgCAYAAABzenr0AAAAUklEQVR4Xu3IsQ2A&#10;QBDEQCORUcB3QAnkZEj0388X4Hw3OUuTGKZpmqYJjjLOMq4yVhl3GU8ZbxlfGX+Z&#10;RppGmkaaRppGmkaaRppGmkaaRppG1AbG7ZIBO0NCHAAAAABJRU5ErkJggg==" height="32" preserveAspectRatio="none"/>
      <image x="0" y="0" transform="matrix(1,0,0,1,143,0)" clip-path="url(#clipPath53)" width="32" xlink:href="data:image/png;base64,iVBORw0KGgoAAAANSUhEUgAAACAAAAAgCAYAAABzenr0AAAA60lEQVR4Xu3TyYoC&#10;QRAE0HAZ1wEVN1APOi4HPSiuIIrtwf3//2ciSUHw0tXV4ikT3rmCyCzAxsbGxsYG&#10;SET08UlHkKLk08fCFB0VKE9Z+sErTOxphmg81alKZfqlHDRI7BAjB0MaUI860GAS&#10;RFqJHWLtYEULmtGE+tSmCnQtch/eN3F0ENCB9rSBBpFmWlSC3oV3C1dHFzpBA22h&#10;IaQJuQ85UmnBax4R3KFBJIQ0MYauQlrIwHMN74+EuUGb2NGUutBb8F7D+wNhpIUz&#10;9Cbm9Af9nvItvxZA1hDQEvo9a9DfYAEsgAWwAJED/AOiIEh70IRn2gAAAABJRU5E&#10;rkJggg==" height="32" preserveAspectRatio="none"/>
      <image x="0" y="0" transform="matrix(1,0,0,0.4375,0,32)" clip-path="url(#clipPath54)" width="32" xlink:href="data:image/png;base64,iVBORw0KGgoAAAANSUhEUgAAACAAAAAgCAYAAABzenr0AAAARElEQVR4Xu3OsQkA&#10;IRQFQeGyK8ASLMH8MsH++/G1cB/DWdh8Wqv15Df3PPLMX155/7wUAAAAAAAAAAAA&#10;AAAAAADANcABDP6RgTI0q7QAAAAASUVORK5CYII=" height="32" preserveAspectRatio="none"/>
      <image x="0" y="0" transform="matrix(1,0,0,0.4375,143,32)" clip-path="url(#clipPath55)" width="32" xlink:href="data:image/png;base64,iVBORw0KGgoAAAANSUhEUgAAACAAAAAgCAYAAABzenr0AAAASUlEQVR4Xu3OsQkA&#10;IBQD0WBn7wiO4AB2H3T/fUxtI4rlBa7Ok6R52XDhumuuuuKyS3rYfnAKAAAAAAAA&#10;AAAAAAAAAAAAAPAVsACP6ZmBg2qKHgAAAABJRU5ErkJggg==" height="32" preserveAspectRatio="none"/>
      <image x="0" y="0" transform="matrix(1,0,0,1,0,46)" clip-path="url(#clipPath56)" width="32" xlink:href="data:image/png;base64,iVBORw0KGgoAAAANSUhEUgAAACAAAAAgCAYAAABzenr0AAABAElEQVR4Xu3UyUpD&#10;URCE4YpxiLowimYhLgwOC7NQHEMIDqCJw/u/j/XTBoTgvfEk4MIu+Na36NN9pbI0&#10;bcM6dmq39mSv9vFLRckCWSALZIHvBU7sRn9QYN127diu7MHGmv5AnaJQoGU71rUL&#10;G9qLvWv6I1WKsmRrtmUH1rO+4hmYwpuiyCyK0rAV21TswZFiCgNFiWcbfaFQlaJQ&#10;YPIMbdtXXAMl7hTPca/Yi8caxaHEsuIathUlmMSZndulXc9grrALPAUlmATPwU4c&#10;KspwIeBUfzJ3KMEkWEp2gsXkOjhR7NVYSCY7QZFVxW7wnwDTqbLQUARMBZSqk8lk&#10;Mpl/nk/AT0huSDMO2wAAAABJRU5ErkJggg==" height="32" preserveAspectRatio="none"/>
      <image x="0" y="0" transform="matrix(3.4688,0,0,1,32,46)" clip-path="url(#clipPath57)" width="32" xlink:href="data:image/png;base64,iVBORw0KGgoAAAANSUhEUgAAACAAAAAgCAYAAABzenr0AAAAU0lEQVR4Xu3IoQ2A&#10;UBTF0CY4PCOwAQPgfgL778MA9fcKXpNjCvCWaaRppGmkaaRppGmkaaRppGmkaaRp&#10;pPGUscq4y7jKOMs4ytjL2MqmaZqmn/cB5OOaAcaws0wAAAAASUVORK5CYII=" height="32" preserveAspectRatio="none"/>
      <image x="0" y="0" transform="matrix(1,0,0,1,143,46)" clip-path="url(#clipPath58)" width="32" xlink:href="data:image/png;base64,iVBORw0KGgoAAAANSUhEUgAAACAAAAAgCAYAAABzenr0AAAA+klEQVR4Xu3Ty2oC&#10;QRCF4fKCV4gRdRFcCGoWbhQSEUTQWZjEy/u/j+dnCIQs0m13SDZV8G3nVFXXmJld&#10;73SRDylkLXMZSluqllDfA0K8AW/AG/AGvjbwKjP7hwbeZS8vMpWBtOyPGjjJUXay&#10;lIn0pWmJDTBRjLOV4W9ykI0sZCwP0pCKJRTvGcLKCWZywreysnL9I+lK3RKriEAo&#10;b87amZzwZ3mSnmWsn+JXCuHaOTiCWTuTE/5o5fUzfdL6KSb5Cf85COXgeHPWzuTZ&#10;4RQfC+E/51fj2jk43py1Z4dTnQhMCv51rp1g3jw7nKpFIvAz9FeCvby8vLy8qBur&#10;jUyJY+pe5QAAAABJRU5ErkJggg==" height="32" preserveAspectRatio="none"/>
      <path fill="rgb(204,255,255)" d="M708.5 359 L851.5 359 L851.5 373 Q851.5 383 841.5 383 L718.5 383 Q708.5 383 708.5 373 Z" clip-path="url(#clipPath2)" transform="matrix(1,0,0,1,-695.5,-324)" stroke="none" image-rendering="auto"/>
      <path fill="url(#linearGradient7)" d="M708.5 347 Q708.5 337 718.5 337 L841.5 337 Q851.5 337 851.5 347 L851.5 360 L708.5 360 Z" clip-path="url(#clipPath2)" transform="matrix(1,0,0,1,-695.5,-324)" stroke="none" image-rendering="auto"/>
    </g>
    <g fill="rgb(247,255,255)" text-rendering="geometricPrecision" stroke-width="2" shape-rendering="geometricPrecision" transform="matrix(1,0,0,1,-363,-12)" stroke="rgb(247,255,255)">
      <path fill="none" d="M710.5 347 Q710.5 339 718.5 339 L841.5 339 Q849.5 339 849.5 347 L849.5 373 Q849.5 381 841.5 381 L718.5 381 Q710.5 381 710.5 373 Z" clip-path="url(#clipPath2)"/>
      <path fill="none" d="M710.5 347 Q710.5 339 718.5 339 L841.5 339 Q849.5 339 849.5 347 L849.5 373 Q849.5 381 841.5 381 L718.5 381 Q710.5 381 710.5 373 Z" stroke-width="1" clip-path="url(#clipPath2)" stroke="rgb(204,255,255)"/>
    </g>
    <g text-rendering="geometricPrecision" stroke-miterlimit="1.45" shape-rendering="geometricPrecision" font-family="sans-serif" transform="matrix(1,0,0,1,-363,-12)" stroke-linecap="butt">
      <text x="735.0059" xml:space="preserve" y="350.1855" clip-path="url(#clipPath2)" stroke="none">chebidb:76967</text>
      <text x="725.9824" xml:space="preserve" y="364.1543" clip-path="url(#clipPath2)" stroke="none">human xenobiotic</text>
      <text x="747.5771" xml:space="preserve" y="378.123" clip-path="url(#clipPath2)" stroke="none">metabolite</text>
    </g>
    <g text-rendering="geometricPrecision" shape-rendering="geometricPrecision" transform="matrix(1,0,0,1,332.5,202)" image-rendering="optimizeQuality">
      <image x="0" y="0" clip-path="url(#clipPath59)" width="32" xlink:href="data:image/png;base64,iVBORw0KGgoAAAANSUhEUgAAACAAAAAgCAYAAABzenr0AAAA70lEQVR4Xu3TOQ9B&#10;QRSG4bGvhSUoUEgsjUaCRESCAuH//x/fm3ETUbhj0J0vedo5yz3XOYvFYrFY/pPM&#10;B34WHstK7iEf6OskhXmsKGWpSFVqAb5KUrzgfNG6NKQtHek+9N6IznNxJmk6/+BQ&#10;RjKWiUxTRCcpzqpbMnC+6FwWspSVrFNEhek5NL43K+/LzPnCG9nJXg4BokIDTM83&#10;Z+1MTvGtHOUkZ7kEiArrLzk/Pd+ctTM5xXn0KrdAUWH9XD3XzsExPWtn8tcCaaJC&#10;Axwfvxrr5+D2zk//WiBNVJIG+Mf5lbhmDsoasAasAWvg4wbuVbZEmoYCe84AAAAA&#10;SUVORK5CYII=" height="32" preserveAspectRatio="none"/>
      <image x="0" y="0" transform="matrix(3.4688,0,0,1,32,0)" clip-path="url(#clipPath60)" width="32" xlink:href="data:image/png;base64,iVBORw0KGgoAAAANSUhEUgAAACAAAAAgCAYAAABzenr0AAAAUklEQVR4Xu3IsQ2A&#10;QBDEQCORUcB3QAnkZEj0388X4Hw3OUuTGKZpmqYJjjLOMq4yVhl3GU8ZbxlfGX+Z&#10;RppGmkaaRppGmkaaRppGmkaaRppG1AbG7ZIBO0NCHAAAAABJRU5ErkJggg==" height="32" preserveAspectRatio="none"/>
      <image x="0" y="0" transform="matrix(1,0,0,1,143,0)" clip-path="url(#clipPath61)" width="32" xlink:href="data:image/png;base64,iVBORw0KGgoAAAANSUhEUgAAACAAAAAgCAYAAABzenr0AAAA60lEQVR4Xu3TyYoC&#10;QRAE0HAZ1wEVN1APOi4HPSiuIIrtwf3//2ciSUHw0tXV4ikT3rmCyCzAxsbGxsYG&#10;SET08UlHkKLk08fCFB0VKE9Z+sErTOxphmg81alKZfqlHDRI7BAjB0MaUI860GAS&#10;RFqJHWLtYEULmtGE+tSmCnQtch/eN3F0ENCB9rSBBpFmWlSC3oV3C1dHFzpBA22h&#10;IaQJuQ85UmnBax4R3KFBJIQ0MYauQlrIwHMN74+EuUGb2NGUutBb8F7D+wNhpIUz&#10;9Cbm9Af9nvItvxZA1hDQEvo9a9DfYAEsgAWwAJED/AOiIEh70IRn2gAAAABJRU5E&#10;rkJggg==" height="32" preserveAspectRatio="none"/>
      <image x="0" y="0" transform="matrix(1,0,0,0.4375,0,32)" clip-path="url(#clipPath62)" width="32" xlink:href="data:image/png;base64,iVBORw0KGgoAAAANSUhEUgAAACAAAAAgCAYAAABzenr0AAAARElEQVR4Xu3OsQkA&#10;IRQFQeGyK8ASLMH8MsH++/G1cB/DWdh8Wqv15Df3PPLMX155/7wUAAAAAAAAAAAA&#10;AAAAAADANcABDP6RgTI0q7QAAAAASUVORK5CYII=" height="32" preserveAspectRatio="none"/>
      <image x="0" y="0" transform="matrix(1,0,0,0.4375,143,32)" clip-path="url(#clipPath63)" width="32" xlink:href="data:image/png;base64,iVBORw0KGgoAAAANSUhEUgAAACAAAAAgCAYAAABzenr0AAAASUlEQVR4Xu3OsQkA&#10;IBQD0WBn7wiO4AB2H3T/fUxtI4rlBa7Ok6R52XDhumuuuuKyS3rYfnAKAAAAAAAA&#10;AAAAAAAAAAAAAPAVsACP6ZmBg2qKHgAAAABJRU5ErkJggg==" height="32" preserveAspectRatio="none"/>
      <image x="0" y="0" transform="matrix(1,0,0,1,0,46)" clip-path="url(#clipPath64)" width="32" xlink:href="data:image/png;base64,iVBORw0KGgoAAAANSUhEUgAAACAAAAAgCAYAAABzenr0AAABAElEQVR4Xu3UyUpD&#10;URCE4YpxiLowimYhLgwOC7NQHEMIDqCJw/u/j/XTBoTgvfEk4MIu+Na36NN9pbI0&#10;bcM6dmq39mSv9vFLRckCWSALZIHvBU7sRn9QYN127diu7MHGmv5AnaJQoGU71rUL&#10;G9qLvWv6I1WKsmRrtmUH1rO+4hmYwpuiyCyK0rAV21TswZFiCgNFiWcbfaFQlaJQ&#10;YPIMbdtXXAMl7hTPca/Yi8caxaHEsuIathUlmMSZndulXc9grrALPAUlmATPwU4c&#10;KspwIeBUfzJ3KMEkWEp2gsXkOjhR7NVYSCY7QZFVxW7wnwDTqbLQUARMBZSqk8lk&#10;Mpl/nk/AT0huSDMO2wAAAABJRU5ErkJggg==" height="32" preserveAspectRatio="none"/>
      <image x="0" y="0" transform="matrix(3.4688,0,0,1,32,46)" clip-path="url(#clipPath65)" width="32" xlink:href="data:image/png;base64,iVBORw0KGgoAAAANSUhEUgAAACAAAAAgCAYAAABzenr0AAAAU0lEQVR4Xu3IoQ2A&#10;UBTF0CY4PCOwAQPgfgL778MA9fcKXpNjCvCWaaRppGmkaaRppGmkaaRppGmkaaRp&#10;pPGUscq4y7jKOMs4ytjL2MqmaZqmn/cB5OOaAcaws0wAAAAASUVORK5CYII=" height="32" preserveAspectRatio="none"/>
      <image x="0" y="0" transform="matrix(1,0,0,1,143,46)" clip-path="url(#clipPath66)" width="32" xlink:href="data:image/png;base64,iVBORw0KGgoAAAANSUhEUgAAACAAAAAgCAYAAABzenr0AAAA+klEQVR4Xu3Ty2oC&#10;QRCF4fKCV4gRdRFcCGoWbhQSEUTQWZjEy/u/j+dnCIQs0m13SDZV8G3nVFXXmJld&#10;73SRDylkLXMZSluqllDfA0K8AW/AG/AGvjbwKjP7hwbeZS8vMpWBtOyPGjjJUXay&#10;lIn0pWmJDTBRjLOV4W9ykI0sZCwP0pCKJRTvGcLKCWZywreysnL9I+lK3RKriEAo&#10;b87amZzwZ3mSnmWsn+JXCuHaOTiCWTuTE/5o5fUzfdL6KSb5Cf85COXgeHPWzuTZ&#10;4RQfC+E/51fj2jk43py1Z4dTnQhMCv51rp1g3jw7nKpFIvAz9FeCvby8vLy8qBur&#10;jUyJY+pe5QAAAABJRU5ErkJggg==" height="32" preserveAspectRatio="none"/>
      <path fill="rgb(204,255,255)" d="M708.5 249 L851.5 249 L851.5 263 Q851.5 273 841.5 273 L718.5 273 Q708.5 273 708.5 263 Z" clip-path="url(#clipPath2)" transform="matrix(1,0,0,1,-695.5,-214)" stroke="none" image-rendering="auto"/>
      <path fill="url(#linearGradient8)" d="M708.5 237 Q708.5 227 718.5 227 L841.5 227 Q851.5 227 851.5 237 L851.5 250 L708.5 250 Z" clip-path="url(#clipPath2)" transform="matrix(1,0,0,1,-695.5,-214)" stroke="none" image-rendering="auto"/>
    </g>
    <g fill="rgb(247,255,255)" text-rendering="geometricPrecision" stroke-width="2" shape-rendering="geometricPrecision" transform="matrix(1,0,0,1,-363,-12)" stroke="rgb(247,255,255)">
      <path fill="none" d="M710.5 237 Q710.5 229 718.5 229 L841.5 229 Q849.5 229 849.5 237 L849.5 263 Q849.5 271 841.5 271 L718.5 271 Q710.5 271 710.5 263 Z" clip-path="url(#clipPath2)"/>
      <path fill="none" d="M710.5 237 Q710.5 229 718.5 229 L841.5 229 Q849.5 229 849.5 237 L849.5 263 Q849.5 271 841.5 271 L718.5 271 Q710.5 271 710.5 263 Z" stroke-width="1" clip-path="url(#clipPath2)" stroke="rgb(204,255,255)"/>
    </g>
    <g text-rendering="geometricPrecision" stroke-miterlimit="1.45" shape-rendering="geometricPrecision" font-family="sans-serif" transform="matrix(1,0,0,1,-363,-12)" stroke-linecap="butt">
      <text x="735.0059" xml:space="preserve" y="247.1699" clip-path="url(#clipPath2)" stroke="none">chebidb:76206</text>
      <text x="714.4893" xml:space="preserve" y="261.1387" clip-path="url(#clipPath2)" stroke="none">xenobiotic metabolite</text>
    </g>
    <g text-rendering="geometricPrecision" shape-rendering="geometricPrecision" transform="matrix(1,0,0,1,2.5,202)" image-rendering="optimizeQuality">
      <image x="0" y="0" clip-path="url(#clipPath67)" width="32" xlink:href="data:image/png;base64,iVBORw0KGgoAAAANSUhEUgAAACAAAAAgCAYAAABzenr0AAAA70lEQVR4Xu3TOQ9B&#10;QRSG4bGvhSUoUEgsjUaCRESCAuH//x/fm3ETUbhj0J0vedo5yz3XOYvFYrFY/pPM&#10;B34WHstK7iEf6OskhXmsKGWpSFVqAb5KUrzgfNG6NKQtHek+9N6IznNxJmk6/+BQ&#10;RjKWiUxTRCcpzqpbMnC+6FwWspSVrFNEhek5NL43K+/LzPnCG9nJXg4BokIDTM83&#10;Z+1MTvGtHOUkZ7kEiArrLzk/Pd+ctTM5xXn0KrdAUWH9XD3XzsExPWtn8tcCaaJC&#10;Axwfvxrr5+D2zk//WiBNVJIG+Mf5lbhmDsoasAasAWvg4wbuVbZEmoYCe84AAAAA&#10;SUVORK5CYII=" height="32" preserveAspectRatio="none"/>
      <image x="0" y="0" transform="matrix(3.4688,0,0,1,32,0)" clip-path="url(#clipPath68)" width="32" xlink:href="data:image/png;base64,iVBORw0KGgoAAAANSUhEUgAAACAAAAAgCAYAAABzenr0AAAAUklEQVR4Xu3IsQ2A&#10;QBDEQCORUcB3QAnkZEj0388X4Hw3OUuTGKZpmqYJjjLOMq4yVhl3GU8ZbxlfGX+Z&#10;RppGmkaaRppGmkaaRppGmkaaRppG1AbG7ZIBO0NCHAAAAABJRU5ErkJggg==" height="32" preserveAspectRatio="none"/>
      <image x="0" y="0" transform="matrix(1,0,0,1,143,0)" clip-path="url(#clipPath69)" width="32" xlink:href="data:image/png;base64,iVBORw0KGgoAAAANSUhEUgAAACAAAAAgCAYAAABzenr0AAAA60lEQVR4Xu3TyYoC&#10;QRAE0HAZ1wEVN1APOi4HPSiuIIrtwf3//2ciSUHw0tXV4ikT3rmCyCzAxsbGxsYG&#10;SET08UlHkKLk08fCFB0VKE9Z+sErTOxphmg81alKZfqlHDRI7BAjB0MaUI860GAS&#10;RFqJHWLtYEULmtGE+tSmCnQtch/eN3F0ENCB9rSBBpFmWlSC3oV3C1dHFzpBA22h&#10;IaQJuQ85UmnBax4R3KFBJIQ0MYauQlrIwHMN74+EuUGb2NGUutBb8F7D+wNhpIUz&#10;9Cbm9Af9nvItvxZA1hDQEvo9a9DfYAEsgAWwAJED/AOiIEh70IRn2gAAAABJRU5E&#10;rkJggg==" height="32" preserveAspectRatio="none"/>
      <image x="0" y="0" transform="matrix(1,0,0,0.4375,0,32)" clip-path="url(#clipPath70)" width="32" xlink:href="data:image/png;base64,iVBORw0KGgoAAAANSUhEUgAAACAAAAAgCAYAAABzenr0AAAARElEQVR4Xu3OsQkA&#10;IRQFQeGyK8ASLMH8MsH++/G1cB/DWdh8Wqv15Df3PPLMX155/7wUAAAAAAAAAAAA&#10;AAAAAADANcABDP6RgTI0q7QAAAAASUVORK5CYII=" height="32" preserveAspectRatio="none"/>
      <image x="0" y="0" transform="matrix(1,0,0,0.4375,143,32)" clip-path="url(#clipPath71)" width="32" xlink:href="data:image/png;base64,iVBORw0KGgoAAAANSUhEUgAAACAAAAAgCAYAAABzenr0AAAASUlEQVR4Xu3OsQkA&#10;IBQD0WBn7wiO4AB2H3T/fUxtI4rlBa7Ok6R52XDhumuuuuKyS3rYfnAKAAAAAAAA&#10;AAAAAAAAAAAAAPAVsACP6ZmBg2qKHgAAAABJRU5ErkJggg==" height="32" preserveAspectRatio="none"/>
      <image x="0" y="0" transform="matrix(1,0,0,1,0,46)" clip-path="url(#clipPath72)" width="32" xlink:href="data:image/png;base64,iVBORw0KGgoAAAANSUhEUgAAACAAAAAgCAYAAABzenr0AAABAElEQVR4Xu3UyUpD&#10;URCE4YpxiLowimYhLgwOC7NQHEMIDqCJw/u/j/XTBoTgvfEk4MIu+Na36NN9pbI0&#10;bcM6dmq39mSv9vFLRckCWSALZIHvBU7sRn9QYN127diu7MHGmv5AnaJQoGU71rUL&#10;G9qLvWv6I1WKsmRrtmUH1rO+4hmYwpuiyCyK0rAV21TswZFiCgNFiWcbfaFQlaJQ&#10;YPIMbdtXXAMl7hTPca/Yi8caxaHEsuIathUlmMSZndulXc9grrALPAUlmATPwU4c&#10;KspwIeBUfzJ3KMEkWEp2gsXkOjhR7NVYSCY7QZFVxW7wnwDTqbLQUARMBZSqk8lk&#10;Mpl/nk/AT0huSDMO2wAAAABJRU5ErkJggg==" height="32" preserveAspectRatio="none"/>
      <image x="0" y="0" transform="matrix(3.4688,0,0,1,32,46)" clip-path="url(#clipPath73)" width="32" xlink:href="data:image/png;base64,iVBORw0KGgoAAAANSUhEUgAAACAAAAAgCAYAAABzenr0AAAAU0lEQVR4Xu3IoQ2A&#10;UBTF0CY4PCOwAQPgfgL778MA9fcKXpNjCvCWaaRppGmkaaRppGmkaaRppGmkaaRp&#10;pPGUscq4y7jKOMs4ytjL2MqmaZqmn/cB5OOaAcaws0wAAAAASUVORK5CYII=" height="32" preserveAspectRatio="none"/>
      <image x="0" y="0" transform="matrix(1,0,0,1,143,46)" clip-path="url(#clipPath74)" width="32" xlink:href="data:image/png;base64,iVBORw0KGgoAAAANSUhEUgAAACAAAAAgCAYAAABzenr0AAAA+klEQVR4Xu3Ty2oC&#10;QRCF4fKCV4gRdRFcCGoWbhQSEUTQWZjEy/u/j+dnCIQs0m13SDZV8G3nVFXXmJld&#10;73SRDylkLXMZSluqllDfA0K8AW/AG/AGvjbwKjP7hwbeZS8vMpWBtOyPGjjJUXay&#10;lIn0pWmJDTBRjLOV4W9ykI0sZCwP0pCKJRTvGcLKCWZywreysnL9I+lK3RKriEAo&#10;b87amZzwZ3mSnmWsn+JXCuHaOTiCWTuTE/5o5fUzfdL6KSb5Cf85COXgeHPWzuTZ&#10;4RQfC+E/51fj2jk43py1Z4dTnQhMCv51rp1g3jw7nKpFIvAz9FeCvby8vLy8qBur&#10;jUyJY+pe5QAAAABJRU5ErkJggg==" height="32" preserveAspectRatio="none"/>
      <path fill="rgb(204,255,204)" d="M378.5 249 L521.5 249 L521.5 263 Q521.5 273 511.5 273 L388.5 273 Q378.5 273 378.5 263 Z" clip-path="url(#clipPath2)" transform="matrix(1,0,0,1,-365.5,-214)" stroke="none" image-rendering="auto"/>
      <path fill="url(#linearGradient9)" d="M378.5 237 Q378.5 227 388.5 227 L511.5 227 Q521.5 227 521.5 237 L521.5 250 L378.5 250 Z" clip-path="url(#clipPath2)" transform="matrix(1,0,0,1,-365.5,-214)" stroke="none" image-rendering="auto"/>
    </g>
    <g fill="rgb(247,255,247)" text-rendering="geometricPrecision" stroke-width="2" shape-rendering="geometricPrecision" transform="matrix(1,0,0,1,-363,-12)" stroke="rgb(247,255,247)">
      <path fill="none" d="M380.5 237 Q380.5 229 388.5 229 L511.5 229 Q519.5 229 519.5 237 L519.5 263 Q519.5 271 511.5 271 L388.5 271 Q380.5 271 380.5 263 Z" clip-path="url(#clipPath2)"/>
      <path fill="none" d="M380.5 237 Q380.5 229 388.5 229 L511.5 229 Q519.5 229 519.5 237 L519.5 263 Q519.5 271 511.5 271 L388.5 271 Q380.5 271 380.5 263 Z" stroke-width="1" clip-path="url(#clipPath2)" stroke="rgb(204,255,204)"/>
    </g>
    <g text-rendering="geometricPrecision" stroke-miterlimit="1.45" shape-rendering="geometricPrecision" font-family="sans-serif" transform="matrix(1,0,0,1,-363,-12)" stroke-linecap="butt">
      <text x="418.3711" xml:space="preserve" y="254.1543" clip-path="url(#clipPath2)" stroke="none">chebidb:...</text>
    </g>
    <g text-rendering="geometricPrecision" stroke-miterlimit="1.45" shape-rendering="geometricPrecision" transform="matrix(1,0,0,1,-363,-12)" stroke-linecap="butt">
      <path fill="none" d="M450 464.9688 L450 397.9875" clip-path="url(#clipPath2)"/>
    </g>
    <g stroke-linecap="butt" transform="matrix(1,0,0,1,-363,-12)" fill="white" text-rendering="geometricPrecision" shape-rendering="geometricPrecision" stroke="white" stroke-miterlimit="1.45">
      <path d="M450 382.9875 L444 398.9875 L456 398.9875 Z" stroke="none" clip-path="url(#clipPath2)"/>
      <path fill="none" d="M450 382.9875 L444 398.9875 L456 398.9875 Z" clip-path="url(#clipPath2)" stroke="black"/>
      <path fill="none" d="M521.4935 488 L940.5283 488" clip-path="url(#clipPath2)" stroke="black"/>
      <path fill="black" d="M948.5283 488 L936.5283 483 L939.5283 488 L936.5283 493 Z" clip-path="url(#clipPath2)" stroke="none"/>
      <text x="710.9912" y="522.1543" clip-path="url(#clipPath2)" fill="black" font-family="sans-serif" stroke="none" xml:space="preserve">has role</text>
      <path fill="none" d="M900 127.002 L900 87.9727" clip-path="url(#clipPath2)" stroke="black"/>
      <path d="M900 72.9727 L894 88.9727 L906 88.9727 Z" clip-path="url(#clipPath2)" stroke="none"/>
      <path fill="none" d="M900 72.9727 L894 88.9727 L906 88.9727 Z" clip-path="url(#clipPath2)" stroke="black"/>
      <path fill="none" d="M1020 464.9688 L1020 397.9875" clip-path="url(#clipPath2)" stroke="black"/>
      <path d="M1020 382.9875 L1014 398.9875 L1026 398.9875 Z" clip-path="url(#clipPath2)" stroke="none"/>
      <path fill="none" d="M1020 382.9875 L1014 398.9875 L1026 398.9875 Z" clip-path="url(#clipPath2)" stroke="black"/>
      <path fill="none" d="M1006.8604 337.0056 L920.5779 186.0113" clip-path="url(#clipPath2)" stroke="black"/>
      <path d="M913.1358 172.9876 L915.8646 189.8564 L926.2835 183.9027 Z" clip-path="url(#clipPath2)" stroke="none"/>
      <path fill="none" d="M913.1358 172.9876 L915.8646 189.8564 L926.2835 183.9027 Z" clip-path="url(#clipPath2)" stroke="black"/>
      <path fill="none" d="M521.5027 360 L700.5283 360" clip-path="url(#clipPath2)" stroke="black"/>
      <path fill="black" d="M708.5283 360 L696.5283 355 L699.5283 360 L696.5283 365 Z" clip-path="url(#clipPath2)" stroke="none"/>
      <text x="590.9912" y="394.1543" clip-path="url(#clipPath2)" fill="black" font-family="sans-serif" stroke="none" xml:space="preserve">has role</text>
      <path fill="none" stroke-dasharray="6,2" d="M509.3372 464.9844 L713.2348 385.8968" clip-path="url(#clipPath2)" stroke="black"/>
      <path fill="black" stroke-dasharray="6,2" d="M720.6934 383.0038 L707.6973 382.6817 L712.3024 386.2584 L711.3136 392.0049 Z" clip-path="url(#clipPath2)" stroke="none"/>
      <text x="590.9912" y="428.1543" clip-path="url(#clipPath2)" fill="black" font-family="sans-serif" stroke="none" xml:space="preserve">has role</text>
      <path fill="none" d="M780 336.9849 L780 287.9779" clip-path="url(#clipPath2)" stroke="black"/>
      <path d="M780 272.9779 L774 288.9779 L786 288.9779 Z" clip-path="url(#clipPath2)" stroke="none"/>
      <path fill="none" d="M780 272.9779 L774 288.9779 L786 288.9779 Z" clip-path="url(#clipPath2)" stroke="black"/>
      <path fill="none" stroke-dasharray="6,2" d="M807.627 226.9775 L860.8956 182.587" clip-path="url(#clipPath2)" stroke="black"/>
      <path stroke-dasharray="6,2" d="M872.4189 172.9843 L856.2863 178.6179 L863.9684 187.8365 Z" clip-path="url(#clipPath2)" stroke="none"/>
      <path fill="none" d="M872.4189 172.9843 L856.2863 178.6179 L863.9684 187.8365 Z" clip-path="url(#clipPath2)" stroke="black"/>
      <path fill="none" stroke-dasharray="6,2" d="M450 336.9849 L450 287.9779" clip-path="url(#clipPath2)" stroke="black"/>
      <path stroke-dasharray="6,2" d="M450 272.9779 L444 288.9779 L456 288.9779 Z" clip-path="url(#clipPath2)" stroke="none"/>
      <path fill="none" d="M450 272.9779 L444 288.9779 L456 288.9779 Z" clip-path="url(#clipPath2)" stroke="black"/>
    </g>
  </g>
</svg>
