<?xml version="1.0" encoding="UTF-8"?><svg xmlns="http://www.w3.org/2000/svg" xmlns:xlink="http://www.w3.org/1999/xlink" fill-opacity="1" color-rendering="auto" color-interpolation="auto" text-rendering="auto" stroke="black" stroke-linecap="square" width="504" stroke-miterlimit="10" shape-rendering="auto" stroke-opacity="1" fill="black" stroke-dasharray="none" font-weight="normal" stroke-width="1" height="386" font-family="'Dialog'" font-style="normal" stroke-linejoin="miter" font-size="12px" stroke-dashoffset="0" image-rendering="auto">
  <!--Generated by ySVG 2.6-->
  <defs id="genericDefs"/>
  <g>
    <defs id="defs1">
      <linearGradient x1="378.5" gradientUnits="userSpaceOnUse" x2="378.5" y1="464" y2="489" id="linearGradient1" spreadMethod="pad">
        <stop stop-opacity="1" stop-color="rgb(242,255,242)" offset="0%"/>
        <stop stop-opacity="1" stop-color="rgb(214,255,214)" offset="100%"/>
      </linearGradient>
      <linearGradient x1="378.5" gradientUnits="userSpaceOnUse" x2="378.5" y1="366" y2="391" id="linearGradient2" spreadMethod="pad">
        <stop stop-opacity="1" stop-color="rgb(242,255,242)" offset="0%"/>
        <stop stop-opacity="1" stop-color="rgb(214,255,214)" offset="100%"/>
      </linearGradient>
      <linearGradient x1="708.5" gradientUnits="userSpaceOnUse" x2="708.5" y1="464" y2="489" id="linearGradient3" spreadMethod="pad">
        <stop stop-opacity="1" stop-color="rgb(242,255,255)" offset="0%"/>
        <stop stop-opacity="1" stop-color="rgb(214,255,255)" offset="100%"/>
      </linearGradient>
      <linearGradient x1="708.5" gradientUnits="userSpaceOnUse" x2="708.5" y1="170" y2="195" id="linearGradient4" spreadMethod="pad">
        <stop stop-opacity="1" stop-color="rgb(242,255,255)" offset="0%"/>
        <stop stop-opacity="1" stop-color="rgb(214,255,255)" offset="100%"/>
      </linearGradient>
      <linearGradient x1="708.5" gradientUnits="userSpaceOnUse" x2="708.5" y1="268" y2="293" id="linearGradient5" spreadMethod="pad">
        <stop stop-opacity="1" stop-color="rgb(242,255,255)" offset="0%"/>
        <stop stop-opacity="1" stop-color="rgb(214,255,255)" offset="100%"/>
      </linearGradient>
      <linearGradient x1="708.5" gradientUnits="userSpaceOnUse" x2="708.5" y1="366" y2="391" id="linearGradient6" spreadMethod="pad">
        <stop stop-opacity="1" stop-color="rgb(242,255,255)" offset="0%"/>
        <stop stop-opacity="1" stop-color="rgb(214,255,255)" offset="100%"/>
      </linearGradient>
      <linearGradient x1="378.5" gradientUnits="userSpaceOnUse" x2="378.5" y1="170" y2="195" id="linearGradient7" spreadMethod="pad">
        <stop stop-opacity="1" stop-color="rgb(242,255,242)" offset="0%"/>
        <stop stop-opacity="1" stop-color="rgb(214,255,214)" offset="100%"/>
      </linearGradient>
      <linearGradient x1="378.5" gradientUnits="userSpaceOnUse" x2="378.5" y1="268" y2="293" id="linearGradient8" spreadMethod="pad">
        <stop stop-opacity="1" stop-color="rgb(242,255,242)" offset="0%"/>
        <stop stop-opacity="1" stop-color="rgb(214,255,214)" offset="100%"/>
      </linearGradient>
      <clipPath clipPathUnits="userSpaceOnUse" id="clipPath1">
        <path d="M0 0 L504 0 L504 386 L0 386 L0 0 Z"/>
      </clipPath>
      <clipPath clipPathUnits="userSpaceOnUse" id="clipPath2">
        <path d="M363 156 L867 156 L867 542 L363 542 L363 156 Z"/>
      </clipPath>
      <clipPath clipPathUnits="userSpaceOnUse" id="clipPath3">
        <path d="M-2.5 -296 L501.5 -296 L501.5 90 L-2.5 90 L-2.5 -296 Z"/>
      </clipPath>
      <clipPath clipPathUnits="userSpaceOnUse" id="clipPath4">
        <path d="M-9.9459 -296 L135.3513 -296 L135.3513 90 L-9.9459 90 L-9.9459 -296 Z"/>
      </clipPath>
      <clipPath clipPathUnits="userSpaceOnUse" id="clipPath5">
        <path d="M-145.5 -296 L358.5 -296 L358.5 90 L-145.5 90 L-145.5 -296 Z"/>
      </clipPath>
      <clipPath clipPathUnits="userSpaceOnUse" id="clipPath6">
        <path d="M-2.5 -749.7143 L501.5 -749.7143 L501.5 132.5714 L-2.5 132.5714 L-2.5 -749.7143 Z"/>
      </clipPath>
      <clipPath clipPathUnits="userSpaceOnUse" id="clipPath7">
        <path d="M-145.5 -749.7143 L358.5 -749.7143 L358.5 132.5714 L-145.5 132.5714 L-145.5 -749.7143 Z"/>
      </clipPath>
      <clipPath clipPathUnits="userSpaceOnUse" id="clipPath8">
        <path d="M-2.5 -342 L501.5 -342 L501.5 44 L-2.5 44 L-2.5 -342 Z"/>
      </clipPath>
      <clipPath clipPathUnits="userSpaceOnUse" id="clipPath9">
        <path d="M-9.9459 -342 L135.3513 -342 L135.3513 44 L-9.9459 44 L-9.9459 -342 Z"/>
      </clipPath>
      <clipPath clipPathUnits="userSpaceOnUse" id="clipPath10">
        <path d="M-145.5 -342 L358.5 -342 L358.5 44 L-145.5 44 L-145.5 -342 Z"/>
      </clipPath>
      <clipPath clipPathUnits="userSpaceOnUse" id="clipPath11">
        <path d="M-2.5 -198 L501.5 -198 L501.5 188 L-2.5 188 L-2.5 -198 Z"/>
      </clipPath>
      <clipPath clipPathUnits="userSpaceOnUse" id="clipPath12">
        <path d="M-9.9459 -198 L135.3513 -198 L135.3513 188 L-9.9459 188 L-9.9459 -198 Z"/>
      </clipPath>
      <clipPath clipPathUnits="userSpaceOnUse" id="clipPath13">
        <path d="M-145.5 -198 L358.5 -198 L358.5 188 L-145.5 188 L-145.5 -198 Z"/>
      </clipPath>
      <clipPath clipPathUnits="userSpaceOnUse" id="clipPath14">
        <path d="M-2.5 -525.7143 L501.5 -525.7143 L501.5 356.5714 L-2.5 356.5714 L-2.5 -525.7143 Z"/>
      </clipPath>
      <clipPath clipPathUnits="userSpaceOnUse" id="clipPath15">
        <path d="M-145.5 -525.7143 L358.5 -525.7143 L358.5 356.5714 L-145.5 356.5714 L-145.5 -525.7143 Z"/>
      </clipPath>
      <clipPath clipPathUnits="userSpaceOnUse" id="clipPath16">
        <path d="M-2.5 -244 L501.5 -244 L501.5 142 L-2.5 142 L-2.5 -244 Z"/>
      </clipPath>
      <clipPath clipPathUnits="userSpaceOnUse" id="clipPath17">
        <path d="M-9.9459 -244 L135.3513 -244 L135.3513 142 L-9.9459 142 L-9.9459 -244 Z"/>
      </clipPath>
      <clipPath clipPathUnits="userSpaceOnUse" id="clipPath18">
        <path d="M-145.5 -244 L358.5 -244 L358.5 142 L-145.5 142 L-145.5 -244 Z"/>
      </clipPath>
      <clipPath clipPathUnits="userSpaceOnUse" id="clipPath19">
        <path d="M-332.5 -296 L171.5 -296 L171.5 90 L-332.5 90 L-332.5 -296 Z"/>
      </clipPath>
      <clipPath clipPathUnits="userSpaceOnUse" id="clipPath20">
        <path d="M-105.0811 -296 L40.2162 -296 L40.2162 90 L-105.0811 90 L-105.0811 -296 Z"/>
      </clipPath>
      <clipPath clipPathUnits="userSpaceOnUse" id="clipPath21">
        <path d="M-475.5 -296 L28.5 -296 L28.5 90 L-475.5 90 L-475.5 -296 Z"/>
      </clipPath>
      <clipPath clipPathUnits="userSpaceOnUse" id="clipPath22">
        <path d="M-332.5 -749.7143 L171.5 -749.7143 L171.5 132.5714 L-332.5 132.5714 L-332.5 -749.7143 Z"/>
      </clipPath>
      <clipPath clipPathUnits="userSpaceOnUse" id="clipPath23">
        <path d="M-475.5 -749.7143 L28.5 -749.7143 L28.5 132.5714 L-475.5 132.5714 L-475.5 -749.7143 Z"/>
      </clipPath>
      <clipPath clipPathUnits="userSpaceOnUse" id="clipPath24">
        <path d="M-332.5 -342 L171.5 -342 L171.5 44 L-332.5 44 L-332.5 -342 Z"/>
      </clipPath>
      <clipPath clipPathUnits="userSpaceOnUse" id="clipPath25">
        <path d="M-105.0811 -342 L40.2162 -342 L40.2162 44 L-105.0811 44 L-105.0811 -342 Z"/>
      </clipPath>
      <clipPath clipPathUnits="userSpaceOnUse" id="clipPath26">
        <path d="M-475.5 -342 L28.5 -342 L28.5 44 L-475.5 44 L-475.5 -342 Z"/>
      </clipPath>
      <clipPath clipPathUnits="userSpaceOnUse" id="clipPath27">
        <path d="M-332.5 -2 L171.5 -2 L171.5 384 L-332.5 384 L-332.5 -2 Z"/>
      </clipPath>
      <clipPath clipPathUnits="userSpaceOnUse" id="clipPath28">
        <path d="M-105.0811 -2 L40.2162 -2 L40.2162 384 L-105.0811 384 L-105.0811 -2 Z"/>
      </clipPath>
      <clipPath clipPathUnits="userSpaceOnUse" id="clipPath29">
        <path d="M-475.5 -2 L28.5 -2 L28.5 384 L-475.5 384 L-475.5 -2 Z"/>
      </clipPath>
      <clipPath clipPathUnits="userSpaceOnUse" id="clipPath30">
        <path d="M-332.5 -77.7143 L171.5 -77.7143 L171.5 804.5714 L-332.5 804.5714 L-332.5 -77.7143 Z"/>
      </clipPath>
      <clipPath clipPathUnits="userSpaceOnUse" id="clipPath31">
        <path d="M-475.5 -77.7143 L28.5 -77.7143 L28.5 804.5714 L-475.5 804.5714 L-475.5 -77.7143 Z"/>
      </clipPath>
      <clipPath clipPathUnits="userSpaceOnUse" id="clipPath32">
        <path d="M-332.5 -48 L171.5 -48 L171.5 338 L-332.5 338 L-332.5 -48 Z"/>
      </clipPath>
      <clipPath clipPathUnits="userSpaceOnUse" id="clipPath33">
        <path d="M-105.0811 -48 L40.2162 -48 L40.2162 338 L-105.0811 338 L-105.0811 -48 Z"/>
      </clipPath>
      <clipPath clipPathUnits="userSpaceOnUse" id="clipPath34">
        <path d="M-475.5 -48 L28.5 -48 L28.5 338 L-475.5 338 L-475.5 -48 Z"/>
      </clipPath>
      <clipPath clipPathUnits="userSpaceOnUse" id="clipPath35">
        <path d="M-332.5 -100 L171.5 -100 L171.5 286 L-332.5 286 L-332.5 -100 Z"/>
      </clipPath>
      <clipPath clipPathUnits="userSpaceOnUse" id="clipPath36">
        <path d="M-105.0811 -100 L40.2162 -100 L40.2162 286 L-105.0811 286 L-105.0811 -100 Z"/>
      </clipPath>
      <clipPath clipPathUnits="userSpaceOnUse" id="clipPath37">
        <path d="M-475.5 -100 L28.5 -100 L28.5 286 L-475.5 286 L-475.5 -100 Z"/>
      </clipPath>
      <clipPath clipPathUnits="userSpaceOnUse" id="clipPath38">
        <path d="M-332.5 -301.7143 L171.5 -301.7143 L171.5 580.5714 L-332.5 580.5714 L-332.5 -301.7143 Z"/>
      </clipPath>
      <clipPath clipPathUnits="userSpaceOnUse" id="clipPath39">
        <path d="M-475.5 -301.7143 L28.5 -301.7143 L28.5 580.5714 L-475.5 580.5714 L-475.5 -301.7143 Z"/>
      </clipPath>
      <clipPath clipPathUnits="userSpaceOnUse" id="clipPath40">
        <path d="M-332.5 -146 L171.5 -146 L171.5 240 L-332.5 240 L-332.5 -146 Z"/>
      </clipPath>
      <clipPath clipPathUnits="userSpaceOnUse" id="clipPath41">
        <path d="M-105.0811 -146 L40.2162 -146 L40.2162 240 L-105.0811 240 L-105.0811 -146 Z"/>
      </clipPath>
      <clipPath clipPathUnits="userSpaceOnUse" id="clipPath42">
        <path d="M-475.5 -146 L28.5 -146 L28.5 240 L-475.5 240 L-475.5 -146 Z"/>
      </clipPath>
      <clipPath clipPathUnits="userSpaceOnUse" id="clipPath43">
        <path d="M-332.5 -198 L171.5 -198 L171.5 188 L-332.5 188 L-332.5 -198 Z"/>
      </clipPath>
      <clipPath clipPathUnits="userSpaceOnUse" id="clipPath44">
        <path d="M-105.0811 -198 L40.2162 -198 L40.2162 188 L-105.0811 188 L-105.0811 -198 Z"/>
      </clipPath>
      <clipPath clipPathUnits="userSpaceOnUse" id="clipPath45">
        <path d="M-475.5 -198 L28.5 -198 L28.5 188 L-475.5 188 L-475.5 -198 Z"/>
      </clipPath>
      <clipPath clipPathUnits="userSpaceOnUse" id="clipPath46">
        <path d="M-332.5 -525.7143 L171.5 -525.7143 L171.5 356.5714 L-332.5 356.5714 L-332.5 -525.7143 Z"/>
      </clipPath>
      <clipPath clipPathUnits="userSpaceOnUse" id="clipPath47">
        <path d="M-475.5 -525.7143 L28.5 -525.7143 L28.5 356.5714 L-475.5 356.5714 L-475.5 -525.7143 Z"/>
      </clipPath>
      <clipPath clipPathUnits="userSpaceOnUse" id="clipPath48">
        <path d="M-332.5 -244 L171.5 -244 L171.5 142 L-332.5 142 L-332.5 -244 Z"/>
      </clipPath>
      <clipPath clipPathUnits="userSpaceOnUse" id="clipPath49">
        <path d="M-105.0811 -244 L40.2162 -244 L40.2162 142 L-105.0811 142 L-105.0811 -244 Z"/>
      </clipPath>
      <clipPath clipPathUnits="userSpaceOnUse" id="clipPath50">
        <path d="M-475.5 -244 L28.5 -244 L28.5 142 L-475.5 142 L-475.5 -244 Z"/>
      </clipPath>
      <clipPath clipPathUnits="userSpaceOnUse" id="clipPath51">
        <path d="M-2.5 -2 L501.5 -2 L501.5 384 L-2.5 384 L-2.5 -2 Z"/>
      </clipPath>
      <clipPath clipPathUnits="userSpaceOnUse" id="clipPath52">
        <path d="M-9.9459 -2 L135.3513 -2 L135.3513 384 L-9.9459 384 L-9.9459 -2 Z"/>
      </clipPath>
      <clipPath clipPathUnits="userSpaceOnUse" id="clipPath53">
        <path d="M-145.5 -2 L358.5 -2 L358.5 384 L-145.5 384 L-145.5 -2 Z"/>
      </clipPath>
      <clipPath clipPathUnits="userSpaceOnUse" id="clipPath54">
        <path d="M-2.5 -77.7143 L501.5 -77.7143 L501.5 804.5714 L-2.5 804.5714 L-2.5 -77.7143 Z"/>
      </clipPath>
      <clipPath clipPathUnits="userSpaceOnUse" id="clipPath55">
        <path d="M-145.5 -77.7143 L358.5 -77.7143 L358.5 804.5714 L-145.5 804.5714 L-145.5 -77.7143 Z"/>
      </clipPath>
      <clipPath clipPathUnits="userSpaceOnUse" id="clipPath56">
        <path d="M-2.5 -48 L501.5 -48 L501.5 338 L-2.5 338 L-2.5 -48 Z"/>
      </clipPath>
      <clipPath clipPathUnits="userSpaceOnUse" id="clipPath57">
        <path d="M-9.9459 -48 L135.3513 -48 L135.3513 338 L-9.9459 338 L-9.9459 -48 Z"/>
      </clipPath>
      <clipPath clipPathUnits="userSpaceOnUse" id="clipPath58">
        <path d="M-145.5 -48 L358.5 -48 L358.5 338 L-145.5 338 L-145.5 -48 Z"/>
      </clipPath>
      <clipPath clipPathUnits="userSpaceOnUse" id="clipPath59">
        <path d="M-2.5 -100 L501.5 -100 L501.5 286 L-2.5 286 L-2.5 -100 Z"/>
      </clipPath>
      <clipPath clipPathUnits="userSpaceOnUse" id="clipPath60">
        <path d="M-9.9459 -100 L135.3513 -100 L135.3513 286 L-9.9459 286 L-9.9459 -100 Z"/>
      </clipPath>
      <clipPath clipPathUnits="userSpaceOnUse" id="clipPath61">
        <path d="M-145.5 -100 L358.5 -100 L358.5 286 L-145.5 286 L-145.5 -100 Z"/>
      </clipPath>
      <clipPath clipPathUnits="userSpaceOnUse" id="clipPath62">
        <path d="M-2.5 -301.7143 L501.5 -301.7143 L501.5 580.5714 L-2.5 580.5714 L-2.5 -301.7143 Z"/>
      </clipPath>
      <clipPath clipPathUnits="userSpaceOnUse" id="clipPath63">
        <path d="M-145.5 -301.7143 L358.5 -301.7143 L358.5 580.5714 L-145.5 580.5714 L-145.5 -301.7143 Z"/>
      </clipPath>
      <clipPath clipPathUnits="userSpaceOnUse" id="clipPath64">
        <path d="M-2.5 -146 L501.5 -146 L501.5 240 L-2.5 240 L-2.5 -146 Z"/>
      </clipPath>
      <clipPath clipPathUnits="userSpaceOnUse" id="clipPath65">
        <path d="M-9.9459 -146 L135.3513 -146 L135.3513 240 L-9.9459 240 L-9.9459 -146 Z"/>
      </clipPath>
      <clipPath clipPathUnits="userSpaceOnUse" id="clipPath66">
        <path d="M-145.5 -146 L358.5 -146 L358.5 240 L-145.5 240 L-145.5 -146 Z"/>
      </clipPath>
    </defs>
    <g fill="white" text-rendering="geometricPrecision" shape-rendering="geometricPrecision" transform="translate(-363,-156)" stroke="white">
      <rect x="363" width="504" height="386" y="156" clip-path="url(#clipPath2)" stroke="none"/>
    </g>
    <g text-rendering="geometricPrecision" shape-rendering="geometricPrecision" transform="matrix(1,0,0,1,2.5,296)" image-rendering="optimizeQuality">
      <image x="0" y="0" clip-path="url(#clipPath3)" width="32" xlink:href="data:image/png;base64,iVBORw0KGgoAAAANSUhEUgAAACAAAAAgCAYAAABzenr0AAAA70lEQVR4Xu3TOQ9B&#10;QRSG4bGvhSUoUEgsjUaCRESCAuH//x/fm3ETUbhj0J0vedo5yz3XOYvFYrFY/pPM&#10;B34WHstK7iEf6OskhXmsKGWpSFVqAb5KUrzgfNG6NKQtHek+9N6IznNxJmk6/+BQ&#10;RjKWiUxTRCcpzqpbMnC+6FwWspSVrFNEhek5NL43K+/LzPnCG9nJXg4BokIDTM83&#10;Z+1MTvGtHOUkZ7kEiArrLzk/Pd+ctTM5xXn0KrdAUWH9XD3XzsExPWtn8tcCaaJC&#10;Axwfvxrr5+D2zk//WiBNVJIG+Mf5lbhmDsoasAasAWvg4wbuVbZEmoYCe84AAAAA&#10;SUVORK5CYII=" height="32" preserveAspectRatio="none"/>
      <image x="0" y="0" transform="matrix(3.4688,0,0,1,32,0)" clip-path="url(#clipPath4)" width="32" xlink:href="data:image/png;base64,iVBORw0KGgoAAAANSUhEUgAAACAAAAAgCAYAAABzenr0AAAAUklEQVR4Xu3IsQ2A&#10;QBDEQCORUcB3QAnkZEj0388X4Hw3OUuTGKZpmqYJjjLOMq4yVhl3GU8ZbxlfGX+Z&#10;RppGmkaaRppGmkaaRppGmkaaRppG1AbG7ZIBO0NCHAAAAABJRU5ErkJggg==" height="32" preserveAspectRatio="none"/>
      <image x="0" y="0" transform="matrix(1,0,0,1,143,0)" clip-path="url(#clipPath5)" width="32" xlink:href="data:image/png;base64,iVBORw0KGgoAAAANSUhEUgAAACAAAAAgCAYAAABzenr0AAAA60lEQVR4Xu3TyYoC&#10;QRAE0HAZ1wEVN1APOi4HPSiuIIrtwf3//2ciSUHw0tXV4ikT3rmCyCzAxsbGxsYG&#10;SET08UlHkKLk08fCFB0VKE9Z+sErTOxphmg81alKZfqlHDRI7BAjB0MaUI860GAS&#10;RFqJHWLtYEULmtGE+tSmCnQtch/eN3F0ENCB9rSBBpFmWlSC3oV3C1dHFzpBA22h&#10;IaQJuQ85UmnBax4R3KFBJIQ0MYauQlrIwHMN74+EuUGb2NGUutBb8F7D+wNhpIUz&#10;9Cbm9Af9nvItvxZA1hDQEvo9a9DfYAEsgAWwAJED/AOiIEh70IRn2gAAAABJRU5E&#10;rkJggg==" height="32" preserveAspectRatio="none"/>
      <image x="0" y="0" transform="matrix(1,0,0,0.4375,0,32)" clip-path="url(#clipPath6)" width="32" xlink:href="data:image/png;base64,iVBORw0KGgoAAAANSUhEUgAAACAAAAAgCAYAAABzenr0AAAARElEQVR4Xu3OsQkA&#10;IRQFQeGyK8ASLMH8MsH++/G1cB/DWdh8Wqv15Df3PPLMX155/7wUAAAAAAAAAAAA&#10;AAAAAADANcABDP6RgTI0q7QAAAAASUVORK5CYII=" height="32" preserveAspectRatio="none"/>
      <image x="0" y="0" transform="matrix(1,0,0,0.4375,143,32)" clip-path="url(#clipPath7)" width="32" xlink:href="data:image/png;base64,iVBORw0KGgoAAAANSUhEUgAAACAAAAAgCAYAAABzenr0AAAASUlEQVR4Xu3OsQkA&#10;IBQD0WBn7wiO4AB2H3T/fUxtI4rlBa7Ok6R52XDhumuuuuKyS3rYfnAKAAAAAAAA&#10;AAAAAAAAAAAAAPAVsACP6ZmBg2qKHgAAAABJRU5ErkJggg==" height="32" preserveAspectRatio="none"/>
      <image x="0" y="0" transform="matrix(1,0,0,1,0,46)" clip-path="url(#clipPath8)" width="32" xlink:href="data:image/png;base64,iVBORw0KGgoAAAANSUhEUgAAACAAAAAgCAYAAABzenr0AAABAElEQVR4Xu3UyUpD&#10;URCE4YpxiLowimYhLgwOC7NQHEMIDqCJw/u/j/XTBoTgvfEk4MIu+Na36NN9pbI0&#10;bcM6dmq39mSv9vFLRckCWSALZIHvBU7sRn9QYN127diu7MHGmv5AnaJQoGU71rUL&#10;G9qLvWv6I1WKsmRrtmUH1rO+4hmYwpuiyCyK0rAV21TswZFiCgNFiWcbfaFQlaJQ&#10;YPIMbdtXXAMl7hTPca/Yi8caxaHEsuIathUlmMSZndulXc9grrALPAUlmATPwU4c&#10;KspwIeBUfzJ3KMEkWEp2gsXkOjhR7NVYSCY7QZFVxW7wnwDTqbLQUARMBZSqk8lk&#10;Mpl/nk/AT0huSDMO2wAAAABJRU5ErkJggg==" height="32" preserveAspectRatio="none"/>
      <image x="0" y="0" transform="matrix(3.4688,0,0,1,32,46)" clip-path="url(#clipPath9)" width="32" xlink:href="data:image/png;base64,iVBORw0KGgoAAAANSUhEUgAAACAAAAAgCAYAAABzenr0AAAAU0lEQVR4Xu3IoQ2A&#10;UBTF0CY4PCOwAQPgfgL778MA9fcKXpNjCvCWaaRppGmkaaRppGmkaaRppGmkaaRp&#10;pPGUscq4y7jKOMs4ytjL2MqmaZqmn/cB5OOaAcaws0wAAAAASUVORK5CYII=" height="32" preserveAspectRatio="none"/>
      <image x="0" y="0" transform="matrix(1,0,0,1,143,46)" clip-path="url(#clipPath10)" width="32" xlink:href="data:image/png;base64,iVBORw0KGgoAAAANSUhEUgAAACAAAAAgCAYAAABzenr0AAAA+klEQVR4Xu3Ty2oC&#10;QRCF4fKCV4gRdRFcCGoWbhQSEUTQWZjEy/u/j+dnCIQs0m13SDZV8G3nVFXXmJld&#10;73SRDylkLXMZSluqllDfA0K8AW/AG/AGvjbwKjP7hwbeZS8vMpWBtOyPGjjJUXay&#10;lIn0pWmJDTBRjLOV4W9ykI0sZCwP0pCKJRTvGcLKCWZywreysnL9I+lK3RKriEAo&#10;b87amZzwZ3mSnmWsn+JXCuHaOTiCWTuTE/5o5fUzfdL6KSb5Cf85COXgeHPWzuTZ&#10;4RQfC+E/51fj2jk43py1Z4dTnQhMCv51rp1g3jw7nKpFIvAz9FeCvby8vLy8qBur&#10;jUyJY+pe5QAAAABJRU5ErkJggg==" height="32" preserveAspectRatio="none"/>
      <path fill="rgb(204,255,204)" d="M378.5 487 L521.5 487 L521.5 501 Q521.5 511 511.5 511 L388.5 511 Q378.5 511 378.5 501 Z" clip-path="url(#clipPath2)" transform="matrix(1,0,0,1,-365.5,-452)" stroke="none" image-rendering="auto"/>
      <path fill="url(#linearGradient1)" d="M378.5 475 Q378.5 465 388.5 465 L511.5 465 Q521.5 465 521.5 475 L521.5 488 L378.5 488 Z" clip-path="url(#clipPath2)" transform="matrix(1,0,0,1,-365.5,-452)" stroke="none" image-rendering="auto"/>
    </g>
    <g fill="rgb(247,255,247)" text-rendering="geometricPrecision" stroke-width="2" shape-rendering="geometricPrecision" transform="matrix(1,0,0,1,-363,-156)" stroke="rgb(247,255,247)">
      <path fill="none" d="M380.5 475 Q380.5 467 388.5 467 L511.5 467 Q519.5 467 519.5 475 L519.5 501 Q519.5 509 511.5 509 L388.5 509 Q380.5 509 380.5 501 Z" clip-path="url(#clipPath2)"/>
      <path fill="none" d="M380.5 475 Q380.5 467 388.5 467 L511.5 467 Q519.5 467 519.5 475 L519.5 501 Q519.5 509 511.5 509 L388.5 509 Q380.5 509 380.5 501 Z" stroke-width="1" clip-path="url(#clipPath2)" stroke="rgb(204,255,204)"/>
    </g>
    <g text-rendering="geometricPrecision" stroke-miterlimit="1.45" shape-rendering="geometricPrecision" font-family="sans-serif" transform="matrix(1,0,0,1,-363,-156)" stroke-linecap="butt">
      <text x="405.0059" xml:space="preserve" y="485.1699" clip-path="url(#clipPath2)" stroke="none">chebidb:52476</text>
      <text x="396.0088" xml:space="preserve" y="499.1387" clip-path="url(#clipPath2)" stroke="none">sodium phenolate</text>
    </g>
    <g text-rendering="geometricPrecision" shape-rendering="geometricPrecision" transform="matrix(1,0,0,1,2.5,198)" image-rendering="optimizeQuality">
      <image x="0" y="0" clip-path="url(#clipPath11)" width="32" xlink:href="data:image/png;base64,iVBORw0KGgoAAAANSUhEUgAAACAAAAAgCAYAAABzenr0AAAA70lEQVR4Xu3TOQ9B&#10;QRSG4bGvhSUoUEgsjUaCRESCAuH//x/fm3ETUbhj0J0vedo5yz3XOYvFYrFY/pPM&#10;B34WHstK7iEf6OskhXmsKGWpSFVqAb5KUrzgfNG6NKQtHek+9N6IznNxJmk6/+BQ&#10;RjKWiUxTRCcpzqpbMnC+6FwWspSVrFNEhek5NL43K+/LzPnCG9nJXg4BokIDTM83&#10;Z+1MTvGtHOUkZ7kEiArrLzk/Pd+ctTM5xXn0KrdAUWH9XD3XzsExPWtn8tcCaaJC&#10;Axwfvxrr5+D2zk//WiBNVJIG+Mf5lbhmDsoasAasAWvg4wbuVbZEmoYCe84AAAAA&#10;SUVORK5CYII=" height="32" preserveAspectRatio="none"/>
      <image x="0" y="0" transform="matrix(3.4688,0,0,1,32,0)" clip-path="url(#clipPath12)" width="32" xlink:href="data:image/png;base64,iVBORw0KGgoAAAANSUhEUgAAACAAAAAgCAYAAABzenr0AAAAUklEQVR4Xu3IsQ2A&#10;QBDEQCORUcB3QAnkZEj0388X4Hw3OUuTGKZpmqYJjjLOMq4yVhl3GU8ZbxlfGX+Z&#10;RppGmkaaRppGmkaaRppGmkaaRppG1AbG7ZIBO0NCHAAAAABJRU5ErkJggg==" height="32" preserveAspectRatio="none"/>
      <image x="0" y="0" transform="matrix(1,0,0,1,143,0)" clip-path="url(#clipPath13)" width="32" xlink:href="data:image/png;base64,iVBORw0KGgoAAAANSUhEUgAAACAAAAAgCAYAAABzenr0AAAA60lEQVR4Xu3TyYoC&#10;QRAE0HAZ1wEVN1APOi4HPSiuIIrtwf3//2ciSUHw0tXV4ikT3rmCyCzAxsbGxsYG&#10;SET08UlHkKLk08fCFB0VKE9Z+sErTOxphmg81alKZfqlHDRI7BAjB0MaUI860GAS&#10;RFqJHWLtYEULmtGE+tSmCnQtch/eN3F0ENCB9rSBBpFmWlSC3oV3C1dHFzpBA22h&#10;IaQJuQ85UmnBax4R3KFBJIQ0MYauQlrIwHMN74+EuUGb2NGUutBb8F7D+wNhpIUz&#10;9Cbm9Af9nvItvxZA1hDQEvo9a9DfYAEsgAWwAJED/AOiIEh70IRn2gAAAABJRU5E&#10;rkJggg==" height="32" preserveAspectRatio="none"/>
      <image x="0" y="0" transform="matrix(1,0,0,0.4375,0,32)" clip-path="url(#clipPath14)" width="32" xlink:href="data:image/png;base64,iVBORw0KGgoAAAANSUhEUgAAACAAAAAgCAYAAABzenr0AAAARElEQVR4Xu3OsQkA&#10;IRQFQeGyK8ASLMH8MsH++/G1cB/DWdh8Wqv15Df3PPLMX155/7wUAAAAAAAAAAAA&#10;AAAAAADANcABDP6RgTI0q7QAAAAASUVORK5CYII=" height="32" preserveAspectRatio="none"/>
      <image x="0" y="0" transform="matrix(1,0,0,0.4375,143,32)" clip-path="url(#clipPath15)" width="32" xlink:href="data:image/png;base64,iVBORw0KGgoAAAANSUhEUgAAACAAAAAgCAYAAABzenr0AAAASUlEQVR4Xu3OsQkA&#10;IBQD0WBn7wiO4AB2H3T/fUxtI4rlBa7Ok6R52XDhumuuuuKyS3rYfnAKAAAAAAAA&#10;AAAAAAAAAAAAAPAVsACP6ZmBg2qKHgAAAABJRU5ErkJggg==" height="32" preserveAspectRatio="none"/>
      <image x="0" y="0" transform="matrix(1,0,0,1,0,46)" clip-path="url(#clipPath16)" width="32" xlink:href="data:image/png;base64,iVBORw0KGgoAAAANSUhEUgAAACAAAAAgCAYAAABzenr0AAABAElEQVR4Xu3UyUpD&#10;URCE4YpxiLowimYhLgwOC7NQHEMIDqCJw/u/j/XTBoTgvfEk4MIu+Na36NN9pbI0&#10;bcM6dmq39mSv9vFLRckCWSALZIHvBU7sRn9QYN127diu7MHGmv5AnaJQoGU71rUL&#10;G9qLvWv6I1WKsmRrtmUH1rO+4hmYwpuiyCyK0rAV21TswZFiCgNFiWcbfaFQlaJQ&#10;YPIMbdtXXAMl7hTPca/Yi8caxaHEsuIathUlmMSZndulXc9grrALPAUlmATPwU4c&#10;KspwIeBUfzJ3KMEkWEp2gsXkOjhR7NVYSCY7QZFVxW7wnwDTqbLQUARMBZSqk8lk&#10;Mpl/nk/AT0huSDMO2wAAAABJRU5ErkJggg==" height="32" preserveAspectRatio="none"/>
      <image x="0" y="0" transform="matrix(3.4688,0,0,1,32,46)" clip-path="url(#clipPath17)" width="32" xlink:href="data:image/png;base64,iVBORw0KGgoAAAANSUhEUgAAACAAAAAgCAYAAABzenr0AAAAU0lEQVR4Xu3IoQ2A&#10;UBTF0CY4PCOwAQPgfgL778MA9fcKXpNjCvCWaaRppGmkaaRppGmkaaRppGmkaaRp&#10;pPGUscq4y7jKOMs4ytjL2MqmaZqmn/cB5OOaAcaws0wAAAAASUVORK5CYII=" height="32" preserveAspectRatio="none"/>
      <image x="0" y="0" transform="matrix(1,0,0,1,143,46)" clip-path="url(#clipPath18)" width="32" xlink:href="data:image/png;base64,iVBORw0KGgoAAAANSUhEUgAAACAAAAAgCAYAAABzenr0AAAA+klEQVR4Xu3Ty2oC&#10;QRCF4fKCV4gRdRFcCGoWbhQSEUTQWZjEy/u/j+dnCIQs0m13SDZV8G3nVFXXmJld&#10;73SRDylkLXMZSluqllDfA0K8AW/AG/AGvjbwKjP7hwbeZS8vMpWBtOyPGjjJUXay&#10;lIn0pWmJDTBRjLOV4W9ykI0sZCwP0pCKJRTvGcLKCWZywreysnL9I+lK3RKriEAo&#10;b87amZzwZ3mSnmWsn+JXCuHaOTiCWTuTE/5o5fUzfdL6KSb5Cf85COXgeHPWzuTZ&#10;4RQfC+E/51fj2jk43py1Z4dTnQhMCv51rp1g3jw7nKpFIvAz9FeCvby8vLy8qBur&#10;jUyJY+pe5QAAAABJRU5ErkJggg==" height="32" preserveAspectRatio="none"/>
      <path fill="rgb(204,255,204)" d="M378.5 389 L521.5 389 L521.5 403 Q521.5 413 511.5 413 L388.5 413 Q378.5 413 378.5 403 Z" clip-path="url(#clipPath2)" transform="matrix(1,0,0,1,-365.5,-354)" stroke="none" image-rendering="auto"/>
      <path fill="url(#linearGradient2)" d="M378.5 377 Q378.5 367 388.5 367 L511.5 367 Q521.5 367 521.5 377 L521.5 390 L378.5 390 Z" clip-path="url(#clipPath2)" transform="matrix(1,0,0,1,-365.5,-354)" stroke="none" image-rendering="auto"/>
    </g>
    <g fill="rgb(247,255,247)" text-rendering="geometricPrecision" stroke-width="2" shape-rendering="geometricPrecision" transform="matrix(1,0,0,1,-363,-156)" stroke="rgb(247,255,247)">
      <path fill="none" d="M380.5 377 Q380.5 369 388.5 369 L511.5 369 Q519.5 369 519.5 377 L519.5 403 Q519.5 411 511.5 411 L388.5 411 Q380.5 411 380.5 403 Z" clip-path="url(#clipPath2)"/>
      <path fill="none" d="M380.5 377 Q380.5 369 388.5 369 L511.5 369 Q519.5 369 519.5 377 L519.5 403 Q519.5 411 511.5 411 L388.5 411 Q380.5 411 380.5 403 Z" stroke-width="1" clip-path="url(#clipPath2)" stroke="rgb(204,255,204)"/>
    </g>
    <g text-rendering="geometricPrecision" stroke-miterlimit="1.45" shape-rendering="geometricPrecision" font-family="sans-serif" transform="matrix(1,0,0,1,-363,-156)" stroke-linecap="butt">
      <text x="405.0059" xml:space="preserve" y="387.1699" clip-path="url(#clipPath2)" stroke="none">chebidb:50526</text>
      <text x="419.8359" xml:space="preserve" y="401.1387" clip-path="url(#clipPath2)" stroke="none">phenolate</text>
    </g>
    <g text-rendering="geometricPrecision" shape-rendering="geometricPrecision" transform="matrix(1,0,0,1,332.5,296)" image-rendering="optimizeQuality">
      <image x="0" y="0" clip-path="url(#clipPath19)" width="32" xlink:href="data:image/png;base64,iVBORw0KGgoAAAANSUhEUgAAACAAAAAgCAYAAABzenr0AAAA70lEQVR4Xu3TOQ9B&#10;QRSG4bGvhSUoUEgsjUaCRESCAuH//x/fm3ETUbhj0J0vedo5yz3XOYvFYrFY/pPM&#10;B34WHstK7iEf6OskhXmsKGWpSFVqAb5KUrzgfNG6NKQtHek+9N6IznNxJmk6/+BQ&#10;RjKWiUxTRCcpzqpbMnC+6FwWspSVrFNEhek5NL43K+/LzPnCG9nJXg4BokIDTM83&#10;Z+1MTvGtHOUkZ7kEiArrLzk/Pd+ctTM5xXn0KrdAUWH9XD3XzsExPWtn8tcCaaJC&#10;Axwfvxrr5+D2zk//WiBNVJIG+Mf5lbhmDsoasAasAWvg4wbuVbZEmoYCe84AAAAA&#10;SUVORK5CYII=" height="32" preserveAspectRatio="none"/>
      <image x="0" y="0" transform="matrix(3.4688,0,0,1,32,0)" clip-path="url(#clipPath20)" width="32" xlink:href="data:image/png;base64,iVBORw0KGgoAAAANSUhEUgAAACAAAAAgCAYAAABzenr0AAAAUklEQVR4Xu3IsQ2A&#10;QBDEQCORUcB3QAnkZEj0388X4Hw3OUuTGKZpmqYJjjLOMq4yVhl3GU8ZbxlfGX+Z&#10;RppGmkaaRppGmkaaRppGmkaaRppG1AbG7ZIBO0NCHAAAAABJRU5ErkJggg==" height="32" preserveAspectRatio="none"/>
      <image x="0" y="0" transform="matrix(1,0,0,1,143,0)" clip-path="url(#clipPath21)" width="32" xlink:href="data:image/png;base64,iVBORw0KGgoAAAANSUhEUgAAACAAAAAgCAYAAABzenr0AAAA60lEQVR4Xu3TyYoC&#10;QRAE0HAZ1wEVN1APOi4HPSiuIIrtwf3//2ciSUHw0tXV4ikT3rmCyCzAxsbGxsYG&#10;SET08UlHkKLk08fCFB0VKE9Z+sErTOxphmg81alKZfqlHDRI7BAjB0MaUI860GAS&#10;RFqJHWLtYEULmtGE+tSmCnQtch/eN3F0ENCB9rSBBpFmWlSC3oV3C1dHFzpBA22h&#10;IaQJuQ85UmnBax4R3KFBJIQ0MYauQlrIwHMN74+EuUGb2NGUutBb8F7D+wNhpIUz&#10;9Cbm9Af9nvItvxZA1hDQEvo9a9DfYAEsgAWwAJED/AOiIEh70IRn2gAAAABJRU5E&#10;rkJggg==" height="32" preserveAspectRatio="none"/>
      <image x="0" y="0" transform="matrix(1,0,0,0.4375,0,32)" clip-path="url(#clipPath22)" width="32" xlink:href="data:image/png;base64,iVBORw0KGgoAAAANSUhEUgAAACAAAAAgCAYAAABzenr0AAAARElEQVR4Xu3OsQkA&#10;IRQFQeGyK8ASLMH8MsH++/G1cB/DWdh8Wqv15Df3PPLMX155/7wUAAAAAAAAAAAA&#10;AAAAAADANcABDP6RgTI0q7QAAAAASUVORK5CYII=" height="32" preserveAspectRatio="none"/>
      <image x="0" y="0" transform="matrix(1,0,0,0.4375,143,32)" clip-path="url(#clipPath23)" width="32" xlink:href="data:image/png;base64,iVBORw0KGgoAAAANSUhEUgAAACAAAAAgCAYAAABzenr0AAAASUlEQVR4Xu3OsQkA&#10;IBQD0WBn7wiO4AB2H3T/fUxtI4rlBa7Ok6R52XDhumuuuuKyS3rYfnAKAAAAAAAA&#10;AAAAAAAAAAAAAPAVsACP6ZmBg2qKHgAAAABJRU5ErkJggg==" height="32" preserveAspectRatio="none"/>
      <image x="0" y="0" transform="matrix(1,0,0,1,0,46)" clip-path="url(#clipPath24)" width="32" xlink:href="data:image/png;base64,iVBORw0KGgoAAAANSUhEUgAAACAAAAAgCAYAAABzenr0AAABAElEQVR4Xu3UyUpD&#10;URCE4YpxiLowimYhLgwOC7NQHEMIDqCJw/u/j/XTBoTgvfEk4MIu+Na36NN9pbI0&#10;bcM6dmq39mSv9vFLRckCWSALZIHvBU7sRn9QYN127diu7MHGmv5AnaJQoGU71rUL&#10;G9qLvWv6I1WKsmRrtmUH1rO+4hmYwpuiyCyK0rAV21TswZFiCgNFiWcbfaFQlaJQ&#10;YPIMbdtXXAMl7hTPca/Yi8caxaHEsuIathUlmMSZndulXc9grrALPAUlmATPwU4c&#10;KspwIeBUfzJ3KMEkWEp2gsXkOjhR7NVYSCY7QZFVxW7wnwDTqbLQUARMBZSqk8lk&#10;Mpl/nk/AT0huSDMO2wAAAABJRU5ErkJggg==" height="32" preserveAspectRatio="none"/>
      <image x="0" y="0" transform="matrix(3.4688,0,0,1,32,46)" clip-path="url(#clipPath25)" width="32" xlink:href="data:image/png;base64,iVBORw0KGgoAAAANSUhEUgAAACAAAAAgCAYAAABzenr0AAAAU0lEQVR4Xu3IoQ2A&#10;UBTF0CY4PCOwAQPgfgL778MA9fcKXpNjCvCWaaRppGmkaaRppGmkaaRppGmkaaRp&#10;pPGUscq4y7jKOMs4ytjL2MqmaZqmn/cB5OOaAcaws0wAAAAASUVORK5CYII=" height="32" preserveAspectRatio="none"/>
      <image x="0" y="0" transform="matrix(1,0,0,1,143,46)" clip-path="url(#clipPath26)" width="32" xlink:href="data:image/png;base64,iVBORw0KGgoAAAANSUhEUgAAACAAAAAgCAYAAABzenr0AAAA+klEQVR4Xu3Ty2oC&#10;QRCF4fKCV4gRdRFcCGoWbhQSEUTQWZjEy/u/j+dnCIQs0m13SDZV8G3nVFXXmJld&#10;73SRDylkLXMZSluqllDfA0K8AW/AG/AGvjbwKjP7hwbeZS8vMpWBtOyPGjjJUXay&#10;lIn0pWmJDTBRjLOV4W9ykI0sZCwP0pCKJRTvGcLKCWZywreysnL9I+lK3RKriEAo&#10;b87amZzwZ3mSnmWsn+JXCuHaOTiCWTuTE/5o5fUzfdL6KSb5Cf85COXgeHPWzuTZ&#10;4RQfC+E/51fj2jk43py1Z4dTnQhMCv51rp1g3jw7nKpFIvAz9FeCvby8vLy8qBur&#10;jUyJY+pe5QAAAABJRU5ErkJggg==" height="32" preserveAspectRatio="none"/>
      <path fill="rgb(204,255,255)" d="M708.5 487 L851.5 487 L851.5 501 Q851.5 511 841.5 511 L718.5 511 Q708.5 511 708.5 501 Z" clip-path="url(#clipPath2)" transform="matrix(1,0,0,1,-695.5,-452)" stroke="none" image-rendering="auto"/>
      <path fill="url(#linearGradient3)" d="M708.5 475 Q708.5 465 718.5 465 L841.5 465 Q851.5 465 851.5 475 L851.5 488 L708.5 488 Z" clip-path="url(#clipPath2)" transform="matrix(1,0,0,1,-695.5,-452)" stroke="none" image-rendering="auto"/>
    </g>
    <g fill="rgb(247,255,255)" text-rendering="geometricPrecision" stroke-width="2" shape-rendering="geometricPrecision" transform="matrix(1,0,0,1,-363,-156)" stroke="rgb(247,255,255)">
      <path fill="none" d="M710.5 475 Q710.5 467 718.5 467 L841.5 467 Q849.5 467 849.5 475 L849.5 501 Q849.5 509 841.5 509 L718.5 509 Q710.5 509 710.5 501 Z" clip-path="url(#clipPath2)"/>
      <path fill="none" d="M710.5 475 Q710.5 467 718.5 467 L841.5 467 Q849.5 467 849.5 475 L849.5 501 Q849.5 509 841.5 509 L718.5 509 Q710.5 509 710.5 501 Z" stroke-width="1" clip-path="url(#clipPath2)" stroke="rgb(204,255,255)"/>
    </g>
    <g text-rendering="geometricPrecision" stroke-miterlimit="1.45" shape-rendering="geometricPrecision" font-family="sans-serif" transform="matrix(1,0,0,1,-363,-156)" stroke-linecap="butt">
      <text x="735.0059" xml:space="preserve" y="485.1699" clip-path="url(#clipPath2)" stroke="none">chebidb:48219</text>
      <text x="744.6416" xml:space="preserve" y="499.1387" clip-path="url(#clipPath2)" stroke="none">disinfectant</text>
    </g>
    <g text-rendering="geometricPrecision" shape-rendering="geometricPrecision" transform="matrix(1,0,0,1,332.5,2)" image-rendering="optimizeQuality">
      <image x="0" y="0" clip-path="url(#clipPath27)" width="32" xlink:href="data:image/png;base64,iVBORw0KGgoAAAANSUhEUgAAACAAAAAgCAYAAABzenr0AAAA70lEQVR4Xu3TOQ9B&#10;QRSG4bGvhSUoUEgsjUaCRESCAuH//x/fm3ETUbhj0J0vedo5yz3XOYvFYrFY/pPM&#10;B34WHstK7iEf6OskhXmsKGWpSFVqAb5KUrzgfNG6NKQtHek+9N6IznNxJmk6/+BQ&#10;RjKWiUxTRCcpzqpbMnC+6FwWspSVrFNEhek5NL43K+/LzPnCG9nJXg4BokIDTM83&#10;Z+1MTvGtHOUkZ7kEiArrLzk/Pd+ctTM5xXn0KrdAUWH9XD3XzsExPWtn8tcCaaJC&#10;Axwfvxrr5+D2zk//WiBNVJIG+Mf5lbhmDsoasAasAWvg4wbuVbZEmoYCe84AAAAA&#10;SUVORK5CYII=" height="32" preserveAspectRatio="none"/>
      <image x="0" y="0" transform="matrix(3.4688,0,0,1,32,0)" clip-path="url(#clipPath28)" width="32" xlink:href="data:image/png;base64,iVBORw0KGgoAAAANSUhEUgAAACAAAAAgCAYAAABzenr0AAAAUklEQVR4Xu3IsQ2A&#10;QBDEQCORUcB3QAnkZEj0388X4Hw3OUuTGKZpmqYJjjLOMq4yVhl3GU8ZbxlfGX+Z&#10;RppGmkaaRppGmkaaRppGmkaaRppG1AbG7ZIBO0NCHAAAAABJRU5ErkJggg==" height="32" preserveAspectRatio="none"/>
      <image x="0" y="0" transform="matrix(1,0,0,1,143,0)" clip-path="url(#clipPath29)" width="32" xlink:href="data:image/png;base64,iVBORw0KGgoAAAANSUhEUgAAACAAAAAgCAYAAABzenr0AAAA60lEQVR4Xu3TyYoC&#10;QRAE0HAZ1wEVN1APOi4HPSiuIIrtwf3//2ciSUHw0tXV4ikT3rmCyCzAxsbGxsYG&#10;SET08UlHkKLk08fCFB0VKE9Z+sErTOxphmg81alKZfqlHDRI7BAjB0MaUI860GAS&#10;RFqJHWLtYEULmtGE+tSmCnQtch/eN3F0ENCB9rSBBpFmWlSC3oV3C1dHFzpBA22h&#10;IaQJuQ85UmnBax4R3KFBJIQ0MYauQlrIwHMN74+EuUGb2NGUutBb8F7D+wNhpIUz&#10;9Cbm9Af9nvItvxZA1hDQEvo9a9DfYAEsgAWwAJED/AOiIEh70IRn2gAAAABJRU5E&#10;rkJggg==" height="32" preserveAspectRatio="none"/>
      <image x="0" y="0" transform="matrix(1,0,0,0.4375,0,32)" clip-path="url(#clipPath30)" width="32" xlink:href="data:image/png;base64,iVBORw0KGgoAAAANSUhEUgAAACAAAAAgCAYAAABzenr0AAAARElEQVR4Xu3OsQkA&#10;IRQFQeGyK8ASLMH8MsH++/G1cB/DWdh8Wqv15Df3PPLMX155/7wUAAAAAAAAAAAA&#10;AAAAAADANcABDP6RgTI0q7QAAAAASUVORK5CYII=" height="32" preserveAspectRatio="none"/>
      <image x="0" y="0" transform="matrix(1,0,0,0.4375,143,32)" clip-path="url(#clipPath31)" width="32" xlink:href="data:image/png;base64,iVBORw0KGgoAAAANSUhEUgAAACAAAAAgCAYAAABzenr0AAAASUlEQVR4Xu3OsQkA&#10;IBQD0WBn7wiO4AB2H3T/fUxtI4rlBa7Ok6R52XDhumuuuuKyS3rYfnAKAAAAAAAA&#10;AAAAAAAAAAAAAPAVsACP6ZmBg2qKHgAAAABJRU5ErkJggg==" height="32" preserveAspectRatio="none"/>
      <image x="0" y="0" transform="matrix(1,0,0,1,0,46)" clip-path="url(#clipPath32)" width="32" xlink:href="data:image/png;base64,iVBORw0KGgoAAAANSUhEUgAAACAAAAAgCAYAAABzenr0AAABAElEQVR4Xu3UyUpD&#10;URCE4YpxiLowimYhLgwOC7NQHEMIDqCJw/u/j/XTBoTgvfEk4MIu+Na36NN9pbI0&#10;bcM6dmq39mSv9vFLRckCWSALZIHvBU7sRn9QYN127diu7MHGmv5AnaJQoGU71rUL&#10;G9qLvWv6I1WKsmRrtmUH1rO+4hmYwpuiyCyK0rAV21TswZFiCgNFiWcbfaFQlaJQ&#10;YPIMbdtXXAMl7hTPca/Yi8caxaHEsuIathUlmMSZndulXc9grrALPAUlmATPwU4c&#10;KspwIeBUfzJ3KMEkWEp2gsXkOjhR7NVYSCY7QZFVxW7wnwDTqbLQUARMBZSqk8lk&#10;Mpl/nk/AT0huSDMO2wAAAABJRU5ErkJggg==" height="32" preserveAspectRatio="none"/>
      <image x="0" y="0" transform="matrix(3.4688,0,0,1,32,46)" clip-path="url(#clipPath33)" width="32" xlink:href="data:image/png;base64,iVBORw0KGgoAAAANSUhEUgAAACAAAAAgCAYAAABzenr0AAAAU0lEQVR4Xu3IoQ2A&#10;UBTF0CY4PCOwAQPgfgL778MA9fcKXpNjCvCWaaRppGmkaaRppGmkaaRppGmkaaRp&#10;pPGUscq4y7jKOMs4ytjL2MqmaZqmn/cB5OOaAcaws0wAAAAASUVORK5CYII=" height="32" preserveAspectRatio="none"/>
      <image x="0" y="0" transform="matrix(1,0,0,1,143,46)" clip-path="url(#clipPath34)" width="32" xlink:href="data:image/png;base64,iVBORw0KGgoAAAANSUhEUgAAACAAAAAgCAYAAABzenr0AAAA+klEQVR4Xu3Ty2oC&#10;QRCF4fKCV4gRdRFcCGoWbhQSEUTQWZjEy/u/j+dnCIQs0m13SDZV8G3nVFXXmJld&#10;73SRDylkLXMZSluqllDfA0K8AW/AG/AGvjbwKjP7hwbeZS8vMpWBtOyPGjjJUXay&#10;lIn0pWmJDTBRjLOV4W9ykI0sZCwP0pCKJRTvGcLKCWZywreysnL9I+lK3RKriEAo&#10;b87amZzwZ3mSnmWsn+JXCuHaOTiCWTuTE/5o5fUzfdL6KSb5Cf85COXgeHPWzuTZ&#10;4RQfC+E/51fj2jk43py1Z4dTnQhMCv51rp1g3jw7nKpFIvAz9FeCvby8vLy8qBur&#10;jUyJY+pe5QAAAABJRU5ErkJggg==" height="32" preserveAspectRatio="none"/>
      <path fill="rgb(204,255,255)" d="M708.5 193 L851.5 193 L851.5 207 Q851.5 217 841.5 217 L718.5 217 Q708.5 217 708.5 207 Z" clip-path="url(#clipPath2)" transform="matrix(1,0,0,1,-695.5,-158)" stroke="none" image-rendering="auto"/>
      <path fill="url(#linearGradient4)" d="M708.5 181 Q708.5 171 718.5 171 L841.5 171 Q851.5 171 851.5 181 L851.5 194 L708.5 194 Z" clip-path="url(#clipPath2)" transform="matrix(1,0,0,1,-695.5,-158)" stroke="none" image-rendering="auto"/>
    </g>
    <g fill="rgb(247,255,255)" text-rendering="geometricPrecision" stroke-width="2" shape-rendering="geometricPrecision" transform="matrix(1,0,0,1,-363,-156)" stroke="rgb(247,255,255)">
      <path fill="none" d="M710.5 181 Q710.5 173 718.5 173 L841.5 173 Q849.5 173 849.5 181 L849.5 207 Q849.5 215 841.5 215 L718.5 215 Q710.5 215 710.5 207 Z" clip-path="url(#clipPath2)"/>
      <path fill="none" d="M710.5 181 Q710.5 173 718.5 173 L841.5 173 Q849.5 173 849.5 181 L849.5 207 Q849.5 215 841.5 215 L718.5 215 Q710.5 215 710.5 207 Z" stroke-width="1" clip-path="url(#clipPath2)" stroke="rgb(204,255,255)"/>
    </g>
    <g text-rendering="geometricPrecision" stroke-miterlimit="1.45" shape-rendering="geometricPrecision" font-family="sans-serif" transform="matrix(1,0,0,1,-363,-156)" stroke-linecap="butt">
      <text x="735.0059" xml:space="preserve" y="191.1699" clip-path="url(#clipPath2)" stroke="none">chebidb:50906</text>
      <text x="768.5039" xml:space="preserve" y="205.1387" clip-path="url(#clipPath2)" stroke="none">role</text>
    </g>
    <g text-rendering="geometricPrecision" shape-rendering="geometricPrecision" transform="matrix(1,0,0,1,332.5,100)" image-rendering="optimizeQuality">
      <image x="0" y="0" clip-path="url(#clipPath35)" width="32" xlink:href="data:image/png;base64,iVBORw0KGgoAAAANSUhEUgAAACAAAAAgCAYAAABzenr0AAAA70lEQVR4Xu3TOQ9B&#10;QRSG4bGvhSUoUEgsjUaCRESCAuH//x/fm3ETUbhj0J0vedo5yz3XOYvFYrFY/pPM&#10;B34WHstK7iEf6OskhXmsKGWpSFVqAb5KUrzgfNG6NKQtHek+9N6IznNxJmk6/+BQ&#10;RjKWiUxTRCcpzqpbMnC+6FwWspSVrFNEhek5NL43K+/LzPnCG9nJXg4BokIDTM83&#10;Z+1MTvGtHOUkZ7kEiArrLzk/Pd+ctTM5xXn0KrdAUWH9XD3XzsExPWtn8tcCaaJC&#10;Axwfvxrr5+D2zk//WiBNVJIG+Mf5lbhmDsoasAasAWvg4wbuVbZEmoYCe84AAAAA&#10;SUVORK5CYII=" height="32" preserveAspectRatio="none"/>
      <image x="0" y="0" transform="matrix(3.4688,0,0,1,32,0)" clip-path="url(#clipPath36)" width="32" xlink:href="data:image/png;base64,iVBORw0KGgoAAAANSUhEUgAAACAAAAAgCAYAAABzenr0AAAAUklEQVR4Xu3IsQ2A&#10;QBDEQCORUcB3QAnkZEj0388X4Hw3OUuTGKZpmqYJjjLOMq4yVhl3GU8ZbxlfGX+Z&#10;RppGmkaaRppGmkaaRppGmkaaRppG1AbG7ZIBO0NCHAAAAABJRU5ErkJggg==" height="32" preserveAspectRatio="none"/>
      <image x="0" y="0" transform="matrix(1,0,0,1,143,0)" clip-path="url(#clipPath37)" width="32" xlink:href="data:image/png;base64,iVBORw0KGgoAAAANSUhEUgAAACAAAAAgCAYAAABzenr0AAAA60lEQVR4Xu3TyYoC&#10;QRAE0HAZ1wEVN1APOi4HPSiuIIrtwf3//2ciSUHw0tXV4ikT3rmCyCzAxsbGxsYG&#10;SET08UlHkKLk08fCFB0VKE9Z+sErTOxphmg81alKZfqlHDRI7BAjB0MaUI860GAS&#10;RFqJHWLtYEULmtGE+tSmCnQtch/eN3F0ENCB9rSBBpFmWlSC3oV3C1dHFzpBA22h&#10;IaQJuQ85UmnBax4R3KFBJIQ0MYauQlrIwHMN74+EuUGb2NGUutBb8F7D+wNhpIUz&#10;9Cbm9Af9nvItvxZA1hDQEvo9a9DfYAEsgAWwAJED/AOiIEh70IRn2gAAAABJRU5E&#10;rkJggg==" height="32" preserveAspectRatio="none"/>
      <image x="0" y="0" transform="matrix(1,0,0,0.4375,0,32)" clip-path="url(#clipPath38)" width="32" xlink:href="data:image/png;base64,iVBORw0KGgoAAAANSUhEUgAAACAAAAAgCAYAAABzenr0AAAARElEQVR4Xu3OsQkA&#10;IRQFQeGyK8ASLMH8MsH++/G1cB/DWdh8Wqv15Df3PPLMX155/7wUAAAAAAAAAAAA&#10;AAAAAADANcABDP6RgTI0q7QAAAAASUVORK5CYII=" height="32" preserveAspectRatio="none"/>
      <image x="0" y="0" transform="matrix(1,0,0,0.4375,143,32)" clip-path="url(#clipPath39)" width="32" xlink:href="data:image/png;base64,iVBORw0KGgoAAAANSUhEUgAAACAAAAAgCAYAAABzenr0AAAASUlEQVR4Xu3OsQkA&#10;IBQD0WBn7wiO4AB2H3T/fUxtI4rlBa7Ok6R52XDhumuuuuKyS3rYfnAKAAAAAAAA&#10;AAAAAAAAAAAAAPAVsACP6ZmBg2qKHgAAAABJRU5ErkJggg==" height="32" preserveAspectRatio="none"/>
      <image x="0" y="0" transform="matrix(1,0,0,1,0,46)" clip-path="url(#clipPath40)" width="32" xlink:href="data:image/png;base64,iVBORw0KGgoAAAANSUhEUgAAACAAAAAgCAYAAABzenr0AAABAElEQVR4Xu3UyUpD&#10;URCE4YpxiLowimYhLgwOC7NQHEMIDqCJw/u/j/XTBoTgvfEk4MIu+Na36NN9pbI0&#10;bcM6dmq39mSv9vFLRckCWSALZIHvBU7sRn9QYN127diu7MHGmv5AnaJQoGU71rUL&#10;G9qLvWv6I1WKsmRrtmUH1rO+4hmYwpuiyCyK0rAV21TswZFiCgNFiWcbfaFQlaJQ&#10;YPIMbdtXXAMl7hTPca/Yi8caxaHEsuIathUlmMSZndulXc9grrALPAUlmATPwU4c&#10;KspwIeBUfzJ3KMEkWEp2gsXkOjhR7NVYSCY7QZFVxW7wnwDTqbLQUARMBZSqk8lk&#10;Mpl/nk/AT0huSDMO2wAAAABJRU5ErkJggg==" height="32" preserveAspectRatio="none"/>
      <image x="0" y="0" transform="matrix(3.4688,0,0,1,32,46)" clip-path="url(#clipPath41)" width="32" xlink:href="data:image/png;base64,iVBORw0KGgoAAAANSUhEUgAAACAAAAAgCAYAAABzenr0AAAAU0lEQVR4Xu3IoQ2A&#10;UBTF0CY4PCOwAQPgfgL778MA9fcKXpNjCvCWaaRppGmkaaRppGmkaaRppGmkaaRp&#10;pPGUscq4y7jKOMs4ytjL2MqmaZqmn/cB5OOaAcaws0wAAAAASUVORK5CYII=" height="32" preserveAspectRatio="none"/>
      <image x="0" y="0" transform="matrix(1,0,0,1,143,46)" clip-path="url(#clipPath42)" width="32" xlink:href="data:image/png;base64,iVBORw0KGgoAAAANSUhEUgAAACAAAAAgCAYAAABzenr0AAAA+klEQVR4Xu3Ty2oC&#10;QRCF4fKCV4gRdRFcCGoWbhQSEUTQWZjEy/u/j+dnCIQs0m13SDZV8G3nVFXXmJld&#10;73SRDylkLXMZSluqllDfA0K8AW/AG/AGvjbwKjP7hwbeZS8vMpWBtOyPGjjJUXay&#10;lIn0pWmJDTBRjLOV4W9ykI0sZCwP0pCKJRTvGcLKCWZywreysnL9I+lK3RKriEAo&#10;b87amZzwZ3mSnmWsn+JXCuHaOTiCWTuTE/5o5fUzfdL6KSb5Cf85COXgeHPWzuTZ&#10;4RQfC+E/51fj2jk43py1Z4dTnQhMCv51rp1g3jw7nKpFIvAz9FeCvby8vLy8qBur&#10;jUyJY+pe5QAAAABJRU5ErkJggg==" height="32" preserveAspectRatio="none"/>
      <path fill="rgb(204,255,255)" d="M708.5 291 L851.5 291 L851.5 305 Q851.5 315 841.5 315 L718.5 315 Q708.5 315 708.5 305 Z" clip-path="url(#clipPath2)" transform="matrix(1,0,0,1,-695.5,-256)" stroke="none" image-rendering="auto"/>
      <path fill="url(#linearGradient5)" d="M708.5 279 Q708.5 269 718.5 269 L841.5 269 Q851.5 269 851.5 279 L851.5 292 L708.5 292 Z" clip-path="url(#clipPath2)" transform="matrix(1,0,0,1,-695.5,-256)" stroke="none" image-rendering="auto"/>
    </g>
    <g fill="rgb(247,255,255)" text-rendering="geometricPrecision" stroke-width="2" shape-rendering="geometricPrecision" transform="matrix(1,0,0,1,-363,-156)" stroke="rgb(247,255,255)">
      <path fill="none" d="M710.5 279 Q710.5 271 718.5 271 L841.5 271 Q849.5 271 849.5 279 L849.5 305 Q849.5 313 841.5 313 L718.5 313 Q710.5 313 710.5 305 Z" clip-path="url(#clipPath2)"/>
      <path fill="none" d="M710.5 279 Q710.5 271 718.5 271 L841.5 271 Q849.5 271 849.5 279 L849.5 305 Q849.5 313 841.5 313 L718.5 313 Q710.5 313 710.5 305 Z" stroke-width="1" clip-path="url(#clipPath2)" stroke="rgb(204,255,255)"/>
    </g>
    <g text-rendering="geometricPrecision" stroke-miterlimit="1.45" shape-rendering="geometricPrecision" font-family="sans-serif" transform="matrix(1,0,0,1,-363,-156)" stroke-linecap="butt">
      <text x="735.0059" xml:space="preserve" y="289.1699" clip-path="url(#clipPath2)" stroke="none">chebidb:24432</text>
      <text x="737.9941" xml:space="preserve" y="303.1387" clip-path="url(#clipPath2)" stroke="none">biological role</text>
    </g>
    <g text-rendering="geometricPrecision" shape-rendering="geometricPrecision" transform="matrix(1,0,0,1,332.5,198)" image-rendering="optimizeQuality">
      <image x="0" y="0" clip-path="url(#clipPath43)" width="32" xlink:href="data:image/png;base64,iVBORw0KGgoAAAANSUhEUgAAACAAAAAgCAYAAABzenr0AAAA70lEQVR4Xu3TOQ9B&#10;QRSG4bGvhSUoUEgsjUaCRESCAuH//x/fm3ETUbhj0J0vedo5yz3XOYvFYrFY/pPM&#10;B34WHstK7iEf6OskhXmsKGWpSFVqAb5KUrzgfNG6NKQtHek+9N6IznNxJmk6/+BQ&#10;RjKWiUxTRCcpzqpbMnC+6FwWspSVrFNEhek5NL43K+/LzPnCG9nJXg4BokIDTM83&#10;Z+1MTvGtHOUkZ7kEiArrLzk/Pd+ctTM5xXn0KrdAUWH9XD3XzsExPWtn8tcCaaJC&#10;Axwfvxrr5+D2zk//WiBNVJIG+Mf5lbhmDsoasAasAWvg4wbuVbZEmoYCe84AAAAA&#10;SUVORK5CYII=" height="32" preserveAspectRatio="none"/>
      <image x="0" y="0" transform="matrix(3.4688,0,0,1,32,0)" clip-path="url(#clipPath44)" width="32" xlink:href="data:image/png;base64,iVBORw0KGgoAAAANSUhEUgAAACAAAAAgCAYAAABzenr0AAAAUklEQVR4Xu3IsQ2A&#10;QBDEQCORUcB3QAnkZEj0388X4Hw3OUuTGKZpmqYJjjLOMq4yVhl3GU8ZbxlfGX+Z&#10;RppGmkaaRppGmkaaRppGmkaaRppG1AbG7ZIBO0NCHAAAAABJRU5ErkJggg==" height="32" preserveAspectRatio="none"/>
      <image x="0" y="0" transform="matrix(1,0,0,1,143,0)" clip-path="url(#clipPath45)" width="32" xlink:href="data:image/png;base64,iVBORw0KGgoAAAANSUhEUgAAACAAAAAgCAYAAABzenr0AAAA60lEQVR4Xu3TyYoC&#10;QRAE0HAZ1wEVN1APOi4HPSiuIIrtwf3//2ciSUHw0tXV4ikT3rmCyCzAxsbGxsYG&#10;SET08UlHkKLk08fCFB0VKE9Z+sErTOxphmg81alKZfqlHDRI7BAjB0MaUI860GAS&#10;RFqJHWLtYEULmtGE+tSmCnQtch/eN3F0ENCB9rSBBpFmWlSC3oV3C1dHFzpBA22h&#10;IaQJuQ85UmnBax4R3KFBJIQ0MYauQlrIwHMN74+EuUGb2NGUutBb8F7D+wNhpIUz&#10;9Cbm9Af9nvItvxZA1hDQEvo9a9DfYAEsgAWwAJED/AOiIEh70IRn2gAAAABJRU5E&#10;rkJggg==" height="32" preserveAspectRatio="none"/>
      <image x="0" y="0" transform="matrix(1,0,0,0.4375,0,32)" clip-path="url(#clipPath46)" width="32" xlink:href="data:image/png;base64,iVBORw0KGgoAAAANSUhEUgAAACAAAAAgCAYAAABzenr0AAAARElEQVR4Xu3OsQkA&#10;IRQFQeGyK8ASLMH8MsH++/G1cB/DWdh8Wqv15Df3PPLMX155/7wUAAAAAAAAAAAA&#10;AAAAAADANcABDP6RgTI0q7QAAAAASUVORK5CYII=" height="32" preserveAspectRatio="none"/>
      <image x="0" y="0" transform="matrix(1,0,0,0.4375,143,32)" clip-path="url(#clipPath47)" width="32" xlink:href="data:image/png;base64,iVBORw0KGgoAAAANSUhEUgAAACAAAAAgCAYAAABzenr0AAAASUlEQVR4Xu3OsQkA&#10;IBQD0WBn7wiO4AB2H3T/fUxtI4rlBa7Ok6R52XDhumuuuuKyS3rYfnAKAAAAAAAA&#10;AAAAAAAAAAAAAPAVsACP6ZmBg2qKHgAAAABJRU5ErkJggg==" height="32" preserveAspectRatio="none"/>
      <image x="0" y="0" transform="matrix(1,0,0,1,0,46)" clip-path="url(#clipPath48)" width="32" xlink:href="data:image/png;base64,iVBORw0KGgoAAAANSUhEUgAAACAAAAAgCAYAAABzenr0AAABAElEQVR4Xu3UyUpD&#10;URCE4YpxiLowimYhLgwOC7NQHEMIDqCJw/u/j/XTBoTgvfEk4MIu+Na36NN9pbI0&#10;bcM6dmq39mSv9vFLRckCWSALZIHvBU7sRn9QYN127diu7MHGmv5AnaJQoGU71rUL&#10;G9qLvWv6I1WKsmRrtmUH1rO+4hmYwpuiyCyK0rAV21TswZFiCgNFiWcbfaFQlaJQ&#10;YPIMbdtXXAMl7hTPca/Yi8caxaHEsuIathUlmMSZndulXc9grrALPAUlmATPwU4c&#10;KspwIeBUfzJ3KMEkWEp2gsXkOjhR7NVYSCY7QZFVxW7wnwDTqbLQUARMBZSqk8lk&#10;Mpl/nk/AT0huSDMO2wAAAABJRU5ErkJggg==" height="32" preserveAspectRatio="none"/>
      <image x="0" y="0" transform="matrix(3.4688,0,0,1,32,46)" clip-path="url(#clipPath49)" width="32" xlink:href="data:image/png;base64,iVBORw0KGgoAAAANSUhEUgAAACAAAAAgCAYAAABzenr0AAAAU0lEQVR4Xu3IoQ2A&#10;UBTF0CY4PCOwAQPgfgL778MA9fcKXpNjCvCWaaRppGmkaaRppGmkaaRppGmkaaRp&#10;pPGUscq4y7jKOMs4ytjL2MqmaZqmn/cB5OOaAcaws0wAAAAASUVORK5CYII=" height="32" preserveAspectRatio="none"/>
      <image x="0" y="0" transform="matrix(1,0,0,1,143,46)" clip-path="url(#clipPath50)" width="32" xlink:href="data:image/png;base64,iVBORw0KGgoAAAANSUhEUgAAACAAAAAgCAYAAABzenr0AAAA+klEQVR4Xu3Ty2oC&#10;QRCF4fKCV4gRdRFcCGoWbhQSEUTQWZjEy/u/j+dnCIQs0m13SDZV8G3nVFXXmJld&#10;73SRDylkLXMZSluqllDfA0K8AW/AG/AGvjbwKjP7hwbeZS8vMpWBtOyPGjjJUXay&#10;lIn0pWmJDTBRjLOV4W9ykI0sZCwP0pCKJRTvGcLKCWZywreysnL9I+lK3RKriEAo&#10;b87amZzwZ3mSnmWsn+JXCuHaOTiCWTuTE/5o5fUzfdL6KSb5Cf85COXgeHPWzuTZ&#10;4RQfC+E/51fj2jk43py1Z4dTnQhMCv51rp1g3jw7nKpFIvAz9FeCvby8vLy8qBur&#10;jUyJY+pe5QAAAABJRU5ErkJggg==" height="32" preserveAspectRatio="none"/>
      <path fill="rgb(204,255,255)" d="M708.5 389 L851.5 389 L851.5 403 Q851.5 413 841.5 413 L718.5 413 Q708.5 413 708.5 403 Z" clip-path="url(#clipPath2)" transform="matrix(1,0,0,1,-695.5,-354)" stroke="none" image-rendering="auto"/>
      <path fill="url(#linearGradient6)" d="M708.5 377 Q708.5 367 718.5 367 L841.5 367 Q851.5 367 851.5 377 L851.5 390 L708.5 390 Z" clip-path="url(#clipPath2)" transform="matrix(1,0,0,1,-695.5,-354)" stroke="none" image-rendering="auto"/>
    </g>
    <g fill="rgb(247,255,255)" text-rendering="geometricPrecision" stroke-width="2" shape-rendering="geometricPrecision" transform="matrix(1,0,0,1,-363,-156)" stroke="rgb(247,255,255)">
      <path fill="none" d="M710.5 377 Q710.5 369 718.5 369 L841.5 369 Q849.5 369 849.5 377 L849.5 403 Q849.5 411 841.5 411 L718.5 411 Q710.5 411 710.5 403 Z" clip-path="url(#clipPath2)"/>
      <path fill="none" d="M710.5 377 Q710.5 369 718.5 369 L841.5 369 Q849.5 369 849.5 377 L849.5 403 Q849.5 411 841.5 411 L718.5 411 Q710.5 411 710.5 403 Z" stroke-width="1" clip-path="url(#clipPath2)" stroke="rgb(204,255,255)"/>
    </g>
    <g text-rendering="geometricPrecision" stroke-miterlimit="1.45" shape-rendering="geometricPrecision" font-family="sans-serif" transform="matrix(1,0,0,1,-363,-156)" stroke-linecap="butt">
      <text x="735.0059" xml:space="preserve" y="387.1699" clip-path="url(#clipPath2)" stroke="none">chebidb:33281</text>
      <text x="721.4941" xml:space="preserve" y="401.1387" clip-path="url(#clipPath2)" stroke="none">antimicrobial agent</text>
    </g>
    <g text-rendering="geometricPrecision" shape-rendering="geometricPrecision" transform="matrix(1,0,0,1,2.5,2)" image-rendering="optimizeQuality">
      <image x="0" y="0" clip-path="url(#clipPath51)" width="32" xlink:href="data:image/png;base64,iVBORw0KGgoAAAANSUhEUgAAACAAAAAgCAYAAABzenr0AAAA70lEQVR4Xu3TOQ9B&#10;QRSG4bGvhSUoUEgsjUaCRESCAuH//x/fm3ETUbhj0J0vedo5yz3XOYvFYrFY/pPM&#10;B34WHstK7iEf6OskhXmsKGWpSFVqAb5KUrzgfNG6NKQtHek+9N6IznNxJmk6/+BQ&#10;RjKWiUxTRCcpzqpbMnC+6FwWspSVrFNEhek5NL43K+/LzPnCG9nJXg4BokIDTM83&#10;Z+1MTvGtHOUkZ7kEiArrLzk/Pd+ctTM5xXn0KrdAUWH9XD3XzsExPWtn8tcCaaJC&#10;Axwfvxrr5+D2zk//WiBNVJIG+Mf5lbhmDsoasAasAWvg4wbuVbZEmoYCe84AAAAA&#10;SUVORK5CYII=" height="32" preserveAspectRatio="none"/>
      <image x="0" y="0" transform="matrix(3.4688,0,0,1,32,0)" clip-path="url(#clipPath52)" width="32" xlink:href="data:image/png;base64,iVBORw0KGgoAAAANSUhEUgAAACAAAAAgCAYAAABzenr0AAAAUklEQVR4Xu3IsQ2A&#10;QBDEQCORUcB3QAnkZEj0388X4Hw3OUuTGKZpmqYJjjLOMq4yVhl3GU8ZbxlfGX+Z&#10;RppGmkaaRppGmkaaRppGmkaaRppG1AbG7ZIBO0NCHAAAAABJRU5ErkJggg==" height="32" preserveAspectRatio="none"/>
      <image x="0" y="0" transform="matrix(1,0,0,1,143,0)" clip-path="url(#clipPath53)" width="32" xlink:href="data:image/png;base64,iVBORw0KGgoAAAANSUhEUgAAACAAAAAgCAYAAABzenr0AAAA60lEQVR4Xu3TyYoC&#10;QRAE0HAZ1wEVN1APOi4HPSiuIIrtwf3//2ciSUHw0tXV4ikT3rmCyCzAxsbGxsYG&#10;SET08UlHkKLk08fCFB0VKE9Z+sErTOxphmg81alKZfqlHDRI7BAjB0MaUI860GAS&#10;RFqJHWLtYEULmtGE+tSmCnQtch/eN3F0ENCB9rSBBpFmWlSC3oV3C1dHFzpBA22h&#10;IaQJuQ85UmnBax4R3KFBJIQ0MYauQlrIwHMN74+EuUGb2NGUutBb8F7D+wNhpIUz&#10;9Cbm9Af9nvItvxZA1hDQEvo9a9DfYAEsgAWwAJED/AOiIEh70IRn2gAAAABJRU5E&#10;rkJggg==" height="32" preserveAspectRatio="none"/>
      <image x="0" y="0" transform="matrix(1,0,0,0.4375,0,32)" clip-path="url(#clipPath54)" width="32" xlink:href="data:image/png;base64,iVBORw0KGgoAAAANSUhEUgAAACAAAAAgCAYAAABzenr0AAAARElEQVR4Xu3OsQkA&#10;IRQFQeGyK8ASLMH8MsH++/G1cB/DWdh8Wqv15Df3PPLMX155/7wUAAAAAAAAAAAA&#10;AAAAAADANcABDP6RgTI0q7QAAAAASUVORK5CYII=" height="32" preserveAspectRatio="none"/>
      <image x="0" y="0" transform="matrix(1,0,0,0.4375,143,32)" clip-path="url(#clipPath55)" width="32" xlink:href="data:image/png;base64,iVBORw0KGgoAAAANSUhEUgAAACAAAAAgCAYAAABzenr0AAAASUlEQVR4Xu3OsQkA&#10;IBQD0WBn7wiO4AB2H3T/fUxtI4rlBa7Ok6R52XDhumuuuuKyS3rYfnAKAAAAAAAA&#10;AAAAAAAAAAAAAPAVsACP6ZmBg2qKHgAAAABJRU5ErkJggg==" height="32" preserveAspectRatio="none"/>
      <image x="0" y="0" transform="matrix(1,0,0,1,0,46)" clip-path="url(#clipPath56)" width="32" xlink:href="data:image/png;base64,iVBORw0KGgoAAAANSUhEUgAAACAAAAAgCAYAAABzenr0AAABAElEQVR4Xu3UyUpD&#10;URCE4YpxiLowimYhLgwOC7NQHEMIDqCJw/u/j/XTBoTgvfEk4MIu+Na36NN9pbI0&#10;bcM6dmq39mSv9vFLRckCWSALZIHvBU7sRn9QYN127diu7MHGmv5AnaJQoGU71rUL&#10;G9qLvWv6I1WKsmRrtmUH1rO+4hmYwpuiyCyK0rAV21TswZFiCgNFiWcbfaFQlaJQ&#10;YPIMbdtXXAMl7hTPca/Yi8caxaHEsuIathUlmMSZndulXc9grrALPAUlmATPwU4c&#10;KspwIeBUfzJ3KMEkWEp2gsXkOjhR7NVYSCY7QZFVxW7wnwDTqbLQUARMBZSqk8lk&#10;Mpl/nk/AT0huSDMO2wAAAABJRU5ErkJggg==" height="32" preserveAspectRatio="none"/>
      <image x="0" y="0" transform="matrix(3.4688,0,0,1,32,46)" clip-path="url(#clipPath57)" width="32" xlink:href="data:image/png;base64,iVBORw0KGgoAAAANSUhEUgAAACAAAAAgCAYAAABzenr0AAAAU0lEQVR4Xu3IoQ2A&#10;UBTF0CY4PCOwAQPgfgL778MA9fcKXpNjCvCWaaRppGmkaaRppGmkaaRppGmkaaRp&#10;pPGUscq4y7jKOMs4ytjL2MqmaZqmn/cB5OOaAcaws0wAAAAASUVORK5CYII=" height="32" preserveAspectRatio="none"/>
      <image x="0" y="0" transform="matrix(1,0,0,1,143,46)" clip-path="url(#clipPath58)" width="32" xlink:href="data:image/png;base64,iVBORw0KGgoAAAANSUhEUgAAACAAAAAgCAYAAABzenr0AAAA+klEQVR4Xu3Ty2oC&#10;QRCF4fKCV4gRdRFcCGoWbhQSEUTQWZjEy/u/j+dnCIQs0m13SDZV8G3nVFXXmJld&#10;73SRDylkLXMZSluqllDfA0K8AW/AG/AGvjbwKjP7hwbeZS8vMpWBtOyPGjjJUXay&#10;lIn0pWmJDTBRjLOV4W9ykI0sZCwP0pCKJRTvGcLKCWZywreysnL9I+lK3RKriEAo&#10;b87amZzwZ3mSnmWsn+JXCuHaOTiCWTuTE/5o5fUzfdL6KSb5Cf85COXgeHPWzuTZ&#10;4RQfC+E/51fj2jk43py1Z4dTnQhMCv51rp1g3jw7nKpFIvAz9FeCvby8vLy8qBur&#10;jUyJY+pe5QAAAABJRU5ErkJggg==" height="32" preserveAspectRatio="none"/>
      <path fill="rgb(204,255,204)" d="M378.5 193 L521.5 193 L521.5 207 Q521.5 217 511.5 217 L388.5 217 Q378.5 217 378.5 207 Z" clip-path="url(#clipPath2)" transform="matrix(1,0,0,1,-365.5,-158)" stroke="none" image-rendering="auto"/>
      <path fill="url(#linearGradient7)" d="M378.5 181 Q378.5 171 388.5 171 L511.5 171 Q521.5 171 521.5 181 L521.5 194 L378.5 194 Z" clip-path="url(#clipPath2)" transform="matrix(1,0,0,1,-365.5,-158)" stroke="none" image-rendering="auto"/>
    </g>
    <g fill="rgb(247,255,247)" text-rendering="geometricPrecision" stroke-width="2" shape-rendering="geometricPrecision" transform="matrix(1,0,0,1,-363,-156)" stroke="rgb(247,255,247)">
      <path fill="none" d="M380.5 181 Q380.5 173 388.5 173 L511.5 173 Q519.5 173 519.5 181 L519.5 207 Q519.5 215 511.5 215 L388.5 215 Q380.5 215 380.5 207 Z" clip-path="url(#clipPath2)"/>
      <path fill="none" d="M380.5 181 Q380.5 173 388.5 173 L511.5 173 Q519.5 173 519.5 181 L519.5 207 Q519.5 215 511.5 215 L388.5 215 Q380.5 215 380.5 207 Z" stroke-width="1" clip-path="url(#clipPath2)" stroke="rgb(204,255,204)"/>
    </g>
    <g text-rendering="geometricPrecision" stroke-miterlimit="1.45" shape-rendering="geometricPrecision" font-family="sans-serif" transform="matrix(1,0,0,1,-363,-156)" stroke-linecap="butt">
      <text x="405.0059" xml:space="preserve" y="191.1699" clip-path="url(#clipPath2)" stroke="none">chebidb:24431</text>
      <text x="403.7285" xml:space="preserve" y="205.1387" clip-path="url(#clipPath2)" stroke="none">chemical entity</text>
    </g>
    <g text-rendering="geometricPrecision" shape-rendering="geometricPrecision" transform="matrix(1,0,0,1,2.5,100)" image-rendering="optimizeQuality">
      <image x="0" y="0" clip-path="url(#clipPath59)" width="32" xlink:href="data:image/png;base64,iVBORw0KGgoAAAANSUhEUgAAACAAAAAgCAYAAABzenr0AAAA70lEQVR4Xu3TOQ9B&#10;QRSG4bGvhSUoUEgsjUaCRESCAuH//x/fm3ETUbhj0J0vedo5yz3XOYvFYrFY/pPM&#10;B34WHstK7iEf6OskhXmsKGWpSFVqAb5KUrzgfNG6NKQtHek+9N6IznNxJmk6/+BQ&#10;RjKWiUxTRCcpzqpbMnC+6FwWspSVrFNEhek5NL43K+/LzPnCG9nJXg4BokIDTM83&#10;Z+1MTvGtHOUkZ7kEiArrLzk/Pd+ctTM5xXn0KrdAUWH9XD3XzsExPWtn8tcCaaJC&#10;Axwfvxrr5+D2zk//WiBNVJIG+Mf5lbhmDsoasAasAWvg4wbuVbZEmoYCe84AAAAA&#10;SUVORK5CYII=" height="32" preserveAspectRatio="none"/>
      <image x="0" y="0" transform="matrix(3.4688,0,0,1,32,0)" clip-path="url(#clipPath60)" width="32" xlink:href="data:image/png;base64,iVBORw0KGgoAAAANSUhEUgAAACAAAAAgCAYAAABzenr0AAAAUklEQVR4Xu3IsQ2A&#10;QBDEQCORUcB3QAnkZEj0388X4Hw3OUuTGKZpmqYJjjLOMq4yVhl3GU8ZbxlfGX+Z&#10;RppGmkaaRppGmkaaRppGmkaaRppG1AbG7ZIBO0NCHAAAAABJRU5ErkJggg==" height="32" preserveAspectRatio="none"/>
      <image x="0" y="0" transform="matrix(1,0,0,1,143,0)" clip-path="url(#clipPath61)" width="32" xlink:href="data:image/png;base64,iVBORw0KGgoAAAANSUhEUgAAACAAAAAgCAYAAABzenr0AAAA60lEQVR4Xu3TyYoC&#10;QRAE0HAZ1wEVN1APOi4HPSiuIIrtwf3//2ciSUHw0tXV4ikT3rmCyCzAxsbGxsYG&#10;SET08UlHkKLk08fCFB0VKE9Z+sErTOxphmg81alKZfqlHDRI7BAjB0MaUI860GAS&#10;RFqJHWLtYEULmtGE+tSmCnQtch/eN3F0ENCB9rSBBpFmWlSC3oV3C1dHFzpBA22h&#10;IaQJuQ85UmnBax4R3KFBJIQ0MYauQlrIwHMN74+EuUGb2NGUutBb8F7D+wNhpIUz&#10;9Cbm9Af9nvItvxZA1hDQEvo9a9DfYAEsgAWwAJED/AOiIEh70IRn2gAAAABJRU5E&#10;rkJggg==" height="32" preserveAspectRatio="none"/>
      <image x="0" y="0" transform="matrix(1,0,0,0.4375,0,32)" clip-path="url(#clipPath62)" width="32" xlink:href="data:image/png;base64,iVBORw0KGgoAAAANSUhEUgAAACAAAAAgCAYAAABzenr0AAAARElEQVR4Xu3OsQkA&#10;IRQFQeGyK8ASLMH8MsH++/G1cB/DWdh8Wqv15Df3PPLMX155/7wUAAAAAAAAAAAA&#10;AAAAAADANcABDP6RgTI0q7QAAAAASUVORK5CYII=" height="32" preserveAspectRatio="none"/>
      <image x="0" y="0" transform="matrix(1,0,0,0.4375,143,32)" clip-path="url(#clipPath63)" width="32" xlink:href="data:image/png;base64,iVBORw0KGgoAAAANSUhEUgAAACAAAAAgCAYAAABzenr0AAAASUlEQVR4Xu3OsQkA&#10;IBQD0WBn7wiO4AB2H3T/fUxtI4rlBa7Ok6R52XDhumuuuuKyS3rYfnAKAAAAAAAA&#10;AAAAAAAAAAAAAPAVsACP6ZmBg2qKHgAAAABJRU5ErkJggg==" height="32" preserveAspectRatio="none"/>
      <image x="0" y="0" transform="matrix(1,0,0,1,0,46)" clip-path="url(#clipPath64)" width="32" xlink:href="data:image/png;base64,iVBORw0KGgoAAAANSUhEUgAAACAAAAAgCAYAAABzenr0AAABAElEQVR4Xu3UyUpD&#10;URCE4YpxiLowimYhLgwOC7NQHEMIDqCJw/u/j/XTBoTgvfEk4MIu+Na36NN9pbI0&#10;bcM6dmq39mSv9vFLRckCWSALZIHvBU7sRn9QYN127diu7MHGmv5AnaJQoGU71rUL&#10;G9qLvWv6I1WKsmRrtmUH1rO+4hmYwpuiyCyK0rAV21TswZFiCgNFiWcbfaFQlaJQ&#10;YPIMbdtXXAMl7hTPca/Yi8caxaHEsuIathUlmMSZndulXc9grrALPAUlmATPwU4c&#10;KspwIeBUfzJ3KMEkWEp2gsXkOjhR7NVYSCY7QZFVxW7wnwDTqbLQUARMBZSqk8lk&#10;Mpl/nk/AT0huSDMO2wAAAABJRU5ErkJggg==" height="32" preserveAspectRatio="none"/>
      <image x="0" y="0" transform="matrix(3.4688,0,0,1,32,46)" clip-path="url(#clipPath65)" width="32" xlink:href="data:image/png;base64,iVBORw0KGgoAAAANSUhEUgAAACAAAAAgCAYAAABzenr0AAAAU0lEQVR4Xu3IoQ2A&#10;UBTF0CY4PCOwAQPgfgL778MA9fcKXpNjCvCWaaRppGmkaaRppGmkaaRppGmkaaRp&#10;pPGUscq4y7jKOMs4ytjL2MqmaZqmn/cB5OOaAcaws0wAAAAASUVORK5CYII=" height="32" preserveAspectRatio="none"/>
      <image x="0" y="0" transform="matrix(1,0,0,1,143,46)" clip-path="url(#clipPath66)" width="32" xlink:href="data:image/png;base64,iVBORw0KGgoAAAANSUhEUgAAACAAAAAgCAYAAABzenr0AAAA+klEQVR4Xu3Ty2oC&#10;QRCF4fKCV4gRdRFcCGoWbhQSEUTQWZjEy/u/j+dnCIQs0m13SDZV8G3nVFXXmJld&#10;73SRDylkLXMZSluqllDfA0K8AW/AG/AGvjbwKjP7hwbeZS8vMpWBtOyPGjjJUXay&#10;lIn0pWmJDTBRjLOV4W9ykI0sZCwP0pCKJRTvGcLKCWZywreysnL9I+lK3RKriEAo&#10;b87amZzwZ3mSnmWsn+JXCuHaOTiCWTuTE/5o5fUzfdL6KSb5Cf85COXgeHPWzuTZ&#10;4RQfC+E/51fj2jk43py1Z4dTnQhMCv51rp1g3jw7nKpFIvAz9FeCvby8vLy8qBur&#10;jUyJY+pe5QAAAABJRU5ErkJggg==" height="32" preserveAspectRatio="none"/>
      <path fill="rgb(204,255,204)" d="M378.5 291 L521.5 291 L521.5 305 Q521.5 315 511.5 315 L388.5 315 Q378.5 315 378.5 305 Z" clip-path="url(#clipPath2)" transform="matrix(1,0,0,1,-365.5,-256)" stroke="none" image-rendering="auto"/>
      <path fill="url(#linearGradient8)" d="M378.5 279 Q378.5 269 388.5 269 L511.5 269 Q521.5 269 521.5 279 L521.5 292 L378.5 292 Z" clip-path="url(#clipPath2)" transform="matrix(1,0,0,1,-365.5,-256)" stroke="none" image-rendering="auto"/>
    </g>
    <g fill="rgb(247,255,247)" text-rendering="geometricPrecision" stroke-width="2" shape-rendering="geometricPrecision" transform="matrix(1,0,0,1,-363,-156)" stroke="rgb(247,255,247)">
      <path fill="none" d="M380.5 279 Q380.5 271 388.5 271 L511.5 271 Q519.5 271 519.5 279 L519.5 305 Q519.5 313 511.5 313 L388.5 313 Q380.5 313 380.5 305 Z" clip-path="url(#clipPath2)"/>
      <path fill="none" d="M380.5 279 Q380.5 271 388.5 271 L511.5 271 Q519.5 271 519.5 279 L519.5 305 Q519.5 313 511.5 313 L388.5 313 Q380.5 313 380.5 305 Z" stroke-width="1" clip-path="url(#clipPath2)" stroke="rgb(204,255,204)"/>
    </g>
    <g text-rendering="geometricPrecision" stroke-miterlimit="1.45" shape-rendering="geometricPrecision" font-family="sans-serif" transform="matrix(1,0,0,1,-363,-156)" stroke-linecap="butt">
      <text x="405.0059" xml:space="preserve" y="289.1699" clip-path="url(#clipPath2)" stroke="none">chebidb:23367</text>
      <text x="400.8896" xml:space="preserve" y="303.1387" clip-path="url(#clipPath2)" stroke="none">molecular entity</text>
    </g>
    <g text-rendering="geometricPrecision" stroke-miterlimit="1.45" shape-rendering="geometricPrecision" transform="matrix(1,0,0,1,-363,-156)" stroke-linecap="butt">
      <path fill="none" d="M450 464.9834 L450 428.0296" clip-path="url(#clipPath2)"/>
    </g>
    <g stroke-linecap="butt" transform="matrix(1,0,0,1,-363,-156)" fill="white" text-rendering="geometricPrecision" shape-rendering="geometricPrecision" stroke="white" stroke-miterlimit="1.45">
      <path d="M450 413.0296 L444 429.0296 L456 429.0296 Z" stroke="none" clip-path="url(#clipPath2)"/>
      <path fill="none" d="M450 413.0296 L444 429.0296 L456 429.0296 Z" clip-path="url(#clipPath2)" stroke="black"/>
      <path fill="none" d="M521.5027 488 L700.5283 488" clip-path="url(#clipPath2)" stroke="black"/>
      <path fill="black" d="M708.5283 488 L696.5283 483 L699.5283 488 L696.5283 493 Z" clip-path="url(#clipPath2)" stroke="none"/>
      <text x="590.9912" y="522.1543" clip-path="url(#clipPath2)" fill="black" font-family="sans-serif" stroke="none" xml:space="preserve">has role</text>
      <path fill="none" stroke-dasharray="6,2" d="M475.8014 465.0133 L748.2189 222.3141" clip-path="url(#clipPath2)" stroke="black"/>
      <path fill="black" stroke-dasharray="6,2" d="M754.1921 216.9925 L741.9062 221.2417 L747.4722 222.9793 L748.5583 228.7082 Z" clip-path="url(#clipPath2)" stroke="none"/>
      <text x="590.9912" y="345.1543" clip-path="url(#clipPath2)" fill="black" font-family="sans-serif" stroke="none" xml:space="preserve">has role</text>
      <path fill="none" stroke-dasharray="6,2" d="M488.7122 465.0073 L734.3995 319.0839" clip-path="url(#clipPath2)" stroke="black"/>
      <path fill="black" stroke-dasharray="6,2" d="M741.2778 314.9986 L728.4071 316.8276 L733.5397 319.5946 L733.5137 325.4255 Z" clip-path="url(#clipPath2)" stroke="none"/>
      <text x="590.9912" y="394.1543" clip-path="url(#clipPath2)" fill="black" font-family="sans-serif" stroke="none" xml:space="preserve">has role</text>
      <path fill="none" d="M780 268.9834 L780 232.0296" clip-path="url(#clipPath2)" stroke="black"/>
      <path d="M780 217.0296 L774 233.0296 L786 233.0296 Z" clip-path="url(#clipPath2)" stroke="none"/>
      <path fill="none" d="M780 217.0296 L774 233.0296 L786 233.0296 Z" clip-path="url(#clipPath2)" stroke="black"/>
      <path fill="none" d="M780 464.9834 L780 428.0296" clip-path="url(#clipPath2)" stroke="black"/>
      <path d="M780 413.0296 L774 429.0296 L786 429.0296 Z" clip-path="url(#clipPath2)" stroke="none"/>
      <path fill="none" d="M780 413.0296 L774 429.0296 L786 429.0296 Z" clip-path="url(#clipPath2)" stroke="black"/>
      <path fill="none" stroke-dasharray="6,2" d="M520.1331 467.1726 L702.1936 413.1061" clip-path="url(#clipPath2)" stroke="black"/>
      <path fill="black" stroke-dasharray="6,2" d="M709.8626 410.8287 L696.9357 409.4518 L701.235 413.3908 L699.7825 419.038 Z" clip-path="url(#clipPath2)" stroke="none"/>
      <text x="590.9912" y="443.1543" clip-path="url(#clipPath2)" fill="black" font-family="sans-serif" stroke="none" xml:space="preserve">has role</text>
      <path fill="none" d="M780 366.9834 L780 330.0296" clip-path="url(#clipPath2)" stroke="black"/>
      <path d="M780 315.0296 L774 331.0296 L786 331.0296 Z" clip-path="url(#clipPath2)" stroke="none"/>
      <path fill="none" d="M780 315.0296 L774 331.0296 L786 331.0296 Z" clip-path="url(#clipPath2)" stroke="black"/>
      <path fill="none" stroke-dasharray="6,2" d="M450 366.9834 L450 330.0296" clip-path="url(#clipPath2)" stroke="black"/>
      <path stroke-dasharray="6,2" d="M450 315.0296 L444 331.0296 L456 331.0296 Z" clip-path="url(#clipPath2)" stroke="none"/>
      <path fill="none" d="M450 315.0296 L444 331.0296 L456 331.0296 Z" clip-path="url(#clipPath2)" stroke="black"/>
      <path fill="none" d="M450 268.9834 L450 232.0296" clip-path="url(#clipPath2)" stroke="black"/>
      <path d="M450 217.0296 L444 233.0296 L456 233.0296 Z" clip-path="url(#clipPath2)" stroke="none"/>
      <path fill="none" d="M450 217.0296 L444 233.0296 L456 233.0296 Z" clip-path="url(#clipPath2)" stroke="black"/>
    </g>
  </g>
</svg>
